{
  "_id": "h8j7cYUozTuPOgUj",
  "name": "Possessed Creature",
  "permission": {
    "default": 0
  },
  "type": "feat",
  "data": {
    "description": {
      "value": "<p><strong>Acquired/Inherited Template</strong>&nbsp;Acquired<br><strong>Simple Template&nbsp;</strong>Yes<br><strong>Usable with Summons</strong>&nbsp;No<br><br>While there are rules in&nbsp;Pathfinder RPG Occult Adventures&nbsp;for when a creature is possessed and totally controlled by a specific spell, sometimes a creature is possessed by a vague entity (hereafter called a spirit) that acts as a second personality within the creature’s mind, sharing control and providing the creature some symbiotic benefits.<br><br><strong>Quick Rules: </strong>+2 on rolls based on Cha; +4 on Will saves; after failing a save against a mind-affecting effect, reroll the save, but the spirit takes control if the second save succeeds; always acts on the surprise round.<br><br><strong>Rebuild Rules:</strong>&nbsp;Defensive Abilities&nbsp;+4 on Will saves; after failing a save against a mind-affecting effect, reroll the save, but the spirit takes control if the second save succeeds;&nbsp;Special Qualities&nbsp;always acts on the surprise round;&nbsp;Ability Scores&nbsp;+4 Cha.</p>",
      "chat": "",
      "unidentified": ""
    },
    "tags": [],
    "activation": {
      "cost": 1,
      "type": ""
    },
    "unchainedAction": {
      "activation": {
        "cost": 1,
        "type": ""
      }
    },
    "duration": {
      "value": null,
      "units": ""
    },
    "target": {
      "value": ""
    },
    "range": {
      "value": null,
      "units": "",
      "maxIncrements": 1,
      "minValue": null,
      "minUnits": "",
      "long": null
    },
    "uses": {
      "value": 0,
      "max": 0,
      "per": null,
      "autoDeductCharges": true,
      "autoDeductChargesCost": "1"
    },
    "measureTemplate": {
      "type": "",
      "size": "0",
      "overrideColor": false,
      "customColor": "",
      "overrideTexture": false,
      "customTexture": ""
    },
    "attackName": "",
    "actionType": "",
    "attackBonus": "",
    "critConfirmBonus": "",
    "damage": {
      "parts": [],
      "critParts": [],
      "nonCritParts": []
    },
    "attackParts": [],
    "formula": "",
    "ability": {
      "attack": null,
      "damage": null,
      "damageMult": 1,
      "critRange": 20,
      "critMult": 2
    },
    "save": {
      "dc": 0,
      "type": "",
      "description": ""
    },
    "effectNotes": "",
    "attackNotes": "",
    "soundEffect": "",
    "changes": [
      {
        "_id": "m65sere2",
        "formula": "4",
        "operator": "+",
        "target": "savingThrows",
        "subTarget": "will",
        "modifier": "untyped",
        "priority": 0,
        "value": 0
      },
      {
        "_id": "fvzudl47",
        "formula": "4",
        "operator": "+",
        "target": "ability",
        "subTarget": "cha",
        "modifier": "untyped",
        "priority": 0,
        "value": 0
      }
    ],
    "changeFlags": {
      "loseDexToAC": false,
      "noStr": false,
      "noDex": false,
      "oneInt": false,
      "oneWis": false,
      "oneCha": false,
      "noEncumbrance": false,
      "mediumArmorFullSpeed": false,
      "heavyArmorFullSpeed": false
    },
    "contextNotes": [],
    "links": {
      "children": [],
      "charges": []
    },
    "tag": "",
    "useCustomTag": false,
    "armorProf": {
      "value": [],
      "custom": ""
    },
    "weaponProf": {
      "value": [],
      "custom": ""
    },
    "featType": "template",
    "associations": {
      "classes": []
    },
    "showInQuickbar": false,
    "nonlethal": false,
    "abilityType": "none",
    "crOffset": "1",
    "attack": {
      "parts": []
    }
  },
  "flags": {},
  "img": "systems/pf1/icons/skills/violet_07.jpg",
  "effects": []
}