{
  "_id": "ZnRc2qF1ZfpajxEe",
  "name": "Rougarou",
  "permission": {
    "default": 0
  },
  "type": "race",
  "data": {
    "description": {
      "value": "<h2>Standard Racial Traits</h2>\n<ul>\n<li>\n<p><strong>Ability Scores:</strong> +2&nbsp;<a href=\"https://www.d20pfsrd.com/basics-ability-scores/ability-scores#TOC-Strength-Str-\">Str</a>, +2&nbsp;<a href=\"https://www.d20pfsrd.com/basics-ability-scores/ability-scores#TOC-Wisdom-Wis-\">Wis</a>, –2&nbsp;<a href=\"https://www.d20pfsrd.com/basics-ability-scores/ability-scores#TOC-Intelligence-Int-\">Int</a>. Rougarous are strong and alert, but simplistic.</p>\n</li>\n<li>\n<p><strong>Size:</strong> Medium. Rougarous are Medium creatures.</p>\n</li>\n<li>\n<p><strong>Speed:</strong> Rougarous have a base speed of 30 feet.</p>\n</li>\n<li><strong>Languages:</strong> Rougarous speak Common and their own racial language of Rougarou. Rougarous with high&nbsp;<a href=\"https://www.d20pfsrd.com/basics-ability-scores/ability-scores#TOC-Intelligence-Int-\">Intelligence</a>&nbsp;scores can choose from these bonus languages: Aklo, Elven, Gnoll, Gnome, Goblin, or Sylvan.</li>\n</ul>\n<h3>Offensive Racial Traits</h3>\n<ul>\n<li>\n<p><strong>Natural Weapon: </strong>Rougarous have a bite attack that deals 1d4 points of damage. This is a secondary attack if a rougarou wields a manufactured weapon.</p>\n</li>\n</ul>\n<h3>Senses Racial Traits</h3>\n<ul>\n<li><strong>Senses</strong>: Rougarous have&nbsp;<a href=\"https://www.d20pfsrd.com/gamemastering/special-abilities#TOC-Low-Light-Vision\">low-light vision</a>&nbsp;and the&nbsp;<a href=\"https://www.d20pfsrd.com/gamemastering/special-abilities#TOC-Scent\">scent</a>&nbsp;special ability.</li>\n</ul>\n<h3>Other Racial Traits</h3>\n<ul>\n<li><strong>Change Shape (Su)</strong>&nbsp;A rougarou can change shape once per day into a&nbsp;<a href=\"https://www.d20pfsrd.com/bestiary/monster-listings/animals/canines/wolf/\">wolf</a>&nbsp;as a&nbsp;<a href=\"https://www.d20pfsrd.com/gamemastering/combat#TOC-Standard-Actions\">standard action</a>, as&nbsp;<a href=\"https://www.d20pfsrd.com/magic/all-spells/b/beast-shape\">beast shape I</a>. A rougarou can revert to its true form as a&nbsp;<a href=\"https://www.d20pfsrd.com/gamemastering/combat#TOC-Swift-Actions\">swift action</a>.</li>\n</ul>",
      "chat": "",
      "unidentified": ""
    },
    "tags": [],
    "changes": [
      {
        "_id": "wcea60lv",
        "formula": "2",
        "operator": "+",
        "target": "ability",
        "subTarget": "str",
        "modifier": "racial",
        "priority": 0,
        "value": 0
      },
      {
        "_id": "8pbmvp3a",
        "formula": "2",
        "operator": "+",
        "target": "ability",
        "subTarget": "wis",
        "modifier": "racial",
        "priority": 0,
        "value": 0
      },
      {
        "_id": "ls8q001j",
        "formula": "-2",
        "operator": "+",
        "target": "ability",
        "subTarget": "int",
        "modifier": "racial",
        "priority": 0,
        "value": 0
      }
    ],
    "changeFlags": {
      "loseDexToAC": false,
      "noStr": false,
      "noDex": false,
      "oneInt": false,
      "oneWis": false,
      "oneCha": false,
      "noEncumbrance": false,
      "mediumArmorFullSpeed": false,
      "heavyArmorFullSpeed": false
    },
    "contextNotes": [],
    "links": {
      "children": []
    },
    "armorProf": {
      "value": [],
      "custom": ""
    },
    "weaponProf": {
      "value": [],
      "custom": ""
    },
    "creatureType": "humanoid",
    "subTypes": [
      [
        "Rougarou"
      ]
    ],
    "damage": {
      "parts": []
    }
  },
  "flags": {},
  "img": "systems/pf1/icons/races/creature-types/animal.png",
  "effects": []
}