{
  "_id": "BqLC11fOz18bwiuU",
  "name": "Drow Razor",
  "permission": {
    "default": 0
  },
  "type": "weapon",
  "data": {
    "description": {
      "value": "<p><em>Meant for quick strikes and slashes, this long, slender knife is incredibly sharp along one edge.&nbsp;<a href=\"https://www.d20pfsrd.com/races/other-races/featured-races/arg-drow\">Drow</a>&nbsp;<a href=\"https://www.d20pfsrd.com/classes/hybrid-classes/swashbuckler\">swashbucklers</a>&nbsp;and assassins are particularly fond of these weapons.</em></p>\n<p>A confirmed&nbsp;<a href=\"https://www.d20pfsrd.com/gamemastering/combat#TOC-Critical-Hits\">critical hit</a>&nbsp;or successful&nbsp;<a href=\"https://www.d20pfsrd.com/classes/core-classes/rogue#TOC-Sneak-Attack\">sneak attack</a>&nbsp;with a drow razor deals an additional 2 points of damage; this damage is precision damage and is not multiplied on a&nbsp;<a href=\"https://www.d20pfsrd.com/gamemastering/combat#TOC-Critical-Hits\">critical hit</a>. A character with the&nbsp;<a href=\"https://www.d20pfsrd.com/races/other-races/featured-races/arg-drow\">drow’s</a>&nbsp;weapon familiarity racial trait treats the drow razor as a martial weapon.</p>",
      "chat": "",
      "unidentified": ""
    },
    "tags": [],
    "quantity": 1,
    "weight": 2,
    "price": 25,
    "identified": true,
    "hp": {
      "max": 2,
      "value": 2
    },
    "hardness": 10,
    "carried": true,
    "unidentified": {
      "price": 0,
      "name": ""
    },
    "identifiedName": "",
    "cl": 0,
    "aura": {
      "custom": false,
      "school": ""
    },
    "changes": [],
    "changeFlags": {
      "loseDexToAC": false,
      "noStr": false,
      "noDex": false,
      "oneInt": false,
      "oneWis": false,
      "oneCha": false,
      "noEncumbrance": false,
      "mediumArmorFullSpeed": false,
      "heavyArmorFullSpeed": false
    },
    "contextNotes": [],
    "links": {
      "children": []
    },
    "equipped": true,
    "masterwork": false,
    "weaponType": "exotic",
    "weaponSubtype": "light",
    "properties": {
      "blc": false,
      "brc": false,
      "dbl": false,
      "dis": false,
      "fin": false,
      "frg": false,
      "imp": false,
      "mnk": false,
      "nnl": false,
      "prf": false,
      "rch": false,
      "thr": false,
      "trp": false
    },
    "enh": null,
    "weaponData": {
      "damageRoll": "1d4",
      "damageType": "S",
      "critRange": "18",
      "critMult": "2",
      "range": null,
      "attackFormula": "",
      "damageFormula": "",
      "size": "med",
      "maxRangeIncrements": 1
    },
    "broken": false,
    "bonus": {
      "value": 0,
      "_deprecated": true
    },
    "damageType": {
      "value": "",
      "_deprecated": true
    },
    "damage2": {
      "value": "",
      "_deprecated": true
    },
    "damage2Type": {
      "value": "",
      "_deprecated": true
    },
    "damage": {
      "parts": []
    }
  },
  "flags": {},
  "img": "systems/pf1/icons/items/weapons/razor-drow.PNG",
  "effects": []
}