{
  "_id": "q1HlpY1NoUveS47l",
  "name": "Handwraps",
  "permission": {
    "default": 0
  },
  "type": "weapon",
  "data": {
    "description": {
      "value": "<p>Many unarmed fighters wrap their hands in cloth to minimize injuries to their fists.</p>\n<p>Some martial artists also weave small coins or metal bars into their handwraps, adding special material effects as well. Handwraps don’t alter the damage a character’s unarmed attacks deal. However, masterwork handwraps can be enchanted as weapons, providing their benefits on unarmed attacks the character makes with her hands. A character can’t benefit from both handwraps and other items that provide enhancement bonuses or weapon special abilities (such as an&nbsp;<a href=\"https://www.d20pfsrd.com/magic-items/wondrous-items/wondrous-items/a-b/amulet-of-mighty-fists\">amulet of mighty fists</a>) on the same attack.</p>",
      "chat": "",
      "unidentified": ""
    },
    "tags": [],
    "quantity": 1,
    "weight": 0,
    "price": 0.1,
    "identified": true,
    "hp": {
      "max": 2,
      "value": 2
    },
    "hardness": 0,
    "carried": true,
    "unidentified": {
      "price": 0,
      "name": ""
    },
    "identifiedName": "",
    "cl": 0,
    "aura": {
      "custom": false,
      "school": ""
    },
    "changes": [],
    "changeFlags": {
      "loseDexToAC": false,
      "noStr": false,
      "noDex": false,
      "oneInt": false,
      "oneWis": false,
      "oneCha": false,
      "noEncumbrance": false,
      "mediumArmorFullSpeed": false,
      "heavyArmorFullSpeed": false
    },
    "contextNotes": [],
    "links": {
      "children": []
    },
    "equipped": true,
    "masterwork": false,
    "weaponType": "simple",
    "weaponSubtype": "light",
    "properties": {
      "blc": false,
      "brc": false,
      "dbl": false,
      "dis": false,
      "fin": false,
      "frg": false,
      "imp": false,
      "mnk": false,
      "nnl": false,
      "prf": false,
      "rch": false,
      "thr": false,
      "trp": false
    },
    "enh": null,
    "weaponData": {
      "damageRoll": "",
      "damageType": "",
      "critRange": "20",
      "critMult": "2",
      "range": null,
      "attackFormula": "",
      "damageFormula": "",
      "size": "med",
      "maxRangeIncrements": 1
    },
    "broken": false,
    "bonus": {
      "value": 0,
      "_deprecated": true
    },
    "damageType": {
      "value": "",
      "_deprecated": true
    },
    "damage2": {
      "value": "",
      "_deprecated": true
    },
    "damage2Type": {
      "value": "",
      "_deprecated": true
    },
    "damage": {
      "parts": []
    }
  },
  "flags": {},
  "img": "systems/pf1/icons/items/weapons/handwraps.png",
  "effects": []
}