{
  "_id": "bosoyirljrelcyuc",
  "name": "Blue Book",
  "permission": {
    "default": 0
  },
  "type": "loot",
  "data": {
    "description": {
      "value": "\r\n<p><b>Blue Book</b> This book details the seedier entertainment establishments in one major city. It contains the names of brothels, burlesque houses, and gambling halls in that city. By consulting the book for 1 hour, for the next 24 hours you gain a +2 circumstance bonus on <a href=\"https://www.d20pfsrd.com/skills/knowledge\">Knowledge</a> (local), Bluff, and Diplomacy checks to gather or use information in that city. At the GM's discretion, you can use it in settlements near that city for a +1 bonus. <b>Price</b> 5 gp; <b>Weight</b> 1 lb.</p>\r\n",
      "chat": "",
      "unidentified": ""
    },
    "tags": [],
    "quantity": 1,
    "weight": 1,
    "price": 5,
    "identified": true,
    "hp": {
      "max": 10,
      "value": 10
    },
    "hardness": 0,
    "carried": true,
    "unidentified": {
      "price": 0,
      "name": ""
    },
    "identifiedName": "",
    "cl": 0,
    "aura": {
      "custom": false,
      "school": ""
    },
    "changes": [],
    "changeFlags": {
      "loseDexToAC": false,
      "noStr": false,
      "noDex": false,
      "oneInt": false,
      "oneWis": false,
      "oneCha": false,
      "noEncumbrance": false,
      "mediumArmorFullSpeed": false,
      "heavyArmorFullSpeed": false
    },
    "contextNotes": [],
    "links": {
      "children": []
    },
    "tag": "",
    "useCustomTag": false,
    "subType": "gear",
    "equipped": false,
    "damage": {
      "parts": []
    }
  },
  "flags": {},
  "img": "systems/pf1/icons/items/inventory/dice.jpg",
  "effects": []
}