{
  "_id": "q8UJF3P0VkZLVyeD",
  "name": "Cards",
  "permission": {
    "default": 0
  },
  "type": "loot",
  "data": {
    "description": {
      "value": "<p><span id=\"ctl00_MainContent_DataListTypes_ctl00_LabelName\">Source&nbsp;<a href=\"http://paizo.com/products/btpy8tmc?Pathfinder-Roleplaying-Game-Ultimate-Equipment\" target=\"_blank\" rel=\"noopener\">Ultimate Equipment pg. 92</a><br>Price&nbsp;1 sp–100 gp;&nbsp;Weight&nbsp;1 lb.<br>Category&nbsp;Entertainment</span></p>\n<h3>Description</h3>\n<p>Playing cards range from block-printed symbols on thick paper to elaborate, hand-painted works of art on waxed vellum, ivory, wood, or even metal.</p>",
      "chat": "",
      "unidentified": ""
    },
    "tags": [],
    "quantity": 1,
    "weight": 1,
    "price": 0.1,
    "identified": true,
    "hp": {
      "max": 10,
      "value": 10
    },
    "hardness": 0,
    "carried": true,
    "unidentified": {
      "price": 0,
      "name": ""
    },
    "identifiedName": "Cards",
    "cl": 0,
    "aura": {
      "custom": false,
      "school": ""
    },
    "changes": [],
    "changeFlags": {
      "loseDexToAC": false,
      "noStr": false,
      "noDex": false,
      "oneInt": false,
      "oneWis": false,
      "oneCha": false,
      "noEncumbrance": false,
      "mediumArmorFullSpeed": false,
      "heavyArmorFullSpeed": false
    },
    "contextNotes": [],
    "links": {
      "children": []
    },
    "tag": "",
    "useCustomTag": false,
    "subType": "gear",
    "equipped": false,
    "damage": {
      "parts": []
    }
  },
  "flags": {},
  "img": "systems/pf1/icons/items/inventory/dice.jpg",
  "effects": []
}