{
  "_id": "ebwzhqqvpbfqqupw",
  "name": "Embalming Fluid",
  "permission": {
    "default": 0
  },
  "type": "loot",
  "data": {
    "description": {
      "value": "\r\n<p><b>Price</b> 50 gp; <b>Weight</b> 10 lbs.</p>\r\n<p>This fluid is used to preserve corpses, whether for later dissection, taxidermy, necromancy, or magic such as raise dead. Embalming fluid is technically a poison, and using it makes a corpse unpalatable to most animals and vermin, though corpse-eating undead don't mind the taste. Treating a corpse with embalming fluid takes 1 hour and a successful DC 25 Heal check. The embalmed corpse decays at half the normal rate (each day dead counts as half a day for the purpose of raise dead).</p>\r\n",
      "chat": "",
      "unidentified": ""
    },
    "tags": [],
    "quantity": 1,
    "weight": 10,
    "price": 50,
    "identified": true,
    "hp": {
      "max": 10,
      "value": 10
    },
    "hardness": 0,
    "carried": true,
    "unidentified": {
      "price": 0,
      "name": ""
    },
    "identifiedName": "",
    "cl": 0,
    "aura": {
      "custom": false,
      "school": ""
    },
    "changes": [],
    "changeFlags": {
      "loseDexToAC": false,
      "noStr": false,
      "noDex": false,
      "oneInt": false,
      "oneWis": false,
      "oneCha": false,
      "noEncumbrance": false,
      "mediumArmorFullSpeed": false,
      "heavyArmorFullSpeed": false
    },
    "contextNotes": [],
    "links": {
      "children": []
    },
    "tag": "",
    "useCustomTag": false,
    "subType": "gear",
    "equipped": false,
    "damage": {
      "parts": []
    }
  },
  "flags": {},
  "img": "systems/pf1/icons/items/inventory/dice.jpg",
  "effects": []
}