{
  "name": "Haggis",
  "permission": {
    "default": 0
  },
  "type": "loot",
  "data": {
    "description": {
      "value": "<div><strong>Source</strong> <a class=\"external-link\" href=\"http://paizo.com/products/btpy8tmc?Pathfinder-Roleplaying-Game-Ultimate-Equipment\" target=\"_blank\" rel=\"noopener\"><em>Ultimate Equipment pg. 95</em></a></div>\n<div>\n<div>&nbsp;</div>\n<div>This dish is a meaty pudding made of sheep organs (mainly heart, liver, and lungs) minced with onion, oats, fat, spices, and salt, wrapped in a sheep stomach and slow-cooked. Though its ingredients discourage cautious eaters, fans of haggis consider it a hearty meal with a wonderful texture. It is usually served with turnips, potatoes, and whiskey.</div>\n</div>",
      "chat": "",
      "unidentified": ""
    },
    "tags": [],
    "quantity": 1,
    "weight": 1.5,
    "price": 0.1,
    "identified": true,
    "hp": {
      "max": 10,
      "value": 10
    },
    "hardness": 0,
    "carried": true,
    "unidentified": {
      "price": 0,
      "name": ""
    },
    "identifiedName": "Haggis",
    "cl": 0,
    "aura": {
      "custom": false,
      "school": ""
    },
    "changes": [],
    "changeFlags": {
      "loseDexToAC": false,
      "noEncumbrance": false,
      "mediumArmorFullSpeed": false,
      "heavyArmorFullSpeed": false
    },
    "contextNotes": [],
    "links": {
      "children": []
    },
    "tag": "",
    "useCustomTag": false,
    "flags": {
      "boolean": [],
      "dictionary": []
    },
    "subType": "misc",
    "equipped": true,
    "damage": {
      "parts": [],
      "critParts": [],
      "nonCritParts": []
    },
    "uses": {
      "value": 0,
      "max": 0
    }
  },
  "flags": {},
  "img": "systems/pf1/icons/items/inventory/dice.jpg",
  "effects": [],
  "_id": "nYB3tL0Fs6nRPS46"
}