{
  "_id": "wwiwdenkdazxjstn",
  "name": "Kit, Harvester's",
  "permission": {
    "default": 0
  },
  "type": "loot",
  "data": {
    "description": {
      "value": "\r\n<p class=\"source\"><b>Source</b>: <a title=\"PZO9487\" href=\"http://amzn.to/2mhneTn\" target=\"_blank\" rel=\"noopener\">PZO9487</a></p>\r\n<p><b>Price</b> 65 gp; <b>Weight</b> -</p>\r\n<p>This set of surgical tools includes everything needed to quickly and safely harvest the venom from a <a href=\"https://www.d20pfsrd.com/gamemastering/conditions#TOC-Dead\">dead</a> creature. This kit includes forceps, a pair of surgical retractors, a scalpel, small but sturdy metal containers for the harvested venom, a sponge, a surgical hook, and a tiny mallet, all tucked into a leather pouch with a loop for hooking onto the wearer's belt. A harvester's kit provides a +2 <a href=\"https://www.d20pfsrd.com/basics-ability-scores/glossary#TOC-Circumstance-Bonus\">circumstance bonus</a> on <a href=\"https://www.d20pfsrd.com/skills/survival\">Survival</a> checks to successfully harvest <a href=\"https://www.d20pfsrd.com/gamemastering/afflictions/poison\">poison</a> from a creature.</p>\r\n<p>A harvester's kit is <a href=\"https://www.d20pfsrd.com/gamemastering/conditions#TOC-Exhausted\">exhausted</a> after 10 uses.</p>\r\n\r\n",
      "chat": "",
      "unidentified": ""
    },
    "tags": [],
    "quantity": 1,
    "weight": 0,
    "price": 65,
    "identified": true,
    "hp": {
      "max": 10,
      "value": 10
    },
    "hardness": 0,
    "carried": true,
    "unidentified": {
      "price": 0,
      "name": ""
    },
    "identifiedName": "",
    "cl": 0,
    "aura": {
      "custom": false,
      "school": ""
    },
    "changes": [],
    "changeFlags": {
      "loseDexToAC": false,
      "noStr": false,
      "noDex": false,
      "oneInt": false,
      "oneWis": false,
      "oneCha": false,
      "noEncumbrance": false,
      "mediumArmorFullSpeed": false,
      "heavyArmorFullSpeed": false
    },
    "contextNotes": [],
    "links": {
      "children": []
    },
    "tag": "",
    "useCustomTag": false,
    "subType": "gear",
    "equipped": false,
    "damage": {
      "parts": []
    }
  },
  "flags": {},
  "img": "systems/pf1/icons/items/inventory/dice.jpg",
  "effects": []
}