{
  "_id": "cezjqdjcjbgqsbdu",
  "name": "Powder, Itching",
  "permission": {
    "default": 0
  },
  "type": "loot",
  "data": {
    "description": {
      "value": "\r\n<p class=\"source\"><b>Source</b> <a title=\"PZO9410\" href=\"http://www.amazon.com/gp/product/1601252226/ref=as_li_qf_sp_asin_il_tl?ie=UTF8&amp;camp=1789&amp;creative=9325&amp;creativeASIN=1601252226&amp;linkCode=as2&amp;tag=httpwwwd20pfs-20\" target=\"_blank\" rel=\"noopener\">PZO9410</a></p>\r\n<p>This fine gray powder causes targets to suffer from uncontrollable itching until they spend at least 1 round washing it off. Throwing a packet of itching powder is a splash attack with a range increment of 10 feet. Anyone standing on the square of impact must succeed on a DC 12 <a href=\"https://www.d20pfsrd.com/gamemastering/combat#TOC-Fortitude\">Fortitude</a> save to resist the powder, while those in adjacent squares must make a DC 8 <a href=\"https://www.d20pfsrd.com/gamemastering/combat#TOC-Fortitude\">Fortitude</a> save. Creatures that fail the save take a -2 penalty on <a href=\"https://www.d20pfsrd.com/gamemastering/combat#TOC-Attack-Roll\">attack rolls</a>, <a href=\"https://www.d20pfsrd.com/gamemastering/combat#TOC-Saving-Throws\">saving throws</a>, skill checks, and ability checks.</p>\r\n<p><b>Create</b>: <a href=\"https://www.d20pfsrd.com/skills/craft\">Craft</a> (alchemy) DC 25</p>\r\n<p class=\"header\">Alchemical Power Component</p>\r\n<p class=\"source\"><b>Source</b> <a title=\"PZO9410\" href=\"http://www.amazon.com/gp/product/1601252226/ref=as_li_qf_sp_asin_il_tl?ie=UTF8&amp;camp=1789&amp;creative=9325&amp;creativeASIN=1601252226&amp;linkCode=as2&amp;tag=httpwwwd20pfs-20\" target=\"_blank\" rel=\"noopener\">PZO9410</a></p>\r\n<p>Itching powder can make an otherwise innocuous spell especially irritating.</p>\r\n<ul>\r\n<li><a class=\"spell\" href=\"https://www.d20pfsrd.com/magic/all-spells/g/glitterdust\">Glitterdust</a> (M): For each packet of itching powder used as a power component, you may designate one creature in the area to be affected by itching powder (DC 12).</li>\r\n<li><a class=\"spell\" href=\"https://www.d20pfsrd.com/magic/all-spells/r/repel-vermin\">Repel Vermin</a> (M): The first <a href=\"https://www.d20pfsrd.com/bestiary/rules-for-monsters/creature-types#TOC-Vermin\">vermin</a> that enters the emanation is subject to the effects of itching powder (DC 15). Each packet of itching powder beyond the first means the spell affects another <a href=\"https://www.d20pfsrd.com/bestiary/rules-for-monsters/creature-types#TOC-Vermin\">vermin</a> that enters the emanation. A <a href=\"https://www.d20pfsrd.com/bestiary/rules-for-monsters/creature-types#TOC-Swarm\">swarm</a> of <a href=\"https://www.d20pfsrd.com/bestiary/rules-for-monsters/creature-types#TOC-Vermin\">vermin</a> counts as one <a href=\"https://www.d20pfsrd.com/bestiary/rules-for-monsters/creature-types#TOC-Vermin\">vermin</a> for the purpose of this effect.</li>\r\n<li><a class=\"spell\" href=\"https://www.d20pfsrd.com/magic/all-spells/s/summon-swarm\">Summon Swarm</a> (M): Increase the <a href=\"https://www.d20pfsrd.com/bestiary/rules-for-monsters/creature-types#TOC-Swarm\">swarm's</a> distraction DC by 2.</li>\r\n</ul>\r\n",
      "chat": "",
      "unidentified": ""
    },
    "tags": [],
    "quantity": 1,
    "weight": 2,
    "price": 60,
    "identified": true,
    "hp": {
      "max": 10,
      "value": 10
    },
    "hardness": 0,
    "carried": true,
    "unidentified": {
      "price": 0,
      "name": ""
    },
    "identifiedName": "",
    "cl": 0,
    "aura": {
      "custom": false,
      "school": ""
    },
    "changes": [],
    "changeFlags": {
      "loseDexToAC": false,
      "noStr": false,
      "noDex": false,
      "oneInt": false,
      "oneWis": false,
      "oneCha": false,
      "noEncumbrance": false,
      "mediumArmorFullSpeed": false,
      "heavyArmorFullSpeed": false
    },
    "contextNotes": [],
    "links": {
      "children": []
    },
    "tag": "",
    "useCustomTag": false,
    "subType": "gear",
    "equipped": false,
    "damage": {
      "parts": []
    }
  },
  "flags": {},
  "img": "systems/pf1/icons/items/inventory/dice.jpg",
  "effects": []
}