{
  "_id": "LYsaOuDqmVV36BGl",
  "name": "Unerring grenade",
  "permission": {
    "default": 0
  },
  "type": "loot",
  "data": {
    "description": {
      "value": "<p>Source&nbsp;<a href=\"http://paizo.com/products/btpy9aub?Pathfinder-Adventure-Path-91-Battle-of-Bloodmarch-Hill\" target=\"_blank\" rel=\"noopener\">Pathfinder #91: Battle of Bloodmarch Hills pg. 46</a><br>Aura&nbsp;moderate divination&nbsp;CL&nbsp;9th<br>Slot&nbsp;none;&nbsp;Price&nbsp;266 gp ;&nbsp;Weight&nbsp;1 lb.</p>\n<h3>Description</h3>\n<p>The warped clay sphere of this&nbsp;+1 fuse grenade&nbsp;(Ultimate Equipment&nbsp;107) is painted with a crimson bull’s-eye symbol and its fuse is dyed red. An unerring grenade can be lit as a move action and thrown like a splash weapon. An unerring grenade veers toward its target, whether a creature or a grid intersection, negating any miss chances that would otherwise apply, such as from concealment. The thrower still has to aim at the right square or grid intersection. An&nbsp;unerring grenade&nbsp;otherwise functions as a normal fuse grenade (Reflex DC 16 half).</p>\n<h3>Construction</h3>\n<p>Requirements&nbsp;Craft Magic Arms and Armor,&nbsp;true seeing;&nbsp;Price&nbsp;186 gp</p>",
      "chat": "",
      "unidentified": ""
    },
    "tags": [],
    "quantity": 1,
    "weight": 1,
    "price": 266,
    "identified": true,
    "hp": {
      "max": 10,
      "value": 10
    },
    "hardness": 0,
    "carried": true,
    "unidentified": {
      "price": 0,
      "name": ""
    },
    "identifiedName": "Unerring grenade",
    "cl": 0,
    "aura": {
      "custom": false,
      "school": ""
    },
    "changes": [],
    "changeFlags": {
      "loseDexToAC": false,
      "noStr": false,
      "noDex": false,
      "oneInt": false,
      "oneWis": false,
      "oneCha": false,
      "noEncumbrance": false,
      "mediumArmorFullSpeed": false,
      "heavyArmorFullSpeed": false
    },
    "contextNotes": [],
    "links": {
      "children": []
    },
    "tag": "",
    "useCustomTag": false,
    "subType": "gear",
    "equipped": false,
    "damage": {
      "parts": []
    }
  },
  "flags": {},
  "img": "systems/pf1/icons/items/inventory/dice.jpg",
  "effects": []
}