{
  "_id": "bpxyxgsfhcrnhkes",
  "name": "Whip, Enraging",
  "permission": {
    "default": 0
  },
  "type": "loot",
  "data": {
    "description": {
      "value": "\r\n<p class=\"source\"><b>Source</b> <a href=\"http://www.amazon.com/gp/product/1601251726/ref=as_li_qf_sp_asin_il_tl?ie=UTF8&amp;camp=1789&amp;creative=9325&amp;creativeASIN=1601251726&amp;linkCode=as2&amp;tag=httpwwwd20pfs-20&amp;linkId=GW5FPNAVA4EAJ7JX\" target=\"_blank\" rel=\"noopener\">PCh:DDR</a></p>\r\n<p>This whip has small <a href=\"https://www.d20pfsrd.com/equipment/weapons/weapon-and-armor-accessories#TOC-Caltrops\">caltrops</a> or metal barbs woven into its length and a quartet of metal whistles attached to the fall; when snapped, the whistle sounds like screaming <a href=\"https://www.d20pfsrd.com/bestiary/monster-list/magical-beasts/owlbear\">owlbear</a> young. An <a href=\"https://www.d20pfsrd.com/bestiary/monster-list/magical-beasts/owlbear\">owlbear's</a> rider uses this noise to enrage the monster, prodding it to attack the nearest creature. Anyone who attacks an <a href=\"https://www.d20pfsrd.com/bestiary/monster-list/magical-beasts/owlbear\">owlbear</a> with such a whip draws its attack in preference to all other targets.</p>\r\n\r\n",
      "chat": "",
      "unidentified": ""
    },
    "tags": [],
    "quantity": 1,
    "weight": 5,
    "price": 100,
    "identified": true,
    "hp": {
      "max": 10,
      "value": 10
    },
    "hardness": 0,
    "carried": true,
    "unidentified": {
      "price": 0,
      "name": ""
    },
    "identifiedName": "",
    "cl": 0,
    "aura": {
      "custom": false,
      "school": ""
    },
    "changes": [],
    "changeFlags": {
      "loseDexToAC": false,
      "noStr": false,
      "noDex": false,
      "oneInt": false,
      "oneWis": false,
      "oneCha": false,
      "noEncumbrance": false,
      "mediumArmorFullSpeed": false,
      "heavyArmorFullSpeed": false
    },
    "contextNotes": [],
    "links": {
      "children": []
    },
    "tag": "",
    "useCustomTag": false,
    "subType": "gear",
    "equipped": false,
    "damage": {
      "parts": []
    }
  },
  "flags": {},
  "img": "systems/pf1/icons/items/inventory/dice.jpg",
  "effects": []
}