{
  "_id": "HD9bbKHM8x2c4Sqy",
  "name": "Basic Magic (1 pt)",
  "permission": {
    "default": 0
  },
  "type": "feat",
  "data": {
    "description": {
      "value": "<p>An eidolon learns to cast a basic spell as a spell-like ability. Select one spell from the following list:&nbsp;</p>\n<ul>\n<li>@Compendium[pf1.spells.eu2xv8klucttzqmd]{Acid Splash},</li>\n<li>@Compendium[pf1.spells.zymaptg3vmnvfvxl]{Dancing Lights},</li>\n<li>@Compendium[pf1.spells.hk3xhc08blqzniv0]{Daze},</li>\n<li>@Compendium[pf1.spells.uqh87jz757r2cb7r]{Detect Magic},</li>\n<li>@Compendium[pf1.spells.eg67vvykmv9c6j7h]{Flare},</li>\n<li>@Compendium[pf1.spells.mtxqp85izkb20djq]{Ghost Sound},</li>\n<li>@Compendium[pf1.spells.ip9onjfp6nf1vlv9]{Light},</li>\n<li>@Compendium[pf1.spells.p8lm7khq3ynyif21]{Mage Hand},</li>\n<li>@Compendium[pf1.spells.n879x6fw79jiofew]{Ray of Frost},</li>\n<li>@Compendium[pf1.spells.fipqx43u5blpjsvo]{Stabilize}, or</li>\n<li>@Compendium[pf1.spells.t1w2zq5fx7mislq8]{Touch of Fatigue}.</li>\n</ul>\n<p>This spell can be cast once per day as a spell-like ability.</p>\n<p>At 4th level, this spell can be cast three times per day by spending 2 additional evolution points. The caster level for this evolution is equal to the eidolon's Hit Dice. The save DC for this spell is 10 + the eidolon's Charisma modifier. The eidolon must have a Charisma score of at least 10 to take this evolution. This evolution can be selected more than once. Each time an eidolon selects this evolution, it applies to a new spell.</p>",
      "chat": "",
      "unidentified": ""
    },
    "tags": [],
    "activation": {
      "cost": 1,
      "type": ""
    },
    "unchainedAction": {
      "activation": {
        "cost": 1,
        "type": ""
      }
    },
    "duration": {
      "value": null,
      "units": ""
    },
    "target": {
      "value": ""
    },
    "range": {
      "value": null,
      "units": "",
      "maxIncrements": 1,
      "minValue": null,
      "minUnits": "",
      "long": null
    },
    "uses": {
      "value": 0,
      "max": 0,
      "per": null,
      "autoDeductCharges": true,
      "autoDeductChargesCost": "1"
    },
    "measureTemplate": {
      "type": "",
      "size": "",
      "overrideColor": false,
      "customColor": "",
      "overrideTexture": false,
      "customTexture": ""
    },
    "attackName": "",
    "actionType": "",
    "attackBonus": "",
    "critConfirmBonus": "",
    "damage": {
      "parts": [],
      "critParts": [],
      "nonCritParts": []
    },
    "attackParts": [],
    "formula": "",
    "ability": {
      "attack": null,
      "damage": null,
      "damageMult": 1,
      "critRange": 20,
      "critMult": 2
    },
    "save": {
      "dc": 0,
      "type": "",
      "description": ""
    },
    "effectNotes": "",
    "attackNotes": "",
    "soundEffect": "",
    "changes": [],
    "changeFlags": {
      "loseDexToAC": false,
      "noStr": false,
      "noDex": false,
      "oneInt": false,
      "oneWis": false,
      "oneCha": false,
      "noEncumbrance": false,
      "mediumArmorFullSpeed": false,
      "heavyArmorFullSpeed": false
    },
    "contextNotes": [],
    "links": {
      "children": [],
      "charges": []
    },
    "tag": "",
    "useCustomTag": false,
    "armorProf": {
      "value": [],
      "custom": ""
    },
    "weaponProf": {
      "value": [],
      "custom": ""
    },
    "featType": "classFeat",
    "associations": {
      "classes": [
        [
          "Eidolon"
        ]
      ]
    },
    "showInQuickbar": false,
    "nonlethal": false,
    "abilityType": "none",
    "crOffset": "",
    "attack": {
      "parts": []
    }
  },
  "flags": {},
  "img": "systems/pf1/icons/skills/blue_26.jpg",
  "effects": []
}