{
  "_id": "Rx562QjKOMwujIUb",
  "name": "Canine Ferocity",
  "permission": {
    "default": 0
  },
  "type": "feat",
  "data": {
    "description": {
      "value": "<p>At 8th level, when the cavalier uses his wolf or dog mount to perform a bull rush or overrun maneuver, the mount is considered to be one size category larger for the purposes of determining the size of creature it is maneuvering against and the mount's CMB. He also receives a bonus feat, chosen from the following list: @Compendium[pf1.feats.0spsP9ylE3goD3jc]{Mounted Combat}, @Compendium[pf1.feats.liPAO5urMI9chctT]{Ride-By Attack}, @Compendium[pf1.feats.7zJTztNW7hdaqjKc]{Skill Focus}<a href=\"https://aonprd.com/FeatDisplay.aspx?ItemName=Skill%20Focus\">&nbsp;(Ride)</a>, @Compendium[pf1.feats.jKVhOxHu6VmUgFdp]{Spirited Charge}, @Compendium[pf1.feats.8mS9B8Uc8odklIpl]{Trample}<a href=\"https://aonprd.com/FeatDisplay.aspx?ItemName=Trample\">&nbsp;(the mount can make a bite attack in place of a hoof attack)</a>, or @Compendium[pf1.feats.4fAgch4ut1JYPBbL]{Unseat}. He must qualify for the feat selected.</p>",
      "chat": "",
      "unidentified": ""
    },
    "tags": [],
    "activation": {
      "cost": 1,
      "type": ""
    },
    "unchainedAction": {
      "activation": {
        "cost": 1,
        "type": ""
      }
    },
    "duration": {
      "value": null,
      "units": ""
    },
    "target": {
      "value": ""
    },
    "range": {
      "value": null,
      "units": "",
      "maxIncrements": 1,
      "minValue": null,
      "minUnits": "",
      "long": null
    },
    "uses": {
      "value": 0,
      "max": 0,
      "per": null,
      "autoDeductCharges": true,
      "autoDeductChargesCost": "1"
    },
    "measureTemplate": {
      "type": "",
      "size": "0",
      "overrideColor": false,
      "customColor": "",
      "overrideTexture": false,
      "customTexture": ""
    },
    "attackName": "",
    "actionType": "",
    "attackBonus": "",
    "critConfirmBonus": "",
    "damage": {
      "parts": [],
      "critParts": [],
      "nonCritParts": []
    },
    "attackParts": [],
    "formula": "",
    "ability": {
      "attack": null,
      "damage": null,
      "damageMult": 1,
      "critRange": 20,
      "critMult": 2
    },
    "save": {
      "dc": 0,
      "type": "",
      "description": ""
    },
    "effectNotes": "",
    "attackNotes": "",
    "soundEffect": "",
    "changes": [],
    "changeFlags": {
      "loseDexToAC": false,
      "noStr": false,
      "noDex": false,
      "oneInt": false,
      "oneWis": false,
      "oneCha": false,
      "noEncumbrance": false,
      "mediumArmorFullSpeed": false,
      "heavyArmorFullSpeed": false
    },
    "contextNotes": [],
    "links": {
      "children": [],
      "charges": []
    },
    "tag": "",
    "useCustomTag": false,
    "armorProf": {
      "value": [],
      "custom": ""
    },
    "weaponProf": {
      "value": [],
      "custom": ""
    },
    "featType": "classFeat",
    "associations": {
      "classes": [
        [
          "Cavalier"
        ]
      ]
    },
    "showInQuickbar": false,
    "nonlethal": false,
    "abilityType": "ex",
    "crOffset": "",
    "attack": {
      "parts": []
    }
  },
  "flags": {},
  "img": "systems/pf1/icons/items/inventory/banner-red.jpg",
  "effects": []
}