{
  "_id": "VXfi5bOER9bg6GsN",
  "name": "Celestial Bloodline",
  "permission": {
    "default": 0
  },
  "type": "feat",
  "data": {
    "description": {
      "value": "<p><em>Your bloodline is blessed by a celestial power, either from a celestial ancestor or through divine intervention. Although this power drives you along the path of good, your fate (and alignment) is your own to determine.</em></p>\n<p><strong>Class Skill:</strong> Heal.</p>\n<p><strong>Bonus Spells: </strong></p>\n<ul>\n<li>@Compendium[pf1.spells.wa0zb2pncesmm9lz]{Bless} (3rd),</li>\n<li>@Compendium[pf1.spells.tkjnm3lw7ni82tag]{Resist Energy} (5th),</li>\n<li>@Compendium[pf1.spells.1i8b1v3dngkxj6jp]{Magic Circle against Evil} (7th),</li>\n<li>@Compendium[pf1.spells.o87h8gjxevcbztgd]{Remove Curse} (9th),</li>\n<li>@Compendium[pf1.spells.gmugktarbieojt59]{Flame Strike} (11th),</li>\n<li>@Compendium[pf1.spells.e5kw4dwf9qwty6tl]{Dispel Magic, Greater} (13th),</li>\n<li>@Compendium[pf1.spells.trl849bibbe760xo]{Banishment} (15th),</li>\n<li>@Compendium[pf1.spells.j2mwv9wfxhqch10g]{Sunburst} (17th),</li>\n<li>@Compendium[pf1.spells.ursm11405zobemi3]{Gate}&nbsp;(19th).</li>\n</ul>\n<p><strong>Bonus Feats:</strong></p>\n<ul>\n<li>@Compendium[pf1.feats.JreaiTHdyWFNj3Tb]{Dodge},</li>\n<li>@Compendium[pf1.feats.btXWioB3SKJv8YEG]{Extend Spell},</li>\n<li>@Compendium[pf1.feats.iAbIGhm7T2OK9Brt]{Iron Will},</li>\n<li>@Compendium[pf1.feats.R7L4SlGRlnThqFrP]{Mobility},</li>\n<li>@Compendium[pf1.feats.0spsP9ylE3goD3jc]{Mounted Combat},</li>\n<li>@Compendium[pf1.feats.liPAO5urMI9chctT]{Ride-By Attack},</li>\n<li>@Compendium[pf1.feats.7zJTztNW7hdaqjKc]{Skill Focus} (<a href=\"https://www.d20pfsrd.com/skills/knowledge\" rel=\"nofollow\">Knowledge</a> [religion]),</li>\n<li>@Compendium[pf1.feats.vWiTqHC4Y3Xn1Pme]{Weapon Finesse}.</li>\n</ul>\n<p><strong>Bloodline Arcana:</strong> Whenever you cast a spell of the&nbsp;<a href=\"https://www.d20pfsrd.com/magic#TOC-Conjuration\" rel=\"nofollow\">summoning</a>&nbsp;subschool, the creatures summoned gain&nbsp;<a href=\"https://www.d20pfsrd.com/basics-ability-scores/glossary#TOC-Damage-Reduction-DR-\" rel=\"nofollow\">DR</a>/evil equal to 1/2 your sorcerer level (minimum 1). This does not stack with any&nbsp;<a href=\"https://www.d20pfsrd.com/basics-ability-scores/glossary#TOC-Damage-Reduction-DR-\" rel=\"nofollow\">DR</a>&nbsp;the creature might have.</p>",
      "chat": "",
      "unidentified": ""
    },
    "tags": [],
    "activation": {
      "cost": 1,
      "type": ""
    },
    "unchainedAction": {
      "activation": {
        "cost": 1,
        "type": ""
      }
    },
    "duration": {
      "value": null,
      "units": ""
    },
    "target": {
      "value": ""
    },
    "range": {
      "value": null,
      "units": "",
      "maxIncrements": 1,
      "minValue": null,
      "minUnits": "",
      "long": null
    },
    "uses": {
      "value": 0,
      "max": 0,
      "per": null,
      "autoDeductCharges": true,
      "autoDeductChargesCost": "1"
    },
    "measureTemplate": {
      "type": "",
      "size": "0",
      "overrideColor": false,
      "customColor": "",
      "overrideTexture": false,
      "customTexture": ""
    },
    "attackName": "",
    "actionType": "",
    "attackBonus": "",
    "critConfirmBonus": "",
    "damage": {
      "parts": [],
      "critParts": [],
      "nonCritParts": []
    },
    "attackParts": [],
    "formula": "",
    "ability": {
      "attack": null,
      "damage": null,
      "damageMult": 1,
      "critRange": 20,
      "critMult": 2
    },
    "save": {
      "dc": 0,
      "type": "",
      "description": ""
    },
    "effectNotes": "",
    "attackNotes": "",
    "soundEffect": "",
    "changes": [],
    "changeFlags": {
      "loseDexToAC": false,
      "noStr": false,
      "noDex": false,
      "oneInt": false,
      "oneWis": false,
      "oneCha": false,
      "noEncumbrance": false,
      "mediumArmorFullSpeed": false,
      "heavyArmorFullSpeed": false
    },
    "contextNotes": [],
    "links": {
      "children": [],
      "charges": []
    },
    "tag": "",
    "useCustomTag": false,
    "armorProf": {
      "value": [],
      "custom": ""
    },
    "weaponProf": {
      "value": [],
      "custom": ""
    },
    "featType": "classFeat",
    "associations": {
      "classes": [
        [
          "Sorcerer"
        ]
      ]
    },
    "showInQuickbar": false,
    "nonlethal": false,
    "abilityType": "none",
    "crOffset": "",
    "attack": {
      "parts": []
    }
  },
  "flags": {},
  "img": "systems/pf1/icons/spells/haste-royal-3.jpg",
  "effects": []
}