{
  "_id": "bT1frt3FuOpog5E2",
  "name": "Mercy Patron",
  "permission": {
    "default": 0
  },
  "type": "feat",
  "data": {
    "description": {
      "value": "<ul>\n<li>2nd — @Compendium[pf1.spells.xoc3vhg3btmfjauq]{Cure Light Wounds}</li>\n<li>4th — @Compendium[pf1.spells.d4oubr5bdoo8w1ev]{Eagle's Splendor}</li>\n<li>6th — @Compendium[pf1.spells.o87h8gjxevcbztgd]{Remove Curse}</li>\n<li>8th — @Compendium[pf1.spells.anya5qwdjhdfyk8u]{Restoration}</li>\n<li>10th — @Compendium[pf1.spells.sbhij6pdo24wkm48]{Cleanse}</li>\n<li>12th — @Compendium[pf1.spells.op40qjf9oohlx5nu]{Heroes' Feast}</li>\n<li>14th — @Compendium[pf1.spells.82z60xtalr9fzkwb]{Foe to Friend}</li>\n<li>16th — @Compendium[pf1.spells.xlzqpkl8fpm3sn4u]{Euphoric Tranquility}</li>\n<li>18th — @Compendium[pf1.spells.mxqi375ya2rka7cp]{True Resurrection}</li>\n</ul>",
      "chat": "",
      "unidentified": ""
    },
    "tags": [],
    "activation": {
      "cost": 1,
      "type": ""
    },
    "unchainedAction": {
      "activation": {
        "cost": 1,
        "type": ""
      }
    },
    "duration": {
      "value": null,
      "units": ""
    },
    "target": {
      "value": ""
    },
    "range": {
      "value": null,
      "units": "",
      "maxIncrements": 1,
      "minValue": null,
      "minUnits": "",
      "long": null
    },
    "uses": {
      "value": 0,
      "max": 0,
      "per": null,
      "autoDeductCharges": true,
      "autoDeductChargesCost": "1"
    },
    "measureTemplate": {
      "type": "",
      "size": "",
      "overrideColor": false,
      "customColor": "",
      "overrideTexture": false,
      "customTexture": ""
    },
    "attackName": "",
    "actionType": "",
    "attackBonus": "",
    "critConfirmBonus": "",
    "damage": {
      "parts": [],
      "critParts": [],
      "nonCritParts": []
    },
    "attackParts": [],
    "formula": "",
    "ability": {
      "attack": null,
      "damage": null,
      "damageMult": 1,
      "critRange": 20,
      "critMult": 2
    },
    "save": {
      "dc": 0,
      "type": "",
      "description": ""
    },
    "effectNotes": "",
    "attackNotes": "",
    "soundEffect": "",
    "changes": [],
    "changeFlags": {
      "loseDexToAC": false,
      "noStr": false,
      "noDex": false,
      "oneInt": false,
      "oneWis": false,
      "oneCha": false,
      "noEncumbrance": false,
      "mediumArmorFullSpeed": false,
      "heavyArmorFullSpeed": false
    },
    "contextNotes": [],
    "links": {
      "children": [],
      "charges": []
    },
    "tag": "",
    "useCustomTag": false,
    "armorProf": {
      "value": [],
      "custom": ""
    },
    "weaponProf": {
      "value": [],
      "custom": ""
    },
    "featType": "classFeat",
    "associations": {
      "classes": [
        [
          "Witch"
        ]
      ]
    },
    "showInQuickbar": false,
    "nonlethal": false,
    "abilityType": "none",
    "crOffset": "",
    "attack": {
      "parts": []
    }
  },
  "flags": {},
  "img": "systems/pf1/icons/feats/improved-familiar.jpg",
  "effects": []
}