{
  "_id": "Y5yZNCMl7kLVmSzu",
  "name": "Order of the Lion",
  "permission": {
    "default": 0
  },
  "type": "feat",
  "data": {
    "description": {
      "value": "<p>A cavalier who belongs to this order has pledged himself to a sovereign; be it a king, queen, or even the local warlord. Cavaliers of this order are stalwart and dedicated to their cause, willing to go any length to ensure the safety of their lord and his domain.<br><br><strong>Edicts:</strong> The cavalier must protect the life and lands of his sovereign at all costs. He must obey the commands of his sovereign without question. He must strive to expand the power and prestige of his realm.<br><br><strong>Challenge:</strong> Whenever an order of the lion cavalier issues a challenge, he receives a +1 dodge bonus to his AC against attacks made by the target of his challenge. This bonus increases by +1 for every four levels the cavalier possesses.<br><br><strong>Skills:</strong> An order of the lion cavalier adds Knowledge (local) (Int) and Knowledge (nobility) (Int) to his list of class skills. An order of the lion cavalier can make Knowledge (nobility) skill checks untrained. If he has ranks in the skill, he receives a bonus on the check equal to 1/2 his cavalier level (minimum +1) as long as the check involves his sovereign.</p>",
      "chat": "",
      "unidentified": ""
    },
    "tags": [],
    "activation": {
      "cost": 1,
      "type": ""
    },
    "unchainedAction": {
      "activation": {
        "cost": 1,
        "type": ""
      }
    },
    "duration": {
      "value": null,
      "units": ""
    },
    "target": {
      "value": ""
    },
    "range": {
      "value": null,
      "units": "",
      "maxIncrements": 1,
      "minValue": null,
      "minUnits": "",
      "long": null
    },
    "uses": {
      "value": 0,
      "max": 0,
      "per": null,
      "autoDeductCharges": true,
      "autoDeductChargesCost": "1"
    },
    "measureTemplate": {
      "type": "",
      "size": "0",
      "overrideColor": false,
      "customColor": "",
      "overrideTexture": false,
      "customTexture": ""
    },
    "attackName": "",
    "actionType": "",
    "attackBonus": "",
    "critConfirmBonus": "",
    "damage": {
      "parts": [],
      "critParts": [],
      "nonCritParts": []
    },
    "attackParts": [],
    "formula": "",
    "ability": {
      "attack": null,
      "damage": null,
      "damageMult": 1,
      "critRange": 20,
      "critMult": 2
    },
    "save": {
      "dc": 0,
      "type": "",
      "description": ""
    },
    "effectNotes": "",
    "attackNotes": "",
    "soundEffect": "",
    "changes": [],
    "changeFlags": {
      "loseDexToAC": false,
      "noStr": false,
      "noDex": false,
      "oneInt": false,
      "oneWis": false,
      "oneCha": false,
      "noEncumbrance": false,
      "mediumArmorFullSpeed": false,
      "heavyArmorFullSpeed": false
    },
    "contextNotes": [],
    "links": {
      "children": [],
      "charges": []
    },
    "tag": "",
    "useCustomTag": false,
    "armorProf": {
      "value": [],
      "custom": ""
    },
    "weaponProf": {
      "value": [],
      "custom": ""
    },
    "featType": "classFeat",
    "associations": {
      "classes": [
        [
          "Cavalier"
        ]
      ]
    },
    "showInQuickbar": false,
    "nonlethal": false,
    "abilityType": "none",
    "crOffset": "",
    "attack": {
      "parts": []
    }
  },
  "flags": {},
  "img": "systems/pf1/icons/items/inventory/banner-green.jpg",
  "effects": []
}