{
  "_id": "sWZBt9yGgl3SOl9V",
  "name": "Order of the Scales",
  "permission": {
    "default": 0
  },
  "type": "feat",
  "data": {
    "description": {
      "value": "<p>Members of this cavalier order serve the cause of legal integrity. Many order of the scales cavaliers track down and apprehend fleeing lawbreakers so that these vagrants may answer for their crimes and make good on their debts. They often serve as judges or stakeholders, and work to ensure that wherever a bargain is made—whether it is monetary, a life debt, or an oath to be upheld—both ends make good on their promises.<br><br><strong>Edicts: </strong>The cavalier must fulfill all binding agreements he makes with others. If a bargain becomes impossible to fulfill, he must satisfactorily compensate all aggrieved or adversely affected parties involved in the bargain. When serving as a judge or arbiter, the cavalier must make fair, impartial judgments, and if unable to do so, must recuse himself at the earliest possibility. If authorized to enforce an agreement, the cavalier must wholeheartedly strive to accomplish this, remaining unswayed by threats, bribery, and other deterrents.<br><br><strong>Challenge:</strong> Whenever an order of the scales cavalier issues a challenge, he receives a +1 morale bonus on combat maneuvers and attacks of opportunity made against the target of his challenge. This bonus increases by 1 for every 4 levels the cavalier possesses.<br><br><strong>Skills:</strong> An order of the scales cavalier adds Knowledge (local) (Int) and Linguistics (Int) to his list of class skills. He gains a bonus equal to half his level (minimum +1) on Sense Motive checks to determine whether someone is bluffing and to determine whether a creature’s behavior is being inf luenced by an enchantment.</p>",
      "chat": "",
      "unidentified": ""
    },
    "tags": [],
    "activation": {
      "cost": 1,
      "type": ""
    },
    "unchainedAction": {
      "activation": {
        "cost": 1,
        "type": ""
      }
    },
    "duration": {
      "value": null,
      "units": ""
    },
    "target": {
      "value": ""
    },
    "range": {
      "value": null,
      "units": "",
      "maxIncrements": 1,
      "minValue": null,
      "minUnits": "",
      "long": null
    },
    "uses": {
      "value": 0,
      "max": 0,
      "per": null,
      "autoDeductCharges": true,
      "autoDeductChargesCost": "1"
    },
    "measureTemplate": {
      "type": "",
      "size": "0",
      "overrideColor": false,
      "customColor": "",
      "overrideTexture": false,
      "customTexture": ""
    },
    "attackName": "",
    "actionType": "",
    "attackBonus": "",
    "critConfirmBonus": "",
    "damage": {
      "parts": [],
      "critParts": [],
      "nonCritParts": []
    },
    "attackParts": [],
    "formula": "",
    "ability": {
      "attack": null,
      "damage": null,
      "damageMult": 1,
      "critRange": 20,
      "critMult": 2
    },
    "save": {
      "dc": 0,
      "type": "",
      "description": ""
    },
    "effectNotes": "",
    "attackNotes": "",
    "soundEffect": "",
    "changes": [],
    "changeFlags": {
      "loseDexToAC": false,
      "noStr": false,
      "noDex": false,
      "oneInt": false,
      "oneWis": false,
      "oneCha": false,
      "noEncumbrance": false,
      "mediumArmorFullSpeed": false,
      "heavyArmorFullSpeed": false
    },
    "contextNotes": [],
    "links": {
      "children": [],
      "charges": []
    },
    "tag": "",
    "useCustomTag": false,
    "armorProf": {
      "value": [],
      "custom": ""
    },
    "weaponProf": {
      "value": [],
      "custom": ""
    },
    "featType": "classFeat",
    "associations": {
      "classes": [
        [
          "Cavalier"
        ]
      ]
    },
    "showInQuickbar": false,
    "nonlethal": false,
    "abilityType": "none",
    "crOffset": "",
    "attack": {
      "parts": []
    }
  },
  "flags": {},
  "img": "systems/pf1/icons/items/inventory/banner-green.jpg",
  "effects": []
}