{
  "_id": "T2bUDeuzGQKxjZuP",
  "name": "Past-Life Memories",
  "permission": {
    "default": 0
  },
  "type": "feat",
  "data": {
    "description": {
      "value": "<p>You add a bonus equal to half your psychic level (minimum 1) to all Knowledge checks and can attempt all Knowledge skill checks untrained.</p>",
      "chat": "",
      "unidentified": ""
    },
    "tags": [],
    "activation": {
      "cost": 1,
      "type": ""
    },
    "unchainedAction": {
      "activation": {
        "cost": 1,
        "type": ""
      }
    },
    "duration": {
      "value": null,
      "units": ""
    },
    "target": {
      "value": ""
    },
    "range": {
      "value": null,
      "units": "",
      "maxIncrements": 1,
      "minValue": null,
      "minUnits": "",
      "long": null
    },
    "uses": {
      "value": 0,
      "max": 0,
      "per": null,
      "autoDeductCharges": true,
      "autoDeductChargesCost": "1"
    },
    "measureTemplate": {
      "type": "",
      "size": "",
      "overrideColor": false,
      "customColor": "",
      "overrideTexture": false,
      "customTexture": ""
    },
    "attackName": "",
    "actionType": "",
    "attackBonus": "",
    "critConfirmBonus": "",
    "damage": {
      "parts": [],
      "critParts": [],
      "nonCritParts": []
    },
    "attackParts": [],
    "formula": "",
    "ability": {
      "attack": null,
      "damage": null,
      "damageMult": 1,
      "critRange": 20,
      "critMult": 2
    },
    "save": {
      "dc": 0,
      "type": "",
      "description": ""
    },
    "effectNotes": "",
    "attackNotes": "",
    "soundEffect": "",
    "changes": [
      {
        "_id": "0b58ng9o",
        "formula": "floor(@classes.psychic.level / 2)",
        "operator": "+",
        "target": "skill",
        "subTarget": "skill.kar",
        "modifier": "untyped",
        "priority": "0",
        "value": 0
      },
      {
        "_id": "i47fu2fe",
        "formula": "floor(@classes.psychic.level / 2)",
        "operator": "+",
        "target": "skill",
        "subTarget": "skill.kdu",
        "modifier": "untyped",
        "priority": "0",
        "value": 0
      },
      {
        "_id": "x4loqr7e",
        "formula": "floor(@classes.psychic.level / 2)",
        "operator": "+",
        "target": "skill",
        "subTarget": "skill.ken",
        "modifier": "untyped",
        "priority": "0",
        "value": 0
      },
      {
        "_id": "8nmhktnn",
        "formula": "floor(@classes.psychic.level / 2)",
        "operator": "+",
        "target": "skill",
        "subTarget": "skill.kge",
        "modifier": "untyped",
        "priority": "0",
        "value": 0
      },
      {
        "_id": "1sttj5z0",
        "formula": "floor(@classes.psychic.level / 2)",
        "operator": "+",
        "target": "skill",
        "subTarget": "skill.khi",
        "modifier": "untyped",
        "priority": "0",
        "value": 0
      },
      {
        "_id": "t38xlbaf",
        "formula": "floor(@classes.psychic.level / 2)",
        "operator": "+",
        "target": "skill",
        "subTarget": "skill.klo",
        "modifier": "untyped",
        "priority": "0",
        "value": 0
      },
      {
        "_id": "2d5nn322",
        "formula": "floor(@classes.psychic.level / 2)",
        "operator": "+",
        "target": "skill",
        "subTarget": "skill.kna",
        "modifier": "untyped",
        "priority": "0",
        "value": 0
      },
      {
        "_id": "eecx1kw3",
        "formula": "floor(@classes.psychic.level / 2)",
        "operator": "+",
        "target": "skill",
        "subTarget": "skill.kno",
        "modifier": "untyped",
        "priority": "0",
        "value": 0
      },
      {
        "_id": "5o3q7uoh",
        "formula": "floor(@classes.psychic.level / 2)",
        "operator": "+",
        "target": "skill",
        "subTarget": "skill.kpl",
        "modifier": "untyped",
        "priority": "0",
        "value": 0
      },
      {
        "_id": "hme2y4cc",
        "formula": "floor(@classes.psychic.level / 2)",
        "operator": "+",
        "target": "skill",
        "subTarget": "skill.kre",
        "modifier": "untyped",
        "priority": "0",
        "value": 0
      }
    ],
    "changeFlags": {
      "loseDexToAC": false,
      "noStr": false,
      "noDex": false,
      "oneInt": false,
      "oneWis": false,
      "oneCha": false,
      "noEncumbrance": false,
      "mediumArmorFullSpeed": false,
      "heavyArmorFullSpeed": false
    },
    "contextNotes": [],
    "links": {
      "children": [],
      "charges": []
    },
    "tag": "",
    "useCustomTag": false,
    "armorProf": {
      "value": [],
      "custom": ""
    },
    "weaponProf": {
      "value": [],
      "custom": ""
    },
    "featType": "classFeat",
    "associations": {
      "classes": [
        [
          "Psychic"
        ]
      ]
    },
    "showInQuickbar": false,
    "nonlethal": false,
    "abilityType": "ex",
    "crOffset": "",
    "attack": {
      "parts": []
    }
  },
  "flags": {},
  "img": "systems/pf1/icons/spells/slice-spirit-3.jpg",
  "effects": []
}