{
  "_id": "NVFx55sRhuH0XPRF",
  "name": "Rogue Talent (INV)",
  "permission": {
    "default": 0
  },
  "type": "feat",
  "data": {
    "description": {
      "value": "<p>An investigator can select one of the following rogue talents in place of an investigator talent:</p>\n<ul>\n<li>@Compendium[pf1.class-abilities.iOrFzxCkcsfo5QmT]{Acrobatic Assist}</li>\n<li>@Compendium[pf1.class-abilities.Yvx22ezh4mD9NQ4p]{Assault Leader}</li>\n<li>@Compendium[pf1.class-abilities.bb7IvQMYGGX9EQvW]{Black Market Connections}</li>\n<li>@Compendium[pf1.class-abilities.58JR74Tzt6zxEJmE]{Camouflage}</li>\n<li>@Compendium[pf1.class-abilities.yi1YJMiNcZbq8scP]{Canny Observer}</li>\n<li>@Compendium[pf1.class-abilities.sqQzX2nm5gNiJ8Yr]{Charmer}</li>\n<li>@Compendium[pf1.class-abilities.11QZ3HhhrMQlp84J]{Coax Information}</li>\n<li>@Compendium[pf1.class-abilities.yntCpOGgk3qJhw8j]{Combat Swipe}</li>\n<li>@Compendium[pf1.class-abilities.pNL4wYo1vjCLQCRo]{Convincing Lie}</li>\n<li>@Compendium[pf1.class-abilities.NGAoPtfKeEWmUzY7]{Cunning Trigger}</li>\n<li>@Compendium[pf1.class-abilities.qABCWlwMlLsHTjzr]{Deft Palm}</li>\n<li>@Compendium[pf1.class-abilities.TQHW2qJpd1SDflIL]{Demand Attention}</li>\n<li>@Compendium[pf1.class-abilities.PgWEWgLXrOaagHGQ]{Expert Leaper}</li>\n<li>@Compendium[pf1.class-abilities.90bFRQJ7XkAE4rPR]{Fast Fingers}</li>\n<li>@Compendium[pf1.class-abilities.p4OuE7ORpKbJNX1v]{Fast Getaway}</li>\n<li>@Compendium[pf1.class-abilities.fLKWQu1uOY6qejBr]{Fast Picks}</li>\n<li>@Compendium[pf1.class-abilities.m4FcSx9a9WY7myn2]{Fast Stealth}</li>\n<li>@Compendium[pf1.class-abilities.QjWHNYX9az2Aydxz]{Firearm Training}</li>\n<li>@Compendium[pf1.class-abilities.zdmYebdmKdhB8w43]{Got Your Back}</li>\n<li>@Compendium[pf1.class-abilities.CLwSK8W2wInHRYow]{Guileful Polyglot}</li>\n<li>@Compendium[pf1.class-abilities.kMUim9qN0H34dnWT]{Grit}</li>\n<li>@Compendium[pf1.class-abilities.1VcnvSG8gegTdC6z]{Hard to Fool}</li>\n<li>@Compendium[pf1.class-abilities.TYR2cSWOyWebnj8O]{Hold Breath}</li>\n<li>@Compendium[pf1.class-abilities.VjyJLTkaNBSclOro]{Honeyed Words}</li>\n<li>@Compendium[pf1.class-abilities.Ev5iJ8KIIM4pFnlH]{Iron Guts}</li>\n<li>@Compendium[pf1.class-abilities.r6skxvB58YTHWVrD]{Lasting Poison}</li>\n<li>@Compendium[pf1.class-abilities.dP0REh2mF6Hw4WW7]{Ledge Walker}</li>\n<li>@Compendium[pf1.class-abilities.XjdctYm8hBkALI2K]{Major Magic}</li>\n<li>@Compendium[pf1.class-abilities.QHTHGbNTrJMY5iOE]{Minor Magic}</li>\n<li>@Compendium[pf1.class-abilities.YuSHmEqdkDqQ08Hx]{Nimble Climber}</li>\n<li>@Compendium[pf1.class-abilities.Nbs7dc7C3oTBta4z]{Peerless Maneuver}</li>\n<li>@Compendium[pf1.class-abilities.owCz5PIfP8iaFeUf]{Quick Disable}</li>\n<li>@Compendium[pf1.class-abilities.lzX9gHnP0UDKDzPU]{Quick Disguise}</li>\n<li>@Compendium[pf1.class-abilities.HIiRMu5xdAU87TkI]{Quick Trapsmith}</li>\n<li>@Compendium[pf1.class-abilities.HLd4skGtB4uTjuwU]{Resiliency}</li>\n<li>@Compendium[pf1.class-abilities.Do5mYH9szC2fufpo]{Rogue Crawl}</li>\n<li>@Compendium[pf1.class-abilities.gpNTlEN8etm5CaUq]{Rope Master}</li>\n<li>@Compendium[pf1.class-abilities.vxUunrXLdGZnWt2f]{Stand Up}</li>\n<li>@Compendium[pf1.class-abilities.cNIkhCeccDrOPRjv]{Strong Stroke}</li>\n<li>@Compendium[pf1.class-abilities.QOTAu9uRTMQ5E4a6]{Terrain Mastery}</li>\n<li>@Compendium[pf1.class-abilities.CEwc60rpSMFlbjce]{Trap Spotter}</li>\n<li>@Compendium[pf1.class-abilities.e2jwsRFv18hjRoSC]{Wall Scramble}</li>\n</ul>\n<p>Any talent effects based on rogue level use the investigator’s class level. If the rogue talent has a prerequisite (such as the major magic rogue talent requiring the minor magic talent), the investigator must fulfill the prerequisite before selecting that rogue talent.</p>\n<p>This talent can be selected multiple times; each time, it grants the investigator a new rogue talent.</p>",
      "chat": "",
      "unidentified": ""
    },
    "tags": [],
    "activation": {
      "cost": 1,
      "type": ""
    },
    "unchainedAction": {
      "activation": {
        "cost": 1,
        "type": ""
      }
    },
    "duration": {
      "value": null,
      "units": ""
    },
    "target": {
      "value": ""
    },
    "range": {
      "value": null,
      "units": "",
      "maxIncrements": 1,
      "minValue": null,
      "minUnits": "",
      "long": null
    },
    "uses": {
      "value": 0,
      "max": 0,
      "per": null,
      "autoDeductCharges": true,
      "autoDeductChargesCost": "1"
    },
    "measureTemplate": {
      "type": "",
      "size": "",
      "overrideColor": false,
      "customColor": "",
      "overrideTexture": false,
      "customTexture": ""
    },
    "attackName": "",
    "actionType": "",
    "attackBonus": "",
    "critConfirmBonus": "",
    "damage": {
      "parts": [],
      "critParts": [],
      "nonCritParts": []
    },
    "attackParts": [],
    "formula": "",
    "ability": {
      "attack": null,
      "damage": null,
      "damageMult": 1,
      "critRange": 20,
      "critMult": 2
    },
    "save": {
      "dc": 0,
      "type": "",
      "description": ""
    },
    "effectNotes": "",
    "attackNotes": "",
    "soundEffect": "",
    "changes": [],
    "changeFlags": {
      "loseDexToAC": false,
      "noStr": false,
      "noDex": false,
      "oneInt": false,
      "oneWis": false,
      "oneCha": false,
      "noEncumbrance": false,
      "mediumArmorFullSpeed": false,
      "heavyArmorFullSpeed": false
    },
    "contextNotes": [],
    "links": {
      "children": [],
      "charges": []
    },
    "tag": "",
    "useCustomTag": false,
    "armorProf": {
      "value": [],
      "custom": ""
    },
    "weaponProf": {
      "value": [],
      "custom": ""
    },
    "featType": "classFeat",
    "associations": {
      "classes": [
        [
          "Investigator"
        ]
      ]
    },
    "showInQuickbar": false,
    "nonlethal": false,
    "abilityType": "ex",
    "crOffset": "",
    "attack": {
      "parts": []
    }
  },
  "flags": {},
  "img": "systems/pf1/icons/items/weapons/sword-cane.png",
  "effects": []
}