{
  "_id": "W3xO7Z2Zes3l1Rf0",
  "name": "Serpentine Bloodline",
  "permission": {
    "default": 0
  },
  "type": "feat",
  "data": {
    "description": {
      "value": "<p><em>Your bloodline carries the lingering stain of ancient serpent races that ruled when the world was young; your forebears were likely favored slaves anointed by their reptilian masters and gifted with their cold cunning and subtle manipulation. While deception and a mesmeric charm are your birthright, you may struggle for truth in spite of your heritage.</em></p>\n<p><strong>Class Skill:</strong>&nbsp;<a href=\"https://www.d20pfsrd.com/skills/diplomacy\">Diplomacy</a>.</p>\n<p><strong>Bonus Spells:</strong></p>\n<ul>\n<li>@Compendium[pf1.spells.3ntxp3zun1j9mf0m]{Hypnotism}&nbsp;(3rd),</li>\n<li>@Compendium[pf1.spells.l7e01shgg8c44zfg]{Delay Poison}&nbsp;(5th),</li>\n<li>@Compendium[pf1.spells.1zmn8vqy3s5l9kiv]{Summon Monster III}&nbsp;(reptiles only) (7th),</li>\n<li>@Compendium[pf1.spells.vdh0yuzpjwhky6kr]{Poison}&nbsp;(9th),</li>\n<li>@Compendium[pf1.spells.d8hypv6zdyan3rzr]{Hold Monster}&nbsp;(11th),</li>\n<li>@Compendium[pf1.spells.52v3fogun1n9jzum]{Suggestion, Mass}&nbsp;(13th),</li>\n<li>@Compendium[pf1.spells.et3440o24hcgrfwl]{Summon Monster VII}&nbsp;(reptiles only) (15th),</li>\n<li>@Compendium[pf1.spells.oq3mqv5vovjkoa2p]{Irresistible Dance}&nbsp;(17th),</li>\n<li>@Compendium[pf1.spells.66s5qm8kwycgobce]{Dominate Monster}&nbsp;(19th).</li>\n</ul>\n<p><strong>Bonus Feats:</strong></p>\n<ul>\n<li>@Compendium[pf1.feats.u7rGDZUL296QIuA0]{Combat Casting},</li>\n<li>@Compendium[pf1.feats.h9nHYLxXvIXBTmup]{Combat Reflexes},</li>\n<li>@Compendium[pf1.feats.SUACufUXl12sUvnQ]{Deceitful},</li>\n<li>@Compendium[pf1.feats.SMyexRzOm5PfjT5I]{Deft Hands},</li>\n<li>@Compendium[pf1.feats.L10V7jTzmMYz62zz]{Persuasive},</li>\n<li>@Compendium[pf1.feats.2YuxcUNFMPNBpekG]{Silent Spell},</li>\n<li>@Compendium[pf1.feats.7zJTztNW7hdaqjKc]{Skill Focus}&nbsp;(<a href=\"https://www.d20pfsrd.com/skills/bluff\">Bluff</a>&nbsp;),</li>\n<li>@Compendium[pf1.feats.f5FPqAYWlKj3zCIY]{Stealthy}.</li>\n</ul>\n<p><a name=\"TOC-Bloodline-Arcana\"></a><strong>Bloodline Arcana:</strong> Your powers of compulsion can affect even bestial creatures. Whenever you cast a mind-affecting or language-dependent spell, it affects&nbsp;<a href=\"https://www.d20pfsrd.com/bestiary/rules-for-monsters/creature-types#TOC-Animal\">animals</a>,&nbsp;<a href=\"https://www.d20pfsrd.com/bestiary/rules-for-monsters/creature-types#TOC-Magical-Beast\">magical beasts</a>, and&nbsp;<a href=\"https://www.d20pfsrd.com/bestiary/rules-for-monsters/creature-types#TOC-Monstrous-Humanoid\">monstrous humanoids</a>&nbsp;as if they were&nbsp;<a href=\"https://www.d20pfsrd.com/bestiary/rules-for-monsters/creature-types#TOC-Humanoid\">humanoids</a>&nbsp;who understood your language.</p>",
      "chat": "",
      "unidentified": ""
    },
    "tags": [],
    "activation": {
      "cost": 1,
      "type": ""
    },
    "unchainedAction": {
      "activation": {
        "cost": 1,
        "type": ""
      }
    },
    "duration": {
      "value": null,
      "units": ""
    },
    "target": {
      "value": ""
    },
    "range": {
      "value": null,
      "units": "",
      "maxIncrements": 1,
      "minValue": null,
      "minUnits": "",
      "long": null
    },
    "uses": {
      "value": 0,
      "max": 0,
      "per": null,
      "autoDeductCharges": true,
      "autoDeductChargesCost": "1"
    },
    "measureTemplate": {
      "type": "",
      "size": "0",
      "overrideColor": false,
      "customColor": "",
      "overrideTexture": false,
      "customTexture": ""
    },
    "attackName": "",
    "actionType": "",
    "attackBonus": "",
    "critConfirmBonus": "",
    "damage": {
      "parts": [],
      "critParts": [],
      "nonCritParts": []
    },
    "attackParts": [],
    "formula": "",
    "ability": {
      "attack": null,
      "damage": null,
      "damageMult": 1,
      "critRange": 20,
      "critMult": 2
    },
    "save": {
      "dc": 0,
      "type": "",
      "description": ""
    },
    "effectNotes": "",
    "attackNotes": "",
    "soundEffect": "",
    "changes": [],
    "changeFlags": {
      "loseDexToAC": false,
      "noStr": false,
      "noDex": false,
      "oneInt": false,
      "oneWis": false,
      "oneCha": false,
      "noEncumbrance": false,
      "mediumArmorFullSpeed": false,
      "heavyArmorFullSpeed": false
    },
    "contextNotes": [],
    "links": {
      "children": [],
      "charges": []
    },
    "tag": "",
    "useCustomTag": false,
    "armorProf": {
      "value": [],
      "custom": ""
    },
    "weaponProf": {
      "value": [],
      "custom": ""
    },
    "featType": "classFeat",
    "associations": {
      "classes": [
        [
          "Sorcerer"
        ]
      ]
    },
    "showInQuickbar": false,
    "nonlethal": false,
    "abilityType": "none",
    "crOffset": "",
    "attack": {
      "parts": []
    }
  },
  "flags": {},
  "img": "systems/pf1/icons/races/lizardfolk.png",
  "effects": []
}