{
  "_id": "7o2EfuLY2m6bGupI",
  "name": "Tribe Spirit",
  "permission": {
    "default": 0
  },
  "type": "feat",
  "data": {
    "description": {
      "value": "<p><em>A shaman who selects the tribe spirit strives to protect her allies, whether they be a traditional tribal unit or a chosen group of adventuring companions.</em><br><br><strong>Spirit Magic Spells:&nbsp;</strong></p>\n<ul>\n<li>@Compendium[pf1.spells.wa0zb2pncesmm9lz]{Bless} (1st),&nbsp;</li>\n<li>@Compendium[pf1.spells.menqakfoa1ftvi3f]{Shield Other} (2nd),&nbsp;</li>\n<li>@Compendium[pf1.spells.qn947hen3wrelxhz]{Create Food and Water} (3rd),&nbsp;</li>\n<li>@Compendium[pf1.spells.0lrux8tmaml5fkw6]{Spiritual Ally} (4th),&nbsp;</li>\n<li>@Compendium[pf1.spells.f6lqt3ju8m7r5la2]{Life Bubble} (5th),&nbsp;</li>\n<li>@Compendium[pf1.spells.eg3i21asvo69mbma]{Battlemind Link} (6th),&nbsp;</li>\n<li>@Compendium[pf1.spells.aqeaxoaozlv9vg35]{Vision} (7th),&nbsp;</li>\n<li>@Compendium[pf1.spells.gw2sgj93dgarpem8]{Discern Location} (8th),&nbsp;</li>\n<li>@Compendium[pf1.spells.klcvk9ct1l7mhjwp]{Heal, Mass} (9th).</li>\n</ul>\n<p><strong>Spirit Animal: </strong>The shaman’s spirit animal has colorations or markings that resemble a totem or important symbol for the shaman’s tribe. When the spirit animal successfully performs the aid another action, the bonus it provides increases by 1.</p>",
      "chat": "",
      "unidentified": ""
    },
    "tags": [],
    "activation": {
      "cost": 1,
      "type": ""
    },
    "unchainedAction": {
      "activation": {
        "cost": 1,
        "type": ""
      }
    },
    "duration": {
      "value": null,
      "units": ""
    },
    "target": {
      "value": ""
    },
    "range": {
      "value": null,
      "units": "",
      "maxIncrements": 1,
      "minValue": null,
      "minUnits": "",
      "long": null
    },
    "uses": {
      "value": 0,
      "max": 0,
      "per": null,
      "autoDeductCharges": true,
      "autoDeductChargesCost": "1"
    },
    "measureTemplate": {
      "type": "",
      "size": "",
      "overrideColor": false,
      "customColor": "",
      "overrideTexture": false,
      "customTexture": ""
    },
    "attackName": "",
    "actionType": "",
    "attackBonus": "",
    "critConfirmBonus": "",
    "damage": {
      "parts": [],
      "critParts": [],
      "nonCritParts": []
    },
    "attackParts": [],
    "formula": "",
    "ability": {
      "attack": null,
      "damage": null,
      "damageMult": 1,
      "critRange": 20,
      "critMult": 2
    },
    "save": {
      "dc": 0,
      "type": "",
      "description": ""
    },
    "effectNotes": "",
    "attackNotes": "",
    "soundEffect": "",
    "changes": [],
    "changeFlags": {
      "loseDexToAC": false,
      "noStr": false,
      "noDex": false,
      "oneInt": false,
      "oneWis": false,
      "oneCha": false,
      "noEncumbrance": false,
      "mediumArmorFullSpeed": false,
      "heavyArmorFullSpeed": false
    },
    "contextNotes": [],
    "links": {
      "children": [],
      "charges": []
    },
    "tag": "",
    "useCustomTag": false,
    "armorProf": {
      "value": [],
      "custom": ""
    },
    "weaponProf": {
      "value": [],
      "custom": ""
    },
    "featType": "classFeat",
    "associations": {
      "classes": [
        [
          "Shaman"
        ]
      ]
    },
    "showInQuickbar": false,
    "nonlethal": false,
    "abilityType": "none",
    "crOffset": "",
    "attack": {
      "parts": []
    }
  },
  "flags": {},
  "img": "systems/pf1/icons/skills/violet_11.jpg",
  "effects": []
}