{
  "_id": "a9ranIu7S0jfe48a",
  "name": "Whimsy Mystery",
  "permission": {
    "default": 0
  },
  "type": "feat",
  "data": {
    "description": {
      "value": "<p><strong>Class Skills:</strong> An oracle with the whimsy mystery adds Bluff, Disguise, Perform, Sleight of Hand, and Stealth to her list of class skills.<br><br><strong>Bonus Spells:&nbsp;</strong></p>\n<ul>\n<li>@Compendium[pf1.spells.bl71og1gklwncmt7]{Faerie Fire} (2nd),&nbsp;</li>\n<li>@Compendium[pf1.spells.5nr9o7o0it6ewf17]{Hideous Laughter} (4th),&nbsp;</li>\n<li>@Compendium[pf1.spells.3ofgzglphaotmwnw]{Shamefully Overdressed} (6th),&nbsp;</li>\n<li>@Compendium[pf1.spells.7rx66m98dwo18fy8]{Major Image} (8th),&nbsp;</li>\n<li>@Compendium[pf1.spells.fv17a5jsmapb0wcz]{Entice Fey, Lesser} (10th),&nbsp;</li>\n<li>@Compendium[pf1.spells.446vcsetq4ny904e]{Mislead} (12th),&nbsp;</li>\n<li>@Compendium[pf1.spells.b9klr16gssc2x0ab]{Entice Fey} (14th),&nbsp;</li>\n<li>@Compendium[pf1.spells.oq3mqv5vovjkoa2p]{Irresistible Dance} (16th),&nbsp;</li>\n<li>@Compendium[pf1.spells.6isran0p5phoru7x]{Entice Fey, Greater} (18th).</li>\n</ul>",
      "chat": "",
      "unidentified": ""
    },
    "tags": [],
    "activation": {
      "cost": 1,
      "type": ""
    },
    "unchainedAction": {
      "activation": {
        "cost": 1,
        "type": ""
      }
    },
    "duration": {
      "value": null,
      "units": ""
    },
    "target": {
      "value": ""
    },
    "range": {
      "value": null,
      "units": "",
      "maxIncrements": 1,
      "minValue": null,
      "minUnits": "",
      "long": null
    },
    "uses": {
      "value": 0,
      "max": 0,
      "per": null,
      "autoDeductCharges": true,
      "autoDeductChargesCost": "1"
    },
    "measureTemplate": {
      "type": "",
      "size": "",
      "overrideColor": false,
      "customColor": "",
      "overrideTexture": false,
      "customTexture": ""
    },
    "attackName": "",
    "actionType": "",
    "attackBonus": "",
    "critConfirmBonus": "",
    "damage": {
      "parts": [],
      "critParts": [],
      "nonCritParts": []
    },
    "attackParts": [],
    "formula": "",
    "ability": {
      "attack": null,
      "damage": null,
      "damageMult": 1,
      "critRange": 20,
      "critMult": 2
    },
    "save": {
      "dc": 0,
      "type": "",
      "description": ""
    },
    "effectNotes": "",
    "attackNotes": "",
    "soundEffect": "",
    "changes": [],
    "changeFlags": {
      "loseDexToAC": false,
      "noStr": false,
      "noDex": false,
      "oneInt": false,
      "oneWis": false,
      "oneCha": false,
      "noEncumbrance": false,
      "mediumArmorFullSpeed": false,
      "heavyArmorFullSpeed": false
    },
    "contextNotes": [],
    "links": {
      "children": [],
      "charges": []
    },
    "tag": "",
    "useCustomTag": false,
    "armorProf": {
      "value": [],
      "custom": ""
    },
    "weaponProf": {
      "value": [],
      "custom": ""
    },
    "featType": "classFeat",
    "associations": {
      "classes": [
        [
          "Oracle"
        ]
      ]
    },
    "showInQuickbar": false,
    "nonlethal": false,
    "abilityType": "none",
    "crOffset": "",
    "attack": {
      "parts": []
    }
  },
  "flags": {},
  "img": "systems/pf1/icons/spells/light-magenta-2.jpg",
  "effects": []
}