{
  "_id": "illz0llxfl3hkiny",
  "name": "Absorb Rune I",
  "permission": {
    "default": 0
  },
  "type": "spell",
  "data": {
    "description": {
      "value": "<div class=\"spell-description\">\n  <p>\n    <strong>School</strong>&nbsp;abjuration;\n    <strong>Level</strong>&nbsp;bard 4, cleric/oracle 4, magus 4, occultist 4, sorcerer/wizard 4;\n    \n    \n    \n    \n  </p>\n  <p>\n    <strong>Casting Time</strong>&nbsp;1 standard action<br>\n    <strong>Components</strong>&nbsp;V, S, M (a white silk glove worth 25 gp)<br>\n  </p>\n  <p>\n    <strong>Range</strong>&nbsp;touch<br>\n    \n    <strong>Targets</strong>&nbsp;one spell effect<br>\n    \n    <strong>Duration</strong>&nbsp;instantaneous plus 1 minute/level (see text)<br>\n      <strong>Saving Throw</strong>&nbsp;Will negates (harmless);&nbsp;\n      <strong>Spell Resistance</strong>&nbsp;yes<br>\n  </p>\n  <h2>Description</h2>\n  <p>This spell allows you to lay your hand upon a magical glyph, symbol, or other magical spell effect (referred to in this spell description as a \"rune\") and attempt to absorb the essence of its effect. To absorb a rune, you must be aware of the rune's existence (but need not know the details of what it actually does) and then succeed at a caster level check (DC = 10 + the caster level of the spell affect being absorbed) as you touch the rune in question. If you fail this caster level check, the magical rune is not triggered unless you fail the roll by 5 or more. If you succeed at the caster level check, the rune is removed from the surface it was originally placed upon and duplicated on the cloth of a silk glove worn on your hand. The rune remains located on the glove's palm in an inert state for up to 1 minute per caster level. As a standard action taken at any time during that duration, you can transfer the rune to another surface similar to the one it was originally placed upon, at which point the rune's function either returns to normal or dissipates harmlessly as if successfully dispelled (your choice). If the spell's duration expires before you place the rune on a new surface, the absorbed rune dissipates harmlessly. <i>Absorb rune I</i> affects only runes whose effects are equivalent to a spell of 3rd level or lower. An attempt to use <i>absorb rune I</i> on a more powerful effect automatically triggers the rune when you touch it.</p>\n</div>\n",
      "chat": "",
      "unidentified": ""
    },
    "tags": [],
    "activation": {
      "cost": 1,
      "type": "standard"
    },
    "unchainedAction": {
      "activation": {
        "cost": 2,
        "type": "action"
      }
    },
    "duration": {
      "value": null,
      "units": ""
    },
    "target": {
      "value": "one spell effect"
    },
    "range": {
      "value": null,
      "units": "touch",
      "maxIncrements": 1,
      "minValue": null,
      "minUnits": ""
    },
    "uses": {
      "value": 0,
      "max": 0,
      "per": "",
      "autoDeductCharges": true,
      "autoDeductChargesCost": "1"
    },
    "measureTemplate": {
      "type": "",
      "size": "0",
      "overrideColor": false,
      "customColor": "",
      "overrideTexture": false,
      "customTexture": ""
    },
    "attackName": "",
    "actionType": "spellsave",
    "attackBonus": "",
    "critConfirmBonus": "",
    "damage": {
      "parts": [],
      "critParts": [],
      "nonCritParts": []
    },
    "attackParts": [],
    "formula": "",
    "ability": {
      "attack": "",
      "damage": "",
      "damageMult": 1,
      "critRange": 20,
      "critMult": 2
    },
    "save": {
      "dc": "0",
      "type": "will",
      "description": "Will negates (harmless)"
    },
    "effectNotes": "",
    "attackNotes": "",
    "soundEffect": "",
    "links": {
      "children": []
    },
    "learnedAt": {
      "class": [
        [
          "sorcerer/wizard",
          4
        ],
        [
          "cleric/oracle",
          4
        ],
        [
          "bard",
          4
        ],
        [
          "magus",
          4
        ],
        [
          "occultist",
          4
        ]
      ],
      "domain": [],
      "subDomain": [],
      "elementalSchool": [],
      "bloodline": []
    },
    "level": 4,
    "clOffset": 0,
    "slOffset": 0,
    "school": "abj",
    "subschool": "",
    "types": "",
    "nonlethal": false,
    "conditionals": [],
    "components": {
      "value": "",
      "verbal": true,
      "somatic": true,
      "material": true,
      "focus": false,
      "divineFocus": 0
    },
    "castTime": "",
    "materials": {
      "value": "a white silk glove worth 25 gp",
      "focus": "",
      "gpValue": 25
    },
    "spellbook": "",
    "preparation": {
      "preparedAmount": 0,
      "maxAmount": 0,
      "autoDeductCharges": false,
      "spontaneousPrepared": false,
      "mode": "prepared"
    },
    "atWill": false,
    "sr": true,
    "shortDescription": "<p>This spell allows you to lay your hand upon a magical glyph, symbol, or other magical spell effect (referred to in this spell description as a \"rune\") and attempt to absorb the essence of its effect. To absorb a rune, you must be aware of the rune's existence (but need not know the details of what it actually does) and then succeed at a caster level check (DC = 10 + the caster level of the spell affect being absorbed) as you touch the rune in question. If you fail this caster level check, the magical rune is not triggered unless you fail the roll by 5 or more. If you succeed at the caster level check, the rune is removed from the surface it was originally placed upon and duplicated on the cloth of a silk glove worn on your hand. The rune remains located on the glove's palm in an inert state for up to 1 minute per caster level. As a standard action taken at any time during that duration, you can transfer the rune to another surface similar to the one it was originally placed upon, at which point the rune's function either returns to normal or dissipates harmlessly as if successfully dispelled (your choice). If the spell's duration expires before you place the rune on a new surface, the absorbed rune dissipates harmlessly. <i>Absorb rune I</i> affects only runes whose effects are equivalent to a spell of 3rd level or lower. An attempt to use <i>absorb rune I</i> on a more powerful effect automatically triggers the rune when you touch it.</p>",
    "spellDuration": "instantaneous plus 1 minute/level (see text)",
    "spellEffect": "",
    "spellArea": "",
    "showInQuickbar": false,
    "spellPoints": {
      "cost": ""
    },
    "domain": false,
    "slotCost": 1
  },
  "flags": {},
  "img": "systems/pf1/icons/misc/magic-swirl.png",
  "effects": []
}