{
  "_id": "wcjlvlkpnjhx5pcf",
  "name": "Acid Pit",
  "permission": {
    "default": 0
  },
  "type": "spell",
  "data": {
    "description": {
      "value": "<div class=\"spell-description\">\n  <p>\n    <strong>School</strong>&nbsp;conjuration&nbsp;(creation)&nbsp;[acid];\n    <strong>Level</strong>&nbsp;sorcerer/wizard 4, summoner 4, unchained Summoner 4;\n    \n    \n    \n    \n  </p>\n  <p>\n    <strong>Casting Time</strong>&nbsp;1 standard action<br>\n    <strong>Components</strong>&nbsp;V, S, M (drop of acid), F (Fine shovel worth 10 gp)<br>\n  </p>\n  <p>\n    <strong>Range</strong>&nbsp;medium (100 ft. + 10 ft./level)<br>\n    \n    \n    <strong>Effect</strong>&nbsp;10-ft.-by-10-ft. hole, 10 ft. deep/2 levels<br>\n    <strong>Duration</strong>&nbsp;1 round + 1 round/level<br>\n    <strong>Saving Throw</strong>&nbsp;Reflex negates; see text;&nbsp;<strong>Spell Resistance</strong>&nbsp;no<br>\n  </p>\n  <h2>Description</h2>\n  <p>This spell functions as create pit, except that it places a 5-footdeep pool of acid at the bottom of the pit. The pit has a maximum depth of 100 feet. Creatures who fall into the pit take falling damage as normal (the acid counts as a yielding surface), plus 2d6 points of acid damage per round spent in contact with the acid. In addition, exposed items carried by a creature in the pit may be harmed. Refer to Table 9-2: Items Affected by Magical Attacks (Core Rulebook 216). Items are affected one at a time in the order listed on the table, and must make Fortitude saves after 3 consecutive rounds in the acid or gain the broken condition. Objects with the broken condition (regardless of how they became broken) must make a Fortitude saving throw each round spent within the acid or be destroyed. The walls of the pit are quite slippery and have a Climb DC of 30.</p>\n</div>\n",
      "chat": "",
      "unidentified": ""
    },
    "tags": [],
    "activation": {
      "cost": 1,
      "type": "standard"
    },
    "unchainedAction": {
      "activation": {
        "cost": 2,
        "type": "action"
      }
    },
    "duration": {
      "value": null,
      "units": ""
    },
    "target": {
      "value": ""
    },
    "range": {
      "value": null,
      "units": "medium",
      "maxIncrements": 1,
      "minValue": null,
      "minUnits": ""
    },
    "uses": {
      "value": 0,
      "max": 0,
      "per": "",
      "autoDeductCharges": true,
      "autoDeductChargesCost": "1"
    },
    "measureTemplate": {
      "type": "",
      "size": "0",
      "overrideColor": false,
      "customColor": "",
      "overrideTexture": false,
      "customTexture": ""
    },
    "attackName": "",
    "actionType": "spellsave",
    "attackBonus": "",
    "critConfirmBonus": "",
    "damage": {
      "parts": [],
      "critParts": [],
      "nonCritParts": []
    },
    "attackParts": [],
    "formula": "",
    "ability": {
      "attack": "",
      "damage": "",
      "damageMult": 1,
      "critRange": 20,
      "critMult": 2
    },
    "save": {
      "dc": "0",
      "type": "ref",
      "description": "Reflex negates; see text"
    },
    "effectNotes": "",
    "attackNotes": "",
    "soundEffect": "",
    "links": {
      "children": []
    },
    "learnedAt": {
      "class": [
        [
          "sorcerer/wizard",
          4
        ],
        [
          "summoner",
          4
        ],
        [
          "unchained Summoner",
          4
        ]
      ],
      "domain": [],
      "subDomain": [],
      "elementalSchool": [],
      "bloodline": []
    },
    "level": 4,
    "clOffset": 0,
    "slOffset": 0,
    "school": "con",
    "subschool": "creation",
    "types": "acid",
    "nonlethal": false,
    "conditionals": [],
    "components": {
      "value": "",
      "verbal": true,
      "somatic": true,
      "material": true,
      "focus": true,
      "divineFocus": 0
    },
    "castTime": "",
    "materials": {
      "value": "drop of acid",
      "focus": "Fine shovel worth 10 gp",
      "gpValue": 0
    },
    "spellbook": "primary",
    "preparation": {
      "preparedAmount": 0,
      "maxAmount": 0,
      "autoDeductCharges": true,
      "spontaneousPrepared": true,
      "mode": "prepared"
    },
    "atWill": false,
    "sr": false,
    "shortDescription": "<p>This spell functions as create pit, except that it places a 5-footdeep pool of acid at the bottom of the pit. The pit has a maximum depth of 100 feet. Creatures who fall into the pit take falling damage as normal (the acid counts as a yielding surface), plus 2d6 points of acid damage per round spent in contact with the acid. In addition, exposed items carried by a creature in the pit may be harmed. Refer to Table 9-2: Items Affected by Magical Attacks (Core Rulebook 216). Items are affected one at a time in the order listed on the table, and must make Fortitude saves after 3 consecutive rounds in the acid or gain the broken condition. Objects with the broken condition (regardless of how they became broken) must make a Fortitude saving throw each round spent within the acid or be destroyed. The walls of the pit are quite slippery and have a Climb DC of 30.</p>",
    "spellDuration": "1 round + 1 round/level",
    "spellEffect": "10-ft.-by-10-ft. hole, 10 ft. deep/2 levels",
    "spellArea": "",
    "showInQuickbar": false,
    "spellPoints": {
      "cost": "1 + @sl"
    },
    "domain": false,
    "slotCost": 1
  },
  "flags": {},
  "img": "systems/pf1/icons/misc/magic-swirl.png",
  "effects": []
}