{
  "_id": "jzz22fm5kk08uda3",
  "name": "Calculated Luck",
  "permission": {
    "default": 0
  },
  "type": "spell",
  "data": {
    "description": {
      "value": "<div class=\"spell-description\">\n  <p>\n    <strong>School</strong>&nbsp;divination;\n    <strong>Level</strong>&nbsp;cleric/oracle 3, witch 4;\n    \n    \n    \n    \n  </p>\n  <p>\n    <strong>Casting Time</strong>&nbsp;1 standard action<br>\n    <strong>Components</strong>&nbsp;V, S<br>\n  </p>\n  <p>\n    <strong>Range</strong>&nbsp;personal<br>\n    \n    <strong>Targets</strong>&nbsp;you<br>\n    \n    <strong>Duration</strong>&nbsp;1 round/level (D)<br>\n    \n  </p>\n  <h2>Description</h2>\n  <p>You are able to use the Path of Numbers to substantially boost your combat preparedness, but your foresight comes at a price.</p><p>Roll 3d8 and refer to the Eight Basic Energies table on page 51.</p><p>After rolling ,assign each die to one of the following.</p><p><ul><li> <i>Energy Type</i>: You gain vulnerability to the energy type that matches the die's result for the duration of the spell. You take half again as much damage (+50%) from that energy type, regardless of whether you successfully saved against the damaging spell or effect.</p><p><li> <i>Magic School</i>: For the spell's duration, you cast all spells from the school that matches the die's result at +1 caster level.</p><p><li> <i>d20 Roll Type</i>: You receive a +2 luck bonus on the d20 roll that matches the die's result for the duration of the spell.</ul></p>\n</div>\n",
      "chat": "",
      "unidentified": ""
    },
    "tags": [],
    "activation": {
      "cost": 1,
      "type": "standard"
    },
    "unchainedAction": {
      "activation": {
        "cost": 2,
        "type": "action"
      }
    },
    "duration": {
      "value": null,
      "units": ""
    },
    "target": {
      "value": "you"
    },
    "range": {
      "value": null,
      "units": "personal",
      "maxIncrements": 1,
      "minValue": null,
      "minUnits": ""
    },
    "uses": {
      "value": 0,
      "max": 0,
      "per": "",
      "autoDeductCharges": true,
      "autoDeductChargesCost": "1"
    },
    "measureTemplate": {
      "type": "",
      "size": "0",
      "overrideColor": false,
      "customColor": "",
      "overrideTexture": false,
      "customTexture": ""
    },
    "attackName": "",
    "actionType": "",
    "attackBonus": "",
    "critConfirmBonus": "",
    "damage": {
      "parts": [],
      "critParts": [],
      "nonCritParts": []
    },
    "attackParts": [],
    "formula": "",
    "ability": {
      "attack": "",
      "damage": "",
      "damageMult": 1,
      "critRange": 20,
      "critMult": 2
    },
    "save": {
      "dc": "0",
      "type": "",
      "description": ""
    },
    "effectNotes": "",
    "attackNotes": "",
    "soundEffect": "",
    "links": {
      "children": []
    },
    "learnedAt": {
      "class": [
        [
          "cleric/oracle",
          3
        ],
        [
          "witch",
          4
        ]
      ],
      "domain": [],
      "subDomain": [],
      "elementalSchool": [],
      "bloodline": []
    },
    "level": 3,
    "clOffset": 0,
    "slOffset": 0,
    "school": "div",
    "subschool": "",
    "types": "",
    "nonlethal": false,
    "conditionals": [],
    "components": {
      "value": "",
      "verbal": true,
      "somatic": true,
      "material": false,
      "focus": false,
      "divineFocus": 0
    },
    "castTime": "",
    "materials": {
      "value": "",
      "focus": "",
      "gpValue": 0
    },
    "spellbook": "primary",
    "preparation": {
      "preparedAmount": 0,
      "maxAmount": 0,
      "autoDeductCharges": true,
      "spontaneousPrepared": true,
      "mode": "prepared"
    },
    "atWill": false,
    "sr": false,
    "shortDescription": "<p>You are able to use the Path of Numbers to substantially boost your combat preparedness, but your foresight comes at a price.</p><p>Roll 3d8 and refer to the Eight Basic Energies table on page 51.</p><p>After rolling ,assign each die to one of the following.</p><p><ul><li> <i>Energy Type</i>: You gain vulnerability to the energy type that matches the die's result for the duration of the spell. You take half again as much damage (+50%) from that energy type, regardless of whether you successfully saved against the damaging spell or effect.</p><p><li> <i>Magic School</i>: For the spell's duration, you cast all spells from the school that matches the die's result at +1 caster level.</p><p><li> <i>d20 Roll Type</i>: You receive a +2 luck bonus on the d20 roll that matches the die's result for the duration of the spell.</ul></p>",
    "spellDuration": "1 round/level (D)",
    "spellEffect": "",
    "spellArea": "",
    "showInQuickbar": false,
    "spellPoints": {
      "cost": "1 + @sl"
    },
    "domain": false,
    "slotCost": 1
  },
  "flags": {},
  "img": "systems/pf1/icons/misc/magic-swirl.png",
  "effects": []
}