{
  "_id": "f828mjoo5afszqnk",
  "name": "Creeping Doom",
  "permission": {
    "default": 0
  },
  "type": "spell",
  "data": {
    "description": {
      "value": "<div class=\"spell-description\">\n  <p>\n    <strong>School</strong>&nbsp;conjuration&nbsp;(summoning);\n    <strong>Level</strong>&nbsp;druid 7, shaman 7, summoner 5, unchained Summoner 6;\n    <strong>Domain</strong>&nbsp;Scalykind 7, Vermin 7;\n    \n    \n    <strong>Bloodline</strong>&nbsp;Pestilence 7;\n  </p>\n  <p>\n    <strong>Casting Time</strong>&nbsp;1 standard action<br>\n    <strong>Components</strong>&nbsp;V, S<br>\n  </p>\n  <p>\n    <strong>Range</strong>&nbsp;close (25 ft. + 5 ft./2 levels)<br>\n    \n    \n    <strong>Effect</strong>&nbsp;four swarms of insects<br>\n    <strong>Duration</strong>&nbsp;1 round/level<br>\n    <strong>Saving Throw</strong>&nbsp;Fortitude partial; see text;&nbsp;<strong>Spell Resistance</strong>&nbsp;no<br>\n  </p>\n  <h2>Description</h2>\n  <p>This spell summons four massive swarms of biting and stinging insects. These swarms appear adjacent to one another, but can be directed to move independently. Treat these swarms as centipede swarms with the following adjustments. The swarms have 60 hit points each and deal 4d6 points of damage with their swarm attack. The save to resist their poison and distraction effects is equal to the save DC of this spell. Creatures caught in multiple swarms only take damage and make saves once.</p><p>You may summon the swarms so that they share the area of other creatures. As a standard action, you can command any number of the swarms to move toward any target within 100 feet of you. You cannot command any swarm to move more than 100 feet away from you, and if you move more than 100 feet from any swarm, that swarm remains stationary, attacking any creatures in its area (but can be commanded again if you move within 100 feet).</p>\n</div>\n",
      "chat": "",
      "unidentified": ""
    },
    "tags": [],
    "activation": {
      "cost": 1,
      "type": "standard"
    },
    "unchainedAction": {
      "activation": {
        "cost": 2,
        "type": "action"
      }
    },
    "duration": {
      "value": null,
      "units": ""
    },
    "target": {
      "value": ""
    },
    "range": {
      "value": null,
      "units": "close",
      "maxIncrements": 1,
      "minValue": null,
      "minUnits": ""
    },
    "uses": {
      "value": 0,
      "max": 0,
      "per": "",
      "autoDeductCharges": true,
      "autoDeductChargesCost": "1"
    },
    "measureTemplate": {
      "type": "",
      "size": "0",
      "overrideColor": false,
      "customColor": "",
      "overrideTexture": false,
      "customTexture": ""
    },
    "attackName": "",
    "actionType": "spellsave",
    "attackBonus": "",
    "critConfirmBonus": "",
    "damage": {
      "parts": [],
      "critParts": [],
      "nonCritParts": []
    },
    "attackParts": [],
    "formula": "",
    "ability": {
      "attack": "",
      "damage": "",
      "damageMult": 1,
      "critRange": 20,
      "critMult": 2
    },
    "save": {
      "dc": "0",
      "type": "fort",
      "description": "Fortitude partial; see text"
    },
    "effectNotes": "",
    "attackNotes": "",
    "soundEffect": "",
    "links": {
      "children": []
    },
    "learnedAt": {
      "class": [
        [
          "druid",
          7
        ],
        [
          "summoner",
          5
        ],
        [
          "shaman",
          7
        ],
        [
          "unchained Summoner",
          6
        ]
      ],
      "domain": [
        [
          "Scalykind",
          7
        ],
        [
          "Vermin",
          7
        ]
      ],
      "subDomain": [],
      "elementalSchool": [],
      "bloodline": [
        [
          "Pestilence",
          7
        ]
      ]
    },
    "level": 7,
    "clOffset": 0,
    "slOffset": 0,
    "school": "con",
    "subschool": "summoning",
    "types": "",
    "nonlethal": false,
    "conditionals": [],
    "components": {
      "value": "",
      "verbal": true,
      "somatic": true,
      "material": false,
      "focus": false,
      "divineFocus": 0
    },
    "castTime": "",
    "materials": {
      "value": "",
      "focus": "",
      "gpValue": 0
    },
    "spellbook": "primary",
    "preparation": {
      "preparedAmount": 0,
      "maxAmount": 0,
      "autoDeductCharges": true,
      "spontaneousPrepared": true,
      "mode": "prepared"
    },
    "atWill": false,
    "sr": false,
    "shortDescription": "<p>This spell summons four massive swarms of biting and stinging insects. These swarms appear adjacent to one another, but can be directed to move independently. Treat these swarms as centipede swarms with the following adjustments. The swarms have 60 hit points each and deal 4d6 points of damage with their swarm attack. The save to resist their poison and distraction effects is equal to the save DC of this spell. Creatures caught in multiple swarms only take damage and make saves once.</p><p>You may summon the swarms so that they share the area of other creatures. As a standard action, you can command any number of the swarms to move toward any target within 100 feet of you. You cannot command any swarm to move more than 100 feet away from you, and if you move more than 100 feet from any swarm, that swarm remains stationary, attacking any creatures in its area (but can be commanded again if you move within 100 feet).</p>",
    "spellDuration": "1 round/level",
    "spellEffect": "four swarms of insects",
    "spellArea": "",
    "showInQuickbar": false,
    "spellPoints": {
      "cost": "1 + @sl"
    },
    "domain": false,
    "slotCost": 1
  },
  "flags": {},
  "img": "systems/pf1/icons/misc/magic-swirl.png",
  "effects": []
}