{
  "_id": "mgf72xu968mobw93",
  "name": "Crimson Confession",
  "permission": {
    "default": 0
  },
  "type": "spell",
  "data": {
    "description": {
      "value": "<div class=\"spell-description\">\n  <p>\n    <strong>School</strong>&nbsp;abjuration;\n    <strong>Level</strong>&nbsp;occultist 2, psychic 2, sorcerer/wizard 2, witch 2;\n    \n    \n    \n    \n  </p>\n  <p>\n    <strong>Casting Time</strong>&nbsp;10 minutes<br>\n    <strong>Components</strong>&nbsp;V, S<br>\n  </p>\n  <p>\n    <strong>Range</strong>&nbsp;touch<br>\n    <strong>Area</strong>&nbsp;object touched or up to 1 sq. ft.<br>\n    <strong>Targets</strong>&nbsp;object touched or up to 1 sq. ft.<br>\n    \n    <strong>Duration</strong>&nbsp;permanent and 1 hour/level (see text)<br>\n    <strong>Saving Throw</strong>&nbsp;Fortitude negates;&nbsp;<strong>Spell Resistance</strong>&nbsp;yes<br>\n  </p>\n  <h2>Description</h2>\n  <p>You ward an object or an area with your personal rune or mark. You can choose for the writing to be visible or invisible, and it doesn't harm the material upon which it is placed. A <i>detect magic</i> spell causes an invisible mark to glow and be visible. If any creature other than you touches the warded object or area and fails a Fortitude save, its skin turns bright red for 1 hour per level. This coloring cannot be washed away, but it can be dispelled.</p><p><i>See invisibility</i>, <i>true seeing</i>, a <i>gem of seeing</i>, or a <i>robe of eyes</i> likewise allows the user to see an invisible mark. A <i>read magic</i> spell reveals the words, if any. The ward cannot be dispelled, but it can be removed by the caster or by an <i>erase</i> spell.</p>\n</div>\n",
      "chat": "",
      "unidentified": ""
    },
    "tags": [],
    "activation": {
      "cost": 10,
      "type": "minute"
    },
    "unchainedAction": {
      "activation": {
        "cost": 10,
        "type": "minute"
      }
    },
    "duration": {
      "value": null,
      "units": ""
    },
    "target": {
      "value": "object touched or up to 1 sq. ft."
    },
    "range": {
      "value": null,
      "units": "touch",
      "maxIncrements": 1,
      "minValue": null,
      "minUnits": ""
    },
    "uses": {
      "value": 0,
      "max": 0,
      "per": "",
      "autoDeductCharges": true,
      "autoDeductChargesCost": "1"
    },
    "measureTemplate": {
      "type": "",
      "size": "0",
      "overrideColor": false,
      "customColor": "",
      "overrideTexture": false,
      "customTexture": ""
    },
    "attackName": "",
    "actionType": "spellsave",
    "attackBonus": "",
    "critConfirmBonus": "",
    "damage": {
      "parts": [],
      "critParts": [],
      "nonCritParts": []
    },
    "attackParts": [],
    "formula": "",
    "ability": {
      "attack": "",
      "damage": "",
      "damageMult": 1,
      "critRange": 20,
      "critMult": 2
    },
    "save": {
      "dc": "0",
      "type": "fort",
      "description": "Fortitude negates"
    },
    "effectNotes": "",
    "attackNotes": "",
    "soundEffect": "",
    "links": {
      "children": []
    },
    "learnedAt": {
      "class": [
        [
          "sorcerer/wizard",
          2
        ],
        [
          "witch",
          2
        ],
        [
          "psychic",
          2
        ],
        [
          "occultist",
          2
        ]
      ],
      "domain": [],
      "subDomain": [],
      "elementalSchool": [],
      "bloodline": []
    },
    "level": 2,
    "clOffset": 0,
    "slOffset": 0,
    "school": "abj",
    "subschool": "",
    "types": "",
    "nonlethal": false,
    "conditionals": [],
    "components": {
      "value": "",
      "verbal": true,
      "somatic": true,
      "material": false,
      "focus": false,
      "divineFocus": 0
    },
    "castTime": "",
    "materials": {
      "value": "",
      "focus": "",
      "gpValue": 0
    },
    "spellbook": "primary",
    "preparation": {
      "preparedAmount": 0,
      "maxAmount": 0,
      "autoDeductCharges": true,
      "spontaneousPrepared": true,
      "mode": "prepared"
    },
    "atWill": false,
    "sr": true,
    "shortDescription": "<p>You ward an object or an area with your personal rune or mark. You can choose for the writing to be visible or invisible, and it doesn't harm the material upon which it is placed. A <i>detect magic</i> spell causes an invisible mark to glow and be visible. If any creature other than you touches the warded object or area and fails a Fortitude save, its skin turns bright red for 1 hour per level. This coloring cannot be washed away, but it can be dispelled.</p><p><i>See invisibility</i>, <i>true seeing</i>, a <i>gem of seeing</i>, or a <i>robe of eyes</i> likewise allows the user to see an invisible mark. A <i>read magic</i> spell reveals the words, if any. The ward cannot be dispelled, but it can be removed by the caster or by an <i>erase</i> spell.</p>",
    "spellDuration": "permanent and 1 hour/level (see text)",
    "spellEffect": "",
    "spellArea": "object touched or up to 1 sq. ft.",
    "showInQuickbar": false,
    "spellPoints": {
      "cost": "1 + @sl"
    },
    "domain": false,
    "slotCost": 1
  },
  "flags": {},
  "img": "systems/pf1/icons/misc/magic-swirl.png",
  "effects": []
}