{
  "_id": "d3wbaz4ibw8cramt",
  "name": "Detect Relations",
  "permission": {
    "default": 0
  },
  "type": "spell",
  "data": {
    "description": {
      "value": "<div class=\"spell-description\">\n  <p>\n    <strong>School</strong>&nbsp;divination;\n    <strong>Level</strong>&nbsp;bard 2, cleric/oracle 2, inquisitor 2, witch 2;\n    \n    \n    \n    \n  </p>\n  <p>\n    <strong>Casting Time</strong>&nbsp;1 standard action<br>\n    <strong>Components</strong>&nbsp;V, S, F/DF (a seed)<br>\n  </p>\n  <p>\n    \n    \n    <strong>Targets</strong>&nbsp;one creature per level, no two of which can be more than 30 ft. apart<br>\n    \n    <strong>Duration</strong>&nbsp;concentration, up to 1 min./level (D)<br>\n    <strong>Saving Throw</strong>&nbsp;Will negates; see text;&nbsp;<strong>Spell Resistance</strong>&nbsp;no<br>\n  </p>\n  <h2>Description</h2>\n  <p>You can determine whether or not two or more creatures are related by blood. The amount of information gleaned depends on how long you study a particular area or set of subjects.  <i>1st round</i>: Whether or not the subjects are related by blood.  <i>2nd round</i>: Number of related subjects and their general relation to one another (for example, this would reveal that one subject is a descendant of the other, but it would not specify \"mother\" or \"grandmother\").  <i>3rd round</i>: Precise relationship between subjects in the area. A target's Will save prevents you from determining its exact relationship with another creature, and only one subject needs to succeed at this save to prevent you from determining its relationship with another creature. (So, for instance, if two brothers are in the area and one succeeds at his Will save, you could tell that they are siblings, but could not distinguish whether they are full- or half-siblings.)  Each round, you can turn to detect relations in a new area. The spell can penetrate barriers, but 6 inches of stone, 1 inch of common metal, a thin sheet of lead, or 1 foot of wood or dirt will block it.  This spell functions by analyzing the blood and minds of creatures in the area, collectively examining these traits and comparing them to those of others in the area while looking for patterns. Thus, adoptive siblings and parents cannot be detected with this spell, since they share no blood.</p>\n</div>\n",
      "chat": "",
      "unidentified": ""
    },
    "tags": [],
    "activation": {
      "cost": 1,
      "type": "standard"
    },
    "unchainedAction": {
      "activation": {
        "cost": 2,
        "type": "action"
      }
    },
    "duration": {
      "value": null,
      "units": ""
    },
    "target": {
      "value": "one creature per level, no two of which can be more than 30 ft. apart"
    },
    "range": {
      "value": null,
      "units": "",
      "maxIncrements": 1,
      "minValue": null,
      "minUnits": ""
    },
    "uses": {
      "value": 0,
      "max": 0,
      "per": "",
      "autoDeductCharges": true,
      "autoDeductChargesCost": "1"
    },
    "measureTemplate": {
      "type": "",
      "size": "0",
      "overrideColor": false,
      "customColor": "",
      "overrideTexture": false,
      "customTexture": ""
    },
    "attackName": "",
    "actionType": "spellsave",
    "attackBonus": "",
    "critConfirmBonus": "",
    "damage": {
      "parts": [],
      "critParts": [],
      "nonCritParts": []
    },
    "attackParts": [],
    "formula": "",
    "ability": {
      "attack": "",
      "damage": "",
      "damageMult": 1,
      "critRange": 20,
      "critMult": 2
    },
    "save": {
      "dc": "0",
      "type": "will",
      "description": "Will negates; see text"
    },
    "effectNotes": "",
    "attackNotes": "",
    "soundEffect": "",
    "links": {
      "children": []
    },
    "learnedAt": {
      "class": [
        [
          "cleric/oracle",
          2
        ],
        [
          "bard",
          2
        ],
        [
          "witch",
          2
        ],
        [
          "inquisitor",
          2
        ]
      ],
      "domain": [],
      "subDomain": [],
      "elementalSchool": [],
      "bloodline": []
    },
    "level": 2,
    "clOffset": 0,
    "slOffset": 0,
    "school": "div",
    "subschool": "",
    "types": "",
    "nonlethal": false,
    "conditionals": [],
    "components": {
      "value": "",
      "verbal": true,
      "somatic": true,
      "material": false,
      "focus": true,
      "divineFocus": 3
    },
    "castTime": "",
    "materials": {
      "value": "",
      "focus": "a seed",
      "gpValue": 0
    },
    "spellbook": "primary",
    "preparation": {
      "preparedAmount": 0,
      "maxAmount": 0,
      "autoDeductCharges": true,
      "spontaneousPrepared": true,
      "mode": "prepared"
    },
    "atWill": false,
    "sr": false,
    "shortDescription": "<p>You can determine whether or not two or more creatures are related by blood. The amount of information gleaned depends on how long you study a particular area or set of subjects.  <i>1st round</i>: Whether or not the subjects are related by blood.  <i>2nd round</i>: Number of related subjects and their general relation to one another (for example, this would reveal that one subject is a descendant of the other, but it would not specify \"mother\" or \"grandmother\").  <i>3rd round</i>: Precise relationship between subjects in the area. A target's Will save prevents you from determining its exact relationship with another creature, and only one subject needs to succeed at this save to prevent you from determining its relationship with another creature. (So, for instance, if two brothers are in the area and one succeeds at his Will save, you could tell that they are siblings, but could not distinguish whether they are full- or half-siblings.)  Each round, you can turn to detect relations in a new area. The spell can penetrate barriers, but 6 inches of stone, 1 inch of common metal, a thin sheet of lead, or 1 foot of wood or dirt will block it.  This spell functions by analyzing the blood and minds of creatures in the area, collectively examining these traits and comparing them to those of others in the area while looking for patterns. Thus, adoptive siblings and parents cannot be detected with this spell, since they share no blood.</p>",
    "spellDuration": "concentration, up to 1 min./level (D)",
    "spellEffect": "",
    "spellArea": "",
    "showInQuickbar": false,
    "spellPoints": {
      "cost": "1 + @sl"
    },
    "domain": false,
    "slotCost": 1
  },
  "flags": {},
  "img": "systems/pf1/icons/misc/magic-swirl.png",
  "effects": []
}