{
  "_id": "5u43heihlrtuc58y",
  "name": "Ghoul Touch",
  "permission": {
    "default": 0
  },
  "type": "spell",
  "data": {
    "description": {
      "value": "<div class=\"spell-description\">\n  <p>\n    <strong>School</strong>&nbsp;necromancy;\n    <strong>Level</strong>&nbsp;bloodrager 2, sorcerer/wizard 2, spiritualist 2;\n    \n    <strong>Subdomain</strong>&nbsp;Undead 2;\n    \n    \n  </p>\n  <p>\n    <strong>Casting Time</strong>&nbsp;1 standard action<br>\n    <strong>Components</strong>&nbsp;V, S, M (cloth from a ghoul or earth from a ghoul&#x27;s lair)<br>\n  </p>\n  <p>\n    <strong>Range</strong>&nbsp;touch<br>\n    \n    <strong>Targets</strong>&nbsp;living humanoid touched<br>\n    \n    <strong>Duration</strong>&nbsp;1d6+2 rounds<br>\n    <strong>Saving Throw</strong>&nbsp;Fortitude negates;&nbsp;<strong>Spell Resistance</strong>&nbsp;yes<br>\n  </p>\n  <h2>Description</h2>\n  <p>Imbuing you with negative energy, this spell allows you to paralyze a single living humanoid for the duration of the spell with a successful melee touch attack.</p><p>A paralyzed subject exudes a carrion stench that causes all living creatures (except you) in a 10-foot-radius spread to become sickened (Fortitude negates). A <i>neutralize poison</i> spell removes the effect from a sickened creature, and creatures immune to poison are unaffected by the stench. This is a poison effect.</p>\n</div>\n",
      "chat": "",
      "unidentified": ""
    },
    "tags": [],
    "activation": {
      "cost": 1,
      "type": "standard"
    },
    "unchainedAction": {
      "activation": {
        "cost": 2,
        "type": "action"
      }
    },
    "duration": {
      "value": null,
      "units": ""
    },
    "target": {
      "value": "living humanoid touched"
    },
    "range": {
      "value": null,
      "units": "touch",
      "maxIncrements": 1,
      "minValue": null,
      "minUnits": ""
    },
    "uses": {
      "value": 0,
      "max": 0,
      "per": "",
      "autoDeductCharges": true,
      "autoDeductChargesCost": "1"
    },
    "measureTemplate": {
      "type": "",
      "size": "0",
      "overrideColor": false,
      "customColor": "",
      "overrideTexture": false,
      "customTexture": ""
    },
    "attackName": "",
    "actionType": "msak",
    "attackBonus": "",
    "critConfirmBonus": "",
    "damage": {
      "parts": [],
      "critParts": [],
      "nonCritParts": []
    },
    "attackParts": [],
    "formula": "",
    "ability": {
      "attack": "str",
      "damage": "",
      "damageMult": 1,
      "critRange": 20,
      "critMult": 2
    },
    "save": {
      "dc": "0",
      "type": "fort",
      "description": "Fortitude negates"
    },
    "effectNotes": "Lasts [[1d6+2]] Rounds",
    "attackNotes": "",
    "soundEffect": "",
    "links": {
      "children": []
    },
    "learnedAt": {
      "class": [
        [
          "sorcerer/wizard",
          2
        ],
        [
          "bloodrager",
          2
        ],
        [
          "spiritualist",
          2
        ]
      ],
      "domain": [],
      "subDomain": [
        [
          "Undead",
          2
        ]
      ],
      "elementalSchool": [],
      "bloodline": []
    },
    "level": 2,
    "clOffset": 0,
    "slOffset": 0,
    "school": "nec",
    "subschool": "",
    "types": "",
    "nonlethal": false,
    "conditionals": [],
    "components": {
      "value": "",
      "verbal": true,
      "somatic": true,
      "material": true,
      "focus": false,
      "divineFocus": 0
    },
    "castTime": "",
    "materials": {
      "value": "cloth from a ghoul or earth from a ghoul's lair",
      "focus": "",
      "gpValue": 0
    },
    "spellbook": "primary",
    "preparation": {
      "preparedAmount": 0,
      "maxAmount": 0,
      "autoDeductCharges": true,
      "spontaneousPrepared": true,
      "mode": "prepared"
    },
    "atWill": false,
    "sr": true,
    "shortDescription": "<p>Imbuing you with negative energy, this spell allows you to paralyze a single living humanoid for the duration of the spell with a successful melee touch attack.</p><p>A paralyzed subject exudes a carrion stench that causes all living creatures (except you) in a 10-foot-radius spread to become sickened (Fortitude negates). A <i>neutralize poison</i> spell removes the effect from a sickened creature, and creatures immune to poison are unaffected by the stench. This is a poison effect.</p>",
    "spellDuration": "1d6+2 rounds",
    "spellEffect": "",
    "spellArea": "",
    "showInQuickbar": false,
    "spellPoints": {
      "cost": "1 + @sl"
    },
    "domain": false,
    "slotCost": 1
  },
  "flags": {},
  "img": "systems/pf1/icons/misc/magic-swirl.png",
  "effects": []
}