{
  "_id": "wy9knmff355kb7iv",
  "name": "Invisibility Sphere",
  "permission": {
    "default": 0
  },
  "type": "spell",
  "data": {
    "description": {
      "value": "<div class=\"spell-description\">\n  <p>\n    <strong>School</strong>&nbsp;illusion&nbsp;(glamer);\n    <strong>Level</strong>&nbsp;bard 3, mesmerist 3, occultist 3, psychic 3, sorcerer/wizard 3, unchained Summoner 3;\n    \n    \n    \n    \n  </p>\n  <p>\n    <strong>Casting Time</strong>&nbsp;1 standard action<br>\n    <strong>Components</strong>&nbsp;V, S<br>\n  </p>\n  <p>\n    \n    <strong>Area</strong>&nbsp;10-ft.-radius emanation around the creature<br>\n    \n    \n    <strong>Duration</strong>&nbsp;1 min./level (D)<br>\n    <strong>Saving Throw</strong>&nbsp;Will negates (harmless);&nbsp;<strong>Spell Resistance</strong>&nbsp;yes<br>\n  </p>\n  <h2>Description</h2>\n  <p>This spell functions like <i>invisibility</i>, except that this spell confers <i>invisibility</i> upon all creatures within 10 feet of the recipient at the time the spell is cast. The center of the effect is mobile with the recipient.</p><p>Those affected by this spell can see each other and themselves as if unaffected by the spell. Any affected creature moving out of the area becomes visible, but creatures moving into the area after the spell is cast do not become invisible.</p><p>Affected creatures (other than the recipient) who attack negate the <i>invisibility</i> only for themselves. If the spell recipient attacks, the <i>invisibility</i> sphere ends.</p>\n</div>\n",
      "chat": "",
      "unidentified": ""
    },
    "tags": [],
    "activation": {
      "cost": 1,
      "type": "standard"
    },
    "unchainedAction": {
      "activation": {
        "cost": 2,
        "type": "action"
      }
    },
    "duration": {
      "value": null,
      "units": ""
    },
    "target": {
      "value": ""
    },
    "range": {
      "value": null,
      "units": "",
      "maxIncrements": 1,
      "minValue": null,
      "minUnits": ""
    },
    "uses": {
      "value": 0,
      "max": 0,
      "per": "",
      "autoDeductCharges": true,
      "autoDeductChargesCost": "1"
    },
    "measureTemplate": {
      "type": "circle",
      "size": "10",
      "overrideColor": false,
      "customColor": "",
      "overrideTexture": false,
      "customTexture": ""
    },
    "attackName": "",
    "actionType": "spellsave",
    "attackBonus": "",
    "critConfirmBonus": "",
    "damage": {
      "parts": [],
      "critParts": [],
      "nonCritParts": []
    },
    "attackParts": [],
    "formula": "",
    "ability": {
      "attack": "",
      "damage": "",
      "damageMult": 1,
      "critRange": 20,
      "critMult": 2
    },
    "save": {
      "dc": "0",
      "type": "will",
      "description": "Will negates (harmless)"
    },
    "effectNotes": "",
    "attackNotes": "",
    "soundEffect": "",
    "links": {
      "children": []
    },
    "learnedAt": {
      "class": [
        [
          "sorcerer/wizard",
          3
        ],
        [
          "bard",
          3
        ],
        [
          "psychic",
          3
        ],
        [
          "mesmerist",
          3
        ],
        [
          "occultist",
          3
        ],
        [
          "unchained Summoner",
          3
        ]
      ],
      "domain": [],
      "subDomain": [],
      "elementalSchool": [],
      "bloodline": []
    },
    "level": 3,
    "clOffset": 0,
    "slOffset": 0,
    "school": "ill",
    "subschool": "glamer",
    "types": "",
    "nonlethal": false,
    "conditionals": [],
    "components": {
      "value": "",
      "verbal": true,
      "somatic": true,
      "material": false,
      "focus": false,
      "divineFocus": 0
    },
    "castTime": "",
    "materials": {
      "value": "",
      "focus": "",
      "gpValue": 0
    },
    "spellbook": "primary",
    "preparation": {
      "preparedAmount": 0,
      "maxAmount": 0,
      "autoDeductCharges": true,
      "spontaneousPrepared": true,
      "mode": "prepared"
    },
    "atWill": false,
    "sr": true,
    "shortDescription": "<p>This spell functions like <i>invisibility</i>, except that this spell confers <i>invisibility</i> upon all creatures within 10 feet of the recipient at the time the spell is cast. The center of the effect is mobile with the recipient.</p><p>Those affected by this spell can see each other and themselves as if unaffected by the spell. Any affected creature moving out of the area becomes visible, but creatures moving into the area after the spell is cast do not become invisible.</p><p>Affected creatures (other than the recipient) who attack negate the <i>invisibility</i> only for themselves. If the spell recipient attacks, the <i>invisibility</i> sphere ends.</p>",
    "spellDuration": "1 min./level (D)",
    "spellEffect": "",
    "spellArea": "10-ft.-radius emanation around the creature",
    "showInQuickbar": false,
    "spellPoints": {
      "cost": "1 + @sl"
    },
    "domain": false,
    "slotCost": 1
  },
  "flags": {},
  "img": "systems/pf1/icons/misc/magic-swirl.png",
  "effects": []
}