{
  "_id": "2sa3881har33geo1",
  "name": "Polymorph Any Object",
  "permission": {
    "default": 0
  },
  "type": "spell",
  "data": {
    "description": {
      "value": "<div class=\"spell-description\">\n  <p>\n    <strong>School</strong>&nbsp;transmutation&nbsp;(polymorph);\n    <strong>Level</strong>&nbsp;sorcerer/wizard 8;\n    \n    <strong>Subdomain</strong>&nbsp;Construct 8;\n    \n    <strong>Bloodline</strong>&nbsp;Impossible 8, Protean 8;\n  </p>\n  <p>\n    <strong>Casting Time</strong>&nbsp;1 standard action<br>\n    <strong>Components</strong>&nbsp;V, S, M/DF (mercury, gum arabic, and smoke)<br>\n  </p>\n  <p>\n    <strong>Range</strong>&nbsp;close (25 ft. + 5 ft./2 levels)<br>\n    \n    <strong>Targets</strong>&nbsp;one creature, or one nonmagical object of up to 100 cu. ft./level<br>\n    \n    <strong>Duration</strong>&nbsp;see text<br>\n      <strong>Saving Throw</strong>&nbsp;Fortitude negates (object); see text;&nbsp;\n      <strong>Spell Resistance</strong>&nbsp;yes<br>\n  </p>\n  <h2>Description</h2>\n  <p>This spell functions like @Compendium[pf1.spells.t44p3oeq43jwcgwg]{Greater Polymorph}<em>,</em> except that it changes one object or creature into another. You can use this spell to transform all manner of objects and creatures into new forms-you aren't limited to transforming a living creature into another living form. The duration of the spell depends on how radical a change is made from the original state to its transmuted state. The duration is determined by using the following guidelines.</p>\n<table>\n<tbody>\n<tr>\n<th>Changed Subject is...</th>\n<th>Increase to duration Factor*</th>\n</tr>\n<tr>\n<td>Same kingdom (animal, vegetable, mineral)</td>\n<td>+5</td>\n</tr>\n<tr>\n<td>Same class (mammals, fungi, metals, etc.)</td>\n<td>+2</td>\n</tr>\n<tr>\n<td>Same size</td>\n<td>+2</td>\n</tr>\n<tr>\n<td>Related (twig is to tree, wolf fur is to wolf, etc.)</td>\n<td>+2</td>\n</tr>\n<tr>\n<td>Same or lower Intelligence</td>\n<td>+2</td>\n</tr>\n<tr>\n<td colspan=\"2\">*Add all that apply. Look up the total on the next table.</td>\n</tr>\n</tbody>\n</table>\n<table>\n<tbody>\n<tr>\n<th>Duration Factor</th>\n<th>Duration</th>\n<th>Example</th>\n</tr>\n<tr>\n<td>0</td>\n<td>20 minutes</td>\n<td>Pebble to human</td>\n</tr>\n<tr>\n<td>2</td>\n<td>1 hour</td>\n<td>Marionette to human</td>\n</tr>\n<tr>\n<td>4</td>\n<td>3 hours</td>\n<td>Human to marionette</td>\n</tr>\n<tr>\n<td>5</td>\n<td>12 hours</td>\n<td>Lizard to manticore</td>\n</tr>\n<tr>\n<td>6</td>\n<td>2 days</td>\n<td>Sheep to wool coat</td>\n</tr>\n<tr>\n<td>7</td>\n<td>1 week</td>\n<td>Shrew to manticore</td>\n</tr>\n<tr>\n<td>9+</td>\n<td>Permanent</td>\n<td>Manticore to shrew</td>\n</tr>\n</tbody>\n</table>\n<p>If the target of the spell does not have physical ability scores (Strength, Dexterity, or Constitution), this spell grants a base score of 10 to each missing ability score. If the target of the spell does not have mental ability scores (Intelligence, Wisdom, or Charisma), this spell grants a score of 5 to such scores. Damage taken by the new form can result in the injury or death of the polymorphed creature. In general, damage occurs when the new form is changed through physical force. A nonmagical object cannot be made into a magic item with this spell. Magic items aren't affected by this spell.</p>\n<p>This spell cannot create material of great intrinsic value, such as copper, silver, gems, silk, gold, platinum, mithral, or adamantine. It also cannot reproduce the special properties of cold iron in order to overcome the damage reduction of certain creatures.</p>\n<p>This spell can also be used to duplicate the effects of baleful polymorph, <em>greater polymorph,</em> flesh to stone, stone to flesh, transmute mud to rock, transmute metal to wood, or transmute rock to mud.</p>\n</div>\n",
      "chat": "",
      "unidentified": ""
    },
    "tags": [],
    "activation": {
      "cost": 1,
      "type": "standard"
    },
    "unchainedAction": {
      "activation": {
        "cost": 2,
        "type": "action"
      }
    },
    "duration": {
      "value": null,
      "units": ""
    },
    "target": {
      "value": "one creature, or one nonmagical object of up to 100 cu. ft./level"
    },
    "range": {
      "value": null,
      "units": "close",
      "maxIncrements": 1,
      "minValue": null,
      "minUnits": ""
    },
    "uses": {
      "value": 0,
      "max": 0,
      "per": "",
      "autoDeductCharges": true,
      "autoDeductChargesCost": "1"
    },
    "measureTemplate": {
      "type": "",
      "size": "0",
      "overrideColor": false,
      "customColor": "",
      "overrideTexture": false,
      "customTexture": ""
    },
    "attackName": "",
    "actionType": "spellsave",
    "attackBonus": "",
    "critConfirmBonus": "",
    "damage": {
      "parts": [],
      "critParts": [],
      "nonCritParts": []
    },
    "attackParts": [],
    "formula": "",
    "ability": {
      "attack": "",
      "damage": "",
      "damageMult": 1,
      "critRange": 20,
      "critMult": 2
    },
    "save": {
      "dc": "0",
      "type": "fort",
      "description": "Fortitude negates (object); see text"
    },
    "effectNotes": "",
    "attackNotes": "",
    "soundEffect": "",
    "links": {
      "children": []
    },
    "learnedAt": {
      "class": [
        [
          "sorcerer/wizard",
          8
        ]
      ],
      "domain": [],
      "subDomain": [
        [
          "Construct",
          8
        ]
      ],
      "elementalSchool": [],
      "bloodline": [
        [
          "Impossible",
          8
        ],
        [
          "Protean",
          8
        ]
      ]
    },
    "level": 8,
    "clOffset": 0,
    "slOffset": 0,
    "school": "trs",
    "subschool": "polymorph",
    "types": "",
    "nonlethal": false,
    "conditionals": [],
    "components": {
      "value": "",
      "verbal": true,
      "somatic": true,
      "material": true,
      "focus": false,
      "divineFocus": 2
    },
    "castTime": "",
    "materials": {
      "value": "mercury, gum arabic, and smoke",
      "focus": "",
      "gpValue": 0
    },
    "spellbook": "",
    "preparation": {
      "preparedAmount": 0,
      "maxAmount": 0,
      "autoDeductCharges": true,
      "spontaneousPrepared": true,
      "mode": "prepared"
    },
    "atWill": false,
    "sr": true,
    "shortDescription": "<p>This spell functions like @Compendium[pf1.spells.t44p3oeq43jwcgwg]{Greater Polymorph}<em>,</em> except that it changes one object or creature into another. You can use this spell to transform all manner of objects and creatures into new forms-you aren't limited to transforming a living creature into another living form. The duration of the spell depends on how radical a change is made from the original state to its transmuted state. The duration is determined by using the following guidelines.</p>\n<table>\n<tbody>\n<tr>\n<th>Changed Subject is...</th>\n<th>Increase to duration Factor*</th>\n</tr>\n<tr>\n<td>Same kingdom (animal, vegetable, mineral)</td>\n<td>+5</td>\n</tr>\n<tr>\n<td>Same class (mammals, fungi, metals, etc.)</td>\n<td>+2</td>\n</tr>\n<tr>\n<td>Same size</td>\n<td>+2</td>\n</tr>\n<tr>\n<td>Related (twig is to tree, wolf fur is to wolf, etc.)</td>\n<td>+2</td>\n</tr>\n<tr>\n<td>Same or lower Intelligence</td>\n<td>+2</td>\n</tr>\n<tr>\n<td colspan=\"2\">*Add all that apply. Look up the total on the next table.</td>\n</tr>\n</tbody>\n</table>\n<table>\n<tbody>\n<tr>\n<th>Duration Factor</th>\n<th>Duration</th>\n<th>Example</th>\n</tr>\n<tr>\n<td>0</td>\n<td>20 minutes</td>\n<td>Pebble to human</td>\n</tr>\n<tr>\n<td>2</td>\n<td>1 hour</td>\n<td>Marionette to human</td>\n</tr>\n<tr>\n<td>4</td>\n<td>3 hours</td>\n<td>Human to marionette</td>\n</tr>\n<tr>\n<td>5</td>\n<td>12 hours</td>\n<td>Lizard to manticore</td>\n</tr>\n<tr>\n<td>6</td>\n<td>2 days</td>\n<td>Sheep to wool coat</td>\n</tr>\n<tr>\n<td>7</td>\n<td>1 week</td>\n<td>Shrew to manticore</td>\n</tr>\n<tr>\n<td>9+</td>\n<td>Permanent</td>\n<td>Manticore to shrew</td>\n</tr>\n</tbody>\n</table>\n<p>If the target of the spell does not have physical ability scores (Strength, Dexterity, or Constitution), this spell grants a base score of 10 to each missing ability score. If the target of the spell does not have mental ability scores (Intelligence, Wisdom, or Charisma), this spell grants a score of 5 to such scores. Damage taken by the new form can result in the injury or death of the polymorphed creature. In general, damage occurs when the new form is changed through physical force. A nonmagical object cannot be made into a magic item with this spell. Magic items aren't affected by this spell.</p>\n<p>This spell cannot create material of great intrinsic value, such as copper, silver, gems, silk, gold, platinum, mithral, or adamantine. It also cannot reproduce the special properties of cold iron in order to overcome the damage reduction of certain creatures.</p>\n<p>This spell can also be used to duplicate the effects of baleful polymorph, <em>greater polymorph,</em> flesh to stone, stone to flesh, transmute mud to rock, transmute metal to wood, or transmute rock to mud.</p>",
    "spellDuration": "see text",
    "spellEffect": "",
    "spellArea": "",
    "showInQuickbar": false,
    "spellPoints": {
      "cost": "1 + @sl"
    },
    "domain": false,
    "slotCost": 1,
    "identifiedName": "Polymorph Any Object"
  },
  "flags": {},
  "img": "systems/pf1/icons/misc/magic-swirl.png",
  "effects": []
}