{
  "_id": "sy3twpjgb5sp0jww",
  "name": "Scrivener's Chant",
  "permission": {
    "default": 0
  },
  "type": "spell",
  "data": {
    "description": {
      "value": "<div class=\"spell-description\">\n  <p>\n    <strong>School</strong>&nbsp;transmutation;\n    <strong>Level</strong>&nbsp;bard 0, cleric/oracle 0, sorcerer/wizard 0;\n    \n    \n    \n    \n  </p>\n  <p>\n    <strong>Casting Time</strong>&nbsp;1 standard action<br>\n    <strong>Components</strong>&nbsp;V, S, M (fine sand and a vial of ink)<br>\n  </p>\n  <p>\n    <strong>Range</strong>&nbsp;5 feet<br>\n    \n    <strong>Targets</strong>&nbsp;one or more written objects<br>\n    \n    <strong>Duration</strong>&nbsp;concentration, up to 1 minute/level<br>\n    <strong>Saving Throw</strong>&nbsp;Will (harmless, object);&nbsp;<strong>Spell Resistance</strong>&nbsp;yes<br>\n  </p>\n  <h2>Description</h2>\n  <p>This spell imbues a quill with animate energy and rapidly transcribes words from one page to another. The quill copies a written work at the rate of one normal-sized page per minute.</p><p>The Linguistics skill can be used to make a convincing copy, but otherwise the reproduction is written in the hand of the caster.</p><p>You must concentrate upon the material being duplicated for the spell's duration and provide new blank pages as required.</p><p>The <i>scrivener's chant</i> requires blank paper and a quill or other writing materials, in addition to the material components.</p><p>This spell cannot duplicate magical writing (including spells and magical scrolls), though it can duplicate non-magical writing from a magical source.</p>\n</div>\n",
      "chat": "",
      "unidentified": ""
    },
    "tags": [],
    "activation": {
      "cost": 1,
      "type": "standard"
    },
    "unchainedAction": {
      "activation": {
        "cost": 2,
        "type": "action"
      }
    },
    "duration": {
      "value": null,
      "units": ""
    },
    "target": {
      "value": "one or more written objects"
    },
    "range": {
      "value": 5,
      "units": "ft",
      "maxIncrements": 1,
      "minValue": null,
      "minUnits": ""
    },
    "uses": {
      "value": 0,
      "max": 0,
      "per": "",
      "autoDeductCharges": true,
      "autoDeductChargesCost": "1"
    },
    "measureTemplate": {
      "type": "",
      "size": "0",
      "overrideColor": false,
      "customColor": "",
      "overrideTexture": false,
      "customTexture": ""
    },
    "attackName": "",
    "actionType": "spellsave",
    "attackBonus": "",
    "critConfirmBonus": "",
    "damage": {
      "parts": [],
      "critParts": [],
      "nonCritParts": []
    },
    "attackParts": [],
    "formula": "",
    "ability": {
      "attack": "",
      "damage": "",
      "damageMult": 1,
      "critRange": 20,
      "critMult": 2
    },
    "save": {
      "dc": "0",
      "type": "will",
      "description": "Will (harmless, object)"
    },
    "effectNotes": "",
    "attackNotes": "",
    "soundEffect": "",
    "links": {
      "children": []
    },
    "learnedAt": {
      "class": [
        [
          "sorcerer/wizard",
          0
        ],
        [
          "cleric/oracle",
          0
        ],
        [
          "bard",
          0
        ]
      ],
      "domain": [],
      "subDomain": [],
      "elementalSchool": [],
      "bloodline": []
    },
    "level": 0,
    "clOffset": 0,
    "slOffset": 0,
    "school": "trs",
    "subschool": "",
    "types": "",
    "nonlethal": false,
    "conditionals": [],
    "components": {
      "value": "",
      "verbal": true,
      "somatic": true,
      "material": true,
      "focus": false,
      "divineFocus": 0
    },
    "castTime": "",
    "materials": {
      "value": "fine sand and a vial of ink",
      "focus": "",
      "gpValue": 0
    },
    "spellbook": "primary",
    "preparation": {
      "preparedAmount": 0,
      "maxAmount": 0,
      "autoDeductCharges": false,
      "spontaneousPrepared": true,
      "mode": "prepared"
    },
    "atWill": false,
    "sr": true,
    "shortDescription": "<p>This spell imbues a quill with animate energy and rapidly transcribes words from one page to another. The quill copies a written work at the rate of one normal-sized page per minute.</p><p>The Linguistics skill can be used to make a convincing copy, but otherwise the reproduction is written in the hand of the caster.</p><p>You must concentrate upon the material being duplicated for the spell's duration and provide new blank pages as required.</p><p>The <i>scrivener's chant</i> requires blank paper and a quill or other writing materials, in addition to the material components.</p><p>This spell cannot duplicate magical writing (including spells and magical scrolls), though it can duplicate non-magical writing from a magical source.</p>",
    "spellDuration": "concentration, up to 1 minute/level",
    "spellEffect": "",
    "spellArea": "",
    "showInQuickbar": false,
    "spellPoints": {
      "cost": "1 + @sl"
    },
    "domain": false,
    "slotCost": 1
  },
  "flags": {},
  "img": "systems/pf1/icons/misc/magic-swirl.png",
  "effects": []
}