{
  "_id": "s7fu6mwik67l33hf",
  "name": "Shapechanger's Gift, Greater",
  "permission": {
    "default": 0
  },
  "type": "spell",
  "data": {
    "description": {
      "value": "<div class=\"spell-description\">\n  <p>\n    <strong>School</strong>&nbsp;transmutation&nbsp;(polymorph);\n    <strong>Level</strong>&nbsp;sorcerer/wizard 7;\n    \n    \n    \n    \n  </p>\n  <p>\n    <strong>Casting Time</strong>&nbsp;1 standard action<br>\n    <strong>Components</strong>&nbsp;V, S, M (a piece of the creature whose form you plan to grant)<br>\n  </p>\n  <p>\n    <strong>Range</strong>&nbsp;touch<br>\n    \n    <strong>Targets</strong>&nbsp;willing living creature touched<br>\n    \n    <strong>Duration</strong>&nbsp;1 hour/level<br>\n    <strong>Saving Throw</strong>&nbsp;Fortitude negates (harmless);&nbsp;<strong>Spell Resistance</strong>&nbsp;yes<br>\n  </p>\n  <h2>Description</h2>\n  <p>This spell functions as <i>shapechanger's gift</i> except the chosen form can be an animal (as per <i>beast shape</i> I), elemental (as per <i>elemental body</i> I), fey (as per <i>fey form I</i>*), humanoid (as per <i>alter</i> self), monstrous humanoid (as per <i>monstrous physique</i> IUM), or vermin (as per <i>vermin shape</i> IUM) and the chosen form can have a fly speed.</p>\n</div>\n",
      "chat": "",
      "unidentified": ""
    },
    "tags": [],
    "activation": {
      "cost": 1,
      "type": "standard"
    },
    "unchainedAction": {
      "activation": {
        "cost": 2,
        "type": "action"
      }
    },
    "duration": {
      "value": null,
      "units": ""
    },
    "target": {
      "value": "willing living creature touched"
    },
    "range": {
      "value": null,
      "units": "touch",
      "maxIncrements": 1,
      "minValue": null,
      "minUnits": ""
    },
    "uses": {
      "value": 0,
      "max": 0,
      "per": "",
      "autoDeductCharges": true,
      "autoDeductChargesCost": "1"
    },
    "measureTemplate": {
      "type": "",
      "size": "0",
      "overrideColor": false,
      "customColor": "",
      "overrideTexture": false,
      "customTexture": ""
    },
    "attackName": "",
    "actionType": "spellsave",
    "attackBonus": "",
    "critConfirmBonus": "",
    "damage": {
      "parts": [],
      "critParts": [],
      "nonCritParts": []
    },
    "attackParts": [],
    "formula": "",
    "ability": {
      "attack": "",
      "damage": "",
      "damageMult": 1,
      "critRange": 20,
      "critMult": 2
    },
    "save": {
      "dc": "0",
      "type": "fort",
      "description": "Fortitude negates (harmless)"
    },
    "effectNotes": "",
    "attackNotes": "",
    "soundEffect": "",
    "links": {
      "children": []
    },
    "learnedAt": {
      "class": [
        [
          "sorcerer/wizard",
          7
        ]
      ],
      "domain": [],
      "subDomain": [],
      "elementalSchool": [],
      "bloodline": []
    },
    "level": 7,
    "clOffset": 0,
    "slOffset": 0,
    "school": "trs",
    "subschool": "polymorph",
    "types": "",
    "nonlethal": false,
    "conditionals": [],
    "components": {
      "value": "",
      "verbal": true,
      "somatic": true,
      "material": true,
      "focus": false,
      "divineFocus": 0
    },
    "castTime": "",
    "materials": {
      "value": "a piece of the creature whose form you plan to grant",
      "focus": "",
      "gpValue": 0
    },
    "spellbook": "primary",
    "preparation": {
      "preparedAmount": 0,
      "maxAmount": 0,
      "autoDeductCharges": true,
      "spontaneousPrepared": true,
      "mode": "prepared"
    },
    "atWill": false,
    "sr": true,
    "shortDescription": "<p>This spell functions as <i>shapechanger's gift</i> except the chosen form can be an animal (as per <i>beast shape</i> I), elemental (as per <i>elemental body</i> I), fey (as per <i>fey form I</i>*), humanoid (as per <i>alter</i> self), monstrous humanoid (as per <i>monstrous physique</i> IUM), or vermin (as per <i>vermin shape</i> IUM) and the chosen form can have a fly speed.</p>",
    "spellDuration": "1 hour/level",
    "spellEffect": "",
    "spellArea": "",
    "showInQuickbar": false,
    "spellPoints": {
      "cost": "1 + @sl"
    },
    "domain": false,
    "slotCost": 1
  },
  "flags": {},
  "img": "systems/pf1/icons/misc/magic-swirl.png",
  "effects": []
}