{
  "_id": "ltyntksj1k40td47",
  "name": "Siphon Magic",
  "permission": {
    "default": 0
  },
  "type": "spell",
  "data": {
    "description": {
      "value": "<div class=\"spell-description\">\n  <p>\n    <strong>School</strong>&nbsp;abjuration;\n    <strong>Level</strong>&nbsp;cleric/oracle 5, sorcerer/wizard 5, witch 5;\n    \n    \n    \n    \n  </p>\n  <p>\n    <strong>Casting Time</strong>&nbsp;1 standard action<br>\n    <strong>Components</strong>&nbsp;V, S, M (a coiled length of copper wire wrapped around the palm)<br>\n  </p>\n  <p>\n    <strong>Range</strong>&nbsp;touch<br>\n    \n    <strong>Targets</strong>&nbsp;creature touched<br>\n    \n    <strong>Duration</strong>&nbsp;instantaneous<br>\n    <strong>Saving Throw</strong>&nbsp;none;&nbsp;<strong>Spell Resistance</strong>&nbsp;no<br>\n  </p>\n  <h2>Description</h2>\n  <p>This spell attempts to transfer a magical effect from a creature you touch to yourself. When you touch the creature, <i>siphon magic</i> attempts to end one ongoing spell that has been cast on that creature, as if via a targeted <i>dispel magic</i>. If you know the specific spell effect you wish to target, you can name that spell effect to target that specific spell; otherwise <i>siphon magic</i> begins with the highest-level spell in effect and works its way down through all spells affecting the target until it dispels one or runs out of effects, as per <i>dispel magic</i>.</p><p>If <i>siphon magic</i> successfully ends a spell effect on the target, the remaining duration of that spell effect is transferred to you. That spell effect plays out for the rest of its duration as if you had been the original target. If the spell allows a saving throw to resist the effect, you gain a saving throw as if the spell were just being cast upon you, although this does not \"reset\" the spell's duration.</p>\n</div>\n",
      "chat": "",
      "unidentified": ""
    },
    "tags": [],
    "activation": {
      "cost": 1,
      "type": "standard"
    },
    "unchainedAction": {
      "activation": {
        "cost": 2,
        "type": "action"
      }
    },
    "duration": {
      "value": null,
      "units": ""
    },
    "target": {
      "value": "creature touched"
    },
    "range": {
      "value": null,
      "units": "touch",
      "maxIncrements": 1,
      "minValue": null,
      "minUnits": ""
    },
    "uses": {
      "value": 0,
      "max": 0,
      "per": "",
      "autoDeductCharges": true,
      "autoDeductChargesCost": "1"
    },
    "measureTemplate": {
      "type": "",
      "size": "0",
      "overrideColor": false,
      "customColor": "",
      "overrideTexture": false,
      "customTexture": ""
    },
    "attackName": "",
    "actionType": "",
    "attackBonus": "",
    "critConfirmBonus": "",
    "damage": {
      "parts": [],
      "critParts": [],
      "nonCritParts": []
    },
    "attackParts": [],
    "formula": "",
    "ability": {
      "attack": "",
      "damage": "",
      "damageMult": 1,
      "critRange": 20,
      "critMult": 2
    },
    "save": {
      "dc": "0",
      "type": "",
      "description": ""
    },
    "effectNotes": "",
    "attackNotes": "",
    "soundEffect": "",
    "links": {
      "children": []
    },
    "learnedAt": {
      "class": [
        [
          "sorcerer/wizard",
          5
        ],
        [
          "cleric/oracle",
          5
        ],
        [
          "witch",
          5
        ]
      ],
      "domain": [],
      "subDomain": [],
      "elementalSchool": [],
      "bloodline": []
    },
    "level": 5,
    "clOffset": 0,
    "slOffset": 0,
    "school": "abj",
    "subschool": "",
    "types": "",
    "nonlethal": false,
    "conditionals": [],
    "components": {
      "value": "",
      "verbal": true,
      "somatic": true,
      "material": true,
      "focus": false,
      "divineFocus": 0
    },
    "castTime": "",
    "materials": {
      "value": "a coiled length of copper wire wrapped around the palm",
      "focus": "",
      "gpValue": 0
    },
    "spellbook": "primary",
    "preparation": {
      "preparedAmount": 0,
      "maxAmount": 0,
      "autoDeductCharges": true,
      "spontaneousPrepared": true,
      "mode": "prepared"
    },
    "atWill": false,
    "sr": false,
    "shortDescription": "<p>This spell attempts to transfer a magical effect from a creature you touch to yourself. When you touch the creature, <i>siphon magic</i> attempts to end one ongoing spell that has been cast on that creature, as if via a targeted <i>dispel magic</i>. If you know the specific spell effect you wish to target, you can name that spell effect to target that specific spell; otherwise <i>siphon magic</i> begins with the highest-level spell in effect and works its way down through all spells affecting the target until it dispels one or runs out of effects, as per <i>dispel magic</i>.</p><p>If <i>siphon magic</i> successfully ends a spell effect on the target, the remaining duration of that spell effect is transferred to you. That spell effect plays out for the rest of its duration as if you had been the original target. If the spell allows a saving throw to resist the effect, you gain a saving throw as if the spell were just being cast upon you, although this does not \"reset\" the spell's duration.</p>",
    "spellDuration": "instantaneous",
    "spellEffect": "",
    "spellArea": "",
    "showInQuickbar": false,
    "spellPoints": {
      "cost": "1 + @sl"
    },
    "domain": false,
    "slotCost": 1
  },
  "flags": {},
  "img": "systems/pf1/icons/misc/magic-swirl.png",
  "effects": []
}