{
  "_id": "n4e35m6qu9nmkhgm",
  "name": "Storm of Vengeance",
  "permission": {
    "default": 0
  },
  "type": "spell",
  "data": {
    "description": {
      "value": "<div class=\"spell-description\">\n  <p>\n    <strong>School</strong>&nbsp;conjuration&nbsp;(summoning);\n    <strong>Level</strong>&nbsp;cleric/oracle 9, druid 9, shaman 9, witch 9;\n    <strong>Domain</strong>&nbsp;Nobility 9, Weather 9;\n    <strong>Subdomain</strong>&nbsp;Cloud 9;\n    \n    <strong>Bloodline</strong>&nbsp;Stormborn 9;\n  </p>\n  <p>\n    <strong>Casting Time</strong>&nbsp;1 round<br>\n    <strong>Components</strong>&nbsp;V, S<br>\n  </p>\n  <p>\n    <strong>Range</strong>&nbsp;long (400 ft. + 40 ft./level)<br>\n    \n    \n    <strong>Effect</strong>&nbsp;360-ft.-radius storm cloud<br>\n    <strong>Duration</strong>&nbsp;concentration (maximum 10 rounds) (D)<br>\n    <strong>Saving Throw</strong>&nbsp;see text;&nbsp;<strong>Spell Resistance</strong>&nbsp;yes<br>\n  </p>\n  <h2>Description</h2>\n  <p>You create a huge black storm cloud in the air. Each creature under the cloud must succeed on a Fortitude save or be deafened for 1d4 x 10 minutes. Each round you continue to concentrate, the spell generates additional effects as noted below. Each effect occurs on your turn.</p><p><i>2nd Round</i>: Acid rains down in the area, dealing 1d6 points of acid damage (no save).</p><p><i>3rd Round</i>: You call six bolts of lightning down from the cloud.</p><p>You decide where the bolts strike. No two bolts may be directed at the same target. Each bolt deals 10d6 points of electricity damage. A creature struck can attempt a Reflex save for half damage.</p><p><i>4th Round</i>: Hailstones rain down in the area, dealing 5d6 points of bludgeoning damage (no save).</p><p><i>5th through 10th Rounds</i>: Violent rain and wind gusts reduce visibility. The rain obscures all sight, including darkvision, beyond 5 feet. A creature 5 feet away has concealment (attacks have a 20% miss chance). Creatures farther away have total concealment (50% miss chance, and the attacker cannot use sight to locate the target). Speed is reduced by three-quarters.</p><p>Ranged attacks within the area of the storm are impossible. Spells cast within the area are disrupted unless the caster succeeds on a Concentration check against a DC equal to the <i>storm of</i> vengeance's save DC + the level of the spell the caster is trying to cast.</p>\n</div>\n",
      "chat": "",
      "unidentified": ""
    },
    "tags": [],
    "activation": {
      "cost": 1,
      "type": "round"
    },
    "unchainedAction": {
      "activation": {
        "cost": 3,
        "type": "action"
      }
    },
    "duration": {
      "value": null,
      "units": ""
    },
    "target": {
      "value": ""
    },
    "range": {
      "value": null,
      "units": "long",
      "maxIncrements": 1,
      "minValue": null,
      "minUnits": ""
    },
    "uses": {
      "value": 0,
      "max": 0,
      "per": "",
      "autoDeductCharges": true,
      "autoDeductChargesCost": "1"
    },
    "measureTemplate": {
      "type": "",
      "size": "0",
      "overrideColor": false,
      "customColor": "",
      "overrideTexture": false,
      "customTexture": ""
    },
    "attackName": "",
    "actionType": "spellsave",
    "attackBonus": "",
    "critConfirmBonus": "",
    "damage": {
      "parts": [],
      "critParts": [],
      "nonCritParts": []
    },
    "attackParts": [],
    "formula": "",
    "ability": {
      "attack": "",
      "damage": "",
      "damageMult": 1,
      "critRange": 20,
      "critMult": 2
    },
    "save": {
      "dc": "0",
      "type": "",
      "description": "see text"
    },
    "effectNotes": "",
    "attackNotes": "",
    "soundEffect": "",
    "links": {
      "children": []
    },
    "learnedAt": {
      "class": [
        [
          "cleric/oracle",
          9
        ],
        [
          "druid",
          9
        ],
        [
          "witch",
          9
        ],
        [
          "shaman",
          9
        ]
      ],
      "domain": [
        [
          "Nobility",
          9
        ],
        [
          "Weather",
          9
        ]
      ],
      "subDomain": [
        [
          "Cloud",
          9
        ]
      ],
      "elementalSchool": [],
      "bloodline": [
        [
          "Stormborn",
          9
        ]
      ]
    },
    "level": 9,
    "clOffset": 0,
    "slOffset": 0,
    "school": "con",
    "subschool": "summoning",
    "types": "",
    "nonlethal": false,
    "conditionals": [],
    "components": {
      "value": "",
      "verbal": true,
      "somatic": true,
      "material": false,
      "focus": false,
      "divineFocus": 0
    },
    "castTime": "",
    "materials": {
      "value": "",
      "focus": "",
      "gpValue": 0
    },
    "spellbook": "primary",
    "preparation": {
      "preparedAmount": 0,
      "maxAmount": 0,
      "autoDeductCharges": true,
      "spontaneousPrepared": true,
      "mode": "prepared"
    },
    "atWill": false,
    "sr": true,
    "shortDescription": "<p>You create a huge black storm cloud in the air. Each creature under the cloud must succeed on a Fortitude save or be deafened for 1d4 x 10 minutes. Each round you continue to concentrate, the spell generates additional effects as noted below. Each effect occurs on your turn.</p><p><i>2nd Round</i>: Acid rains down in the area, dealing 1d6 points of acid damage (no save).</p><p><i>3rd Round</i>: You call six bolts of lightning down from the cloud.</p><p>You decide where the bolts strike. No two bolts may be directed at the same target. Each bolt deals 10d6 points of electricity damage. A creature struck can attempt a Reflex save for half damage.</p><p><i>4th Round</i>: Hailstones rain down in the area, dealing 5d6 points of bludgeoning damage (no save).</p><p><i>5th through 10th Rounds</i>: Violent rain and wind gusts reduce visibility. The rain obscures all sight, including darkvision, beyond 5 feet. A creature 5 feet away has concealment (attacks have a 20% miss chance). Creatures farther away have total concealment (50% miss chance, and the attacker cannot use sight to locate the target). Speed is reduced by three-quarters.</p><p>Ranged attacks within the area of the storm are impossible. Spells cast within the area are disrupted unless the caster succeeds on a Concentration check against a DC equal to the <i>storm of</i> vengeance's save DC + the level of the spell the caster is trying to cast.</p>",
    "spellDuration": "concentration (maximum 10 rounds) (D)",
    "spellEffect": "360-ft.-radius storm cloud",
    "spellArea": "",
    "showInQuickbar": false,
    "spellPoints": {
      "cost": "1 + @sl"
    },
    "domain": false,
    "slotCost": 1
  },
  "flags": {},
  "img": "systems/pf1/icons/misc/magic-swirl.png",
  "effects": []
}