{
  "_id": "ylewzn5nlzy7ugdm",
  "name": "Symbol of Weakness",
  "permission": {
    "default": 0
  },
  "type": "spell",
  "data": {
    "description": {
      "value": "<div class=\"spell-description\">\n  <p>\n    <strong>School</strong>&nbsp;necromancy;\n    <strong>Level</strong>&nbsp;cleric/oracle 7, occultist 5, sorcerer/wizard 7, witch 7;\n    \n    \n    \n    \n  </p>\n  <p>\n    <strong>Casting Time</strong>&nbsp;10 minutes<br>\n    <strong>Components</strong>&nbsp;V, S, M (mercury and phosphorus, plus powdered diamond and opal worth a total of 5,000 gp)<br>\n  </p>\n  <p>\n    <strong>Range</strong>&nbsp;0 feet<br>\n    \n    \n    <strong>Effect</strong>&nbsp;one symbol<br>\n    <strong>Duration</strong>&nbsp;see text<br>\n      <strong>Saving Throw</strong>&nbsp;Fortitude negates;&nbsp;\n      <strong>Spell Resistance</strong>&nbsp;yes<br>\n  </p>\n  <h2>Description</h2>\n  <p>This spell functions like <i>symbol of death</i>, except that every creature within 60 feet of a <i>Symbol of Weakness</i> instead suffers crippling weakness that deals 3d6 points of Strength damage.</p><p>Unlike <i>symbol of death</i>, <i>Symbol of Weakness</i> has no hit point limit; once triggered, a <i>Symbol of Weakness</i> simply remains active for 10 minutes per caster level. A creature can only be affected by this symbol once.</p><p><i>Note</i>: Magic traps such as <i>Symbol of Weakness</i> are hard to detect and disable. While any character can use Perception to find a symbol, only a character with the trapfinding class feature can use Disable Device to disarm it. The DC in each case is 25 + spell level, or 32 for <i>Symbol of Weakness</i>.</p>\n</div>\n",
      "chat": "",
      "unidentified": ""
    },
    "tags": [],
    "activation": {
      "cost": 10,
      "type": "minute"
    },
    "unchainedAction": {
      "activation": {
        "cost": 10,
        "type": "minute"
      }
    },
    "duration": {
      "value": null,
      "units": ""
    },
    "target": {
      "value": ""
    },
    "range": {
      "value": "0",
      "units": "ft",
      "maxIncrements": 1,
      "minValue": null,
      "minUnits": ""
    },
    "uses": {
      "value": 0,
      "max": 0,
      "per": "",
      "autoDeductCharges": true,
      "autoDeductChargesCost": "1"
    },
    "measureTemplate": {
      "type": "",
      "size": "0",
      "overrideColor": false,
      "customColor": "",
      "overrideTexture": false,
      "customTexture": ""
    },
    "attackName": "",
    "actionType": "spellsave",
    "attackBonus": "",
    "critConfirmBonus": "",
    "damage": {
      "parts": [],
      "critParts": [],
      "nonCritParts": []
    },
    "attackParts": [],
    "formula": "",
    "ability": {
      "attack": "",
      "damage": "",
      "damageMult": 1,
      "critRange": 20,
      "critMult": 2
    },
    "save": {
      "dc": "0",
      "type": "fort",
      "description": "Fortitude negates"
    },
    "effectNotes": "",
    "attackNotes": "",
    "soundEffect": "",
    "links": {
      "children": []
    },
    "learnedAt": {
      "class": [
        [
          "sorcerer/wizard",
          7
        ],
        [
          "cleric/oracle",
          7
        ],
        [
          "witch",
          7
        ],
        [
          "occultist",
          5
        ]
      ],
      "domain": [],
      "subDomain": [],
      "elementalSchool": [],
      "bloodline": []
    },
    "level": 7,
    "clOffset": 0,
    "slOffset": 0,
    "school": "nec",
    "subschool": "",
    "types": "",
    "nonlethal": false,
    "conditionals": [],
    "components": {
      "value": "",
      "verbal": true,
      "somatic": true,
      "material": true,
      "focus": false,
      "divineFocus": 0
    },
    "castTime": "",
    "materials": {
      "value": "mercury and phosphorus, plus powdered diamond and opal worth a total of 5,000 gp",
      "focus": "",
      "gpValue": 5000
    },
    "spellbook": "",
    "preparation": {
      "preparedAmount": 0,
      "maxAmount": 0,
      "autoDeductCharges": false,
      "spontaneousPrepared": false,
      "mode": "prepared"
    },
    "atWill": false,
    "sr": true,
    "shortDescription": "<p>This spell functions like <i>symbol of death</i>, except that every creature within 60 feet of a <i>Symbol of Weakness</i> instead suffers crippling weakness that deals 3d6 points of Strength damage.</p><p>Unlike <i>symbol of death</i>, <i>Symbol of Weakness</i> has no hit point limit; once triggered, a <i>Symbol of Weakness</i> simply remains active for 10 minutes per caster level. A creature can only be affected by this symbol once.</p><p><i>Note</i>: Magic traps such as <i>Symbol of Weakness</i> are hard to detect and disable. While any character can use Perception to find a symbol, only a character with the trapfinding class feature can use Disable Device to disarm it. The DC in each case is 25 + spell level, or 32 for <i>Symbol of Weakness</i>.</p>",
    "spellDuration": "see text",
    "spellEffect": "one symbol",
    "spellArea": "",
    "showInQuickbar": false,
    "spellPoints": {
      "cost": ""
    },
    "domain": false,
    "slotCost": 1
  },
  "flags": {},
  "img": "systems/pf1/icons/misc/magic-swirl.png",
  "effects": []
}