{
  "_id": "adthxd4ppz2fx89b",
  "name": "Vinetrap",
  "permission": {
    "default": 0
  },
  "type": "spell",
  "data": {
    "description": {
      "value": "<div class=\"spell-description\">\n  <p>\n    <strong>School</strong>&nbsp;conjuration;\n    <strong>Level</strong>&nbsp;cleric/oracle 8, druid 8;\n    \n    \n    \n    \n  </p>\n  <p>\n    <strong>Casting Time</strong>&nbsp;10 minutes<br>\n    <strong>Components</strong>&nbsp;V, S, DF<br>\n  </p>\n  <p>\n    <strong>Range</strong>&nbsp;long (400 ft. + 40 ft./level)<br>\n    <strong>Area</strong>&nbsp;radius spread of up to 10 ft./level, 90 ft. high<br>\n    \n    \n    <strong>Duration</strong>&nbsp;1 hour/level (D)<br>\n    <strong>Saving Throw</strong>&nbsp;Reflex negates (see text);&nbsp;<strong>Spell Resistance</strong>&nbsp;yes<br>\n  </p>\n  <h2>Description</h2>\n  <p>Vines choked with thorns, blossoms, leaflets, and other floral debris burst to life on and around the subject of this spell, winding around limbs and armor and making it progressively more difficult for the subject to maneuver. When this spell is cast, the subject may attempt a Reflex save. Success indicates that the vines fail to take root and the spell has no effect. On a failed save, the subject's base speed is immediately reduced by 5 feet. Each round thereafter, the subject must make another successful Reflex save or his speed is reduced by another 5 feet. This occurs each round until he is reduced to a speed equal to half of what it was before the spell was cast.  As a full-round action, the subject or an adjacent creature can tear the vines off the subject's body, resetting the speed penalty to just 5 feet, though the vines continue to grow each round thereafter for the spell's duration, requiring additional checks, unless it is actually dispelled. The spell's effects can also be prematurely ended by dealing at least 20 points of fire damage to the subject. When the spell's duration ends or the effect is terminated, the vines immediately wilt and the subject's speed returns to normal. Regardless of the subject's base speed, the vines cannot reduce a creature's speed below 5 feet.  This spell has additional effects depending on which version you cast, chosen when you cast the spell.  <i>Blessed Thorns</i>: The vines sprout vicious thorns made of celestial steel. Each round at the beginning of your turn, the subject takes 2d4 points of damage, plus 1 point of damage for each round since the creature last took a full-round action to tear the vines off. When you cast this version of the spell, you can also choose to make the thorns either cold iron or silver for the purposes of overcoming damage reduction.  <i>Noxious Vines</i>: The vines emit noxious fumes that act as a lung and eye irritant. The subject and any creatures adjacent to the subject must attempt a DC 15 Fortitude check each round at the beginning of their turn. On a failed save, the creatures becomes blinded for that round and can't cast spells with verbal components.  <i>Swift Vines</i>: The vines act twice as quickly as normal, and slow the creature by 10 feet per round instead of 5 feet (though they still can't decrease the creature's speed to less than half). In addition, once the creature is slowed to half-speed, it becomes staggered until the vines are torn off or the spell ends.</p>\n</div>\n",
      "chat": "",
      "unidentified": ""
    },
    "tags": [],
    "activation": {
      "cost": 10,
      "type": "minute"
    },
    "unchainedAction": {
      "activation": {
        "cost": 10,
        "type": "minute"
      }
    },
    "duration": {
      "value": null,
      "units": ""
    },
    "target": {
      "value": ""
    },
    "range": {
      "value": null,
      "units": "long",
      "maxIncrements": 1,
      "minValue": null,
      "minUnits": ""
    },
    "uses": {
      "value": 0,
      "max": 0,
      "per": "",
      "autoDeductCharges": true,
      "autoDeductChargesCost": "1"
    },
    "measureTemplate": {
      "type": "",
      "size": "0",
      "overrideColor": false,
      "customColor": "",
      "overrideTexture": false,
      "customTexture": ""
    },
    "attackName": "",
    "actionType": "spellsave",
    "attackBonus": "",
    "critConfirmBonus": "",
    "damage": {
      "parts": [],
      "critParts": [],
      "nonCritParts": []
    },
    "attackParts": [],
    "formula": "",
    "ability": {
      "attack": "",
      "damage": "",
      "damageMult": 1,
      "critRange": 20,
      "critMult": 2
    },
    "save": {
      "dc": "0",
      "type": "ref",
      "description": "Reflex negates (see text)"
    },
    "effectNotes": "",
    "attackNotes": "",
    "soundEffect": "",
    "links": {
      "children": []
    },
    "learnedAt": {
      "class": [
        [
          "cleric/oracle",
          8
        ],
        [
          "druid",
          8
        ]
      ],
      "domain": [],
      "subDomain": [],
      "elementalSchool": [],
      "bloodline": []
    },
    "level": 8,
    "clOffset": 0,
    "slOffset": 0,
    "school": "con",
    "subschool": "",
    "types": "",
    "nonlethal": false,
    "conditionals": [],
    "components": {
      "value": "",
      "verbal": true,
      "somatic": true,
      "material": false,
      "focus": false,
      "divineFocus": 1
    },
    "castTime": "",
    "materials": {
      "value": "",
      "focus": "",
      "gpValue": 0
    },
    "spellbook": "primary",
    "preparation": {
      "preparedAmount": 0,
      "maxAmount": 0,
      "autoDeductCharges": true,
      "spontaneousPrepared": true,
      "mode": "prepared"
    },
    "atWill": false,
    "sr": true,
    "shortDescription": "<p>Vines choked with thorns, blossoms, leaflets, and other floral debris burst to life on and around the subject of this spell, winding around limbs and armor and making it progressively more difficult for the subject to maneuver. When this spell is cast, the subject may attempt a Reflex save. Success indicates that the vines fail to take root and the spell has no effect. On a failed save, the subject's base speed is immediately reduced by 5 feet. Each round thereafter, the subject must make another successful Reflex save or his speed is reduced by another 5 feet. This occurs each round until he is reduced to a speed equal to half of what it was before the spell was cast.  As a full-round action, the subject or an adjacent creature can tear the vines off the subject's body, resetting the speed penalty to just 5 feet, though the vines continue to grow each round thereafter for the spell's duration, requiring additional checks, unless it is actually dispelled. The spell's effects can also be prematurely ended by dealing at least 20 points of fire damage to the subject. When the spell's duration ends or the effect is terminated, the vines immediately wilt and the subject's speed returns to normal. Regardless of the subject's base speed, the vines cannot reduce a creature's speed below 5 feet.  This spell has additional effects depending on which version you cast, chosen when you cast the spell.  <i>Blessed Thorns</i>: The vines sprout vicious thorns made of celestial steel. Each round at the beginning of your turn, the subject takes 2d4 points of damage, plus 1 point of damage for each round since the creature last took a full-round action to tear the vines off. When you cast this version of the spell, you can also choose to make the thorns either cold iron or silver for the purposes of overcoming damage reduction.  <i>Noxious Vines</i>: The vines emit noxious fumes that act as a lung and eye irritant. The subject and any creatures adjacent to the subject must attempt a DC 15 Fortitude check each round at the beginning of their turn. On a failed save, the creatures becomes blinded for that round and can't cast spells with verbal components.  <i>Swift Vines</i>: The vines act twice as quickly as normal, and slow the creature by 10 feet per round instead of 5 feet (though they still can't decrease the creature's speed to less than half). In addition, once the creature is slowed to half-speed, it becomes staggered until the vines are torn off or the spell ends.</p>",
    "spellDuration": "1 hour/level (D)",
    "spellEffect": "",
    "spellArea": "radius spread of up to 10 ft./level, 90 ft. high",
    "showInQuickbar": false,
    "spellPoints": {
      "cost": "1 + @sl"
    },
    "domain": false,
    "slotCost": 1
  },
  "flags": {},
  "img": "systems/pf1/icons/misc/magic-swirl.png",
  "effects": []
}