{
  "_id": "wsbgsmz8ebz1klbu",
  "name": "Wall of Silver",
  "permission": {
    "default": 0
  },
  "type": "spell",
  "data": {
    "description": {
      "value": "<div class=\"spell-description\">\n  <p>\n    <strong>School</strong>&nbsp;abjuration&nbsp;[good];\n    <strong>Level</strong>&nbsp;bard 5, cleric/oracle 6, inquisitor 5, sorcerer/wizard 6;\n    \n    \n    \n    \n  </p>\n  <p>\n    <strong>Casting Time</strong>&nbsp;1 standard action<br>\n    <strong>Components</strong>&nbsp;V, S<br>\n  </p>\n  <p>\n    <strong>Range</strong>&nbsp;medium (100 ft. + 10 ft./level)<br>\n    \n    \n    <strong>Effect</strong>&nbsp;transparent wall 20 ft. high by up to 20 ft. long/level<br>\n    <strong>Duration</strong>&nbsp;1 round/level<br>\n    <strong>Saving Throw</strong>&nbsp;see text;&nbsp;<strong>Spell Resistance</strong>&nbsp;yes<br>\n  </p>\n  <h2>Description</h2>\n  <p>You create a wall of translucent silver energy that hums and vibrates at the slightest touch. Objects and nonevil creatures can pass through this wall without difficulty. However, spells and effects with the evil descriptor treat this barrier as a <i>Wall of Force</i>, which blocks line of effect. Evil creatures that pass through the wall take 3d6 points of damage + 1 point of damage per caster level (maximum 3d6+20) and are blinded for 1 round. Creatures of any alignment that are particularly vulnerable to silver (such as those with damage reduction bypassed by silver, like devils or lycanthropes) instead take 1d6 points of damage per caster level (maximum 15d6), are staggered for 1 round, and are permanently blinded. A creature that succeeds at a Will save reduces the damage by half and negates the blinding and staggering effects. If you create a <i>Wall of Silver</i> so that it appears where creatures are, each creature takes damage as if passing through the wall. Each such creature can avoid the wall (ending up on the side of its choice) and thus take no damage by succeeding at a Reflex save.</p>\n</div>\n",
      "chat": "",
      "unidentified": ""
    },
    "tags": [],
    "activation": {
      "cost": 1,
      "type": "standard"
    },
    "unchainedAction": {
      "activation": {
        "cost": 2,
        "type": "action"
      }
    },
    "duration": {
      "value": null,
      "units": ""
    },
    "target": {
      "value": ""
    },
    "range": {
      "value": null,
      "units": "medium",
      "maxIncrements": 1,
      "minValue": null,
      "minUnits": ""
    },
    "uses": {
      "value": 0,
      "max": 0,
      "per": "",
      "autoDeductCharges": true,
      "autoDeductChargesCost": "1"
    },
    "measureTemplate": {
      "type": "",
      "size": "0",
      "overrideColor": false,
      "customColor": "",
      "overrideTexture": false,
      "customTexture": ""
    },
    "attackName": "",
    "actionType": "spellsave",
    "attackBonus": "",
    "critConfirmBonus": "",
    "damage": {
      "parts": [],
      "critParts": [],
      "nonCritParts": []
    },
    "attackParts": [],
    "formula": "",
    "ability": {
      "attack": "",
      "damage": "",
      "damageMult": 1,
      "critRange": 20,
      "critMult": 2
    },
    "save": {
      "dc": "0",
      "type": "",
      "description": "see text"
    },
    "effectNotes": "",
    "attackNotes": "",
    "soundEffect": "",
    "links": {
      "children": []
    },
    "learnedAt": {
      "class": [
        [
          "sorcerer/wizard",
          6
        ],
        [
          "cleric/oracle",
          6
        ],
        [
          "bard",
          5
        ],
        [
          "inquisitor",
          5
        ]
      ],
      "domain": [],
      "subDomain": [],
      "elementalSchool": [],
      "bloodline": []
    },
    "level": 6,
    "clOffset": 0,
    "slOffset": 0,
    "school": "abj",
    "subschool": "",
    "types": "good",
    "nonlethal": false,
    "conditionals": [],
    "components": {
      "value": "",
      "verbal": true,
      "somatic": true,
      "material": false,
      "focus": false,
      "divineFocus": 0
    },
    "castTime": "",
    "materials": {
      "value": "",
      "focus": "",
      "gpValue": 0
    },
    "spellbook": "primary",
    "preparation": {
      "preparedAmount": 0,
      "maxAmount": 0,
      "autoDeductCharges": true,
      "spontaneousPrepared": true,
      "mode": "prepared"
    },
    "atWill": false,
    "sr": true,
    "shortDescription": "<p>You create a wall of translucent silver energy that hums and vibrates at the slightest touch. Objects and nonevil creatures can pass through this wall without difficulty. However, spells and effects with the evil descriptor treat this barrier as a <i>Wall of Force</i>, which blocks line of effect. Evil creatures that pass through the wall take 3d6 points of damage + 1 point of damage per caster level (maximum 3d6+20) and are blinded for 1 round. Creatures of any alignment that are particularly vulnerable to silver (such as those with damage reduction bypassed by silver, like devils or lycanthropes) instead take 1d6 points of damage per caster level (maximum 15d6), are staggered for 1 round, and are permanently blinded. A creature that succeeds at a Will save reduces the damage by half and negates the blinding and staggering effects. If you create a <i>Wall of Silver</i> so that it appears where creatures are, each creature takes damage as if passing through the wall. Each such creature can avoid the wall (ending up on the side of its choice) and thus take no damage by succeeding at a Reflex save.</p>",
    "spellDuration": "1 round/level",
    "spellEffect": "transparent wall 20 ft. high by up to 20 ft. long/level",
    "spellArea": "",
    "showInQuickbar": false,
    "spellPoints": {
      "cost": "1 + @sl"
    },
    "domain": false,
    "slotCost": 1
  },
  "flags": {},
  "img": "systems/pf1/icons/misc/magic-swirl.png",
  "effects": []
}