{
  "_id": "JcaqlAawhf14q1lq",
  "name": "Alchemist",
  "permission": {
    "default": 0
  },
  "type": "class",
  "data": {
    "description": {
      "value": "<p>Whether secreted away in a smoky basement laboratory or gleefully experimenting in a well-respected school of magic, the alchemist is often regarded as being just as unstable, unpredictable, and dangerous as the concoctions he brews. While some creators of&nbsp;<a href=\"https://www.d20pfsrd.com/equipment/goods-and-services/herbs-oils-other-substances\">alchemical items</a>&nbsp;content themselves with sedentary lives as merchants, providing&nbsp;<a href=\"https://www.d20pfsrd.com/equipment/goods-and-services/herbs-oils-other-substances#TOC-Tindertwig\">tindertwigs</a>&nbsp;and&nbsp;<a href=\"https://www.d20pfsrd.com/equipment/goods-and-services/herbs-oils-other-substances#TOC-Smokestick\">smokesticks</a>, the true alchemist answers a deeper calling. Rather than cast magic like a spellcaster, the alchemist captures his own magic potential within liquids and extracts he creates, infusing his chemicals with virulent power to grant him impressive skill with poisons, explosives, and all manner of self-transformative magic.</p>\n<p><strong>Role</strong>: The alchemist’s reputation is not softened by his exuberance (some would say dangerous recklessness) in perfecting his magical extracts and potion-like creations, infusing these substances with magic siphoned from his aura and using his own body as experimental stock. Nor is it mollified by the alchemist’s almost gleeful passion for building explosive bombs and discovering strange new poisons and methods for their use. These traits, while making him a liability and risk for most civilized organizations and institutions of higher learning, seem to fit quite well with most adventuring groups.</p>\n<p><strong>Alignment</strong>: Any.</p>\n<p><strong>Hit Die</strong>: d8.</p>\n<p><strong>Starting Wealth</strong>: 3d6 × 10 gp (average 105gp.) In addition, each character begins play with an outfit worth 10 gp or less.</p>\n<h2><span id=\"Class_Skills\">Class Skills</span></h2>\n<p>The alchemist’s class skills are&nbsp;<a href=\"https://www.d20pfsrd.com/skills/appraise\">Appraise</a>&nbsp;(<a href=\"https://www.d20pfsrd.com/basics-ability-scores/ability-scores#TOC-Intelligence-Int-\">Int</a>),&nbsp;<a href=\"https://www.d20pfsrd.com/skills/craft\">Craft</a>&nbsp;(any) (<a href=\"https://www.d20pfsrd.com/basics-ability-scores/ability-scores#TOC-Intelligence-Int-\">Int</a>),&nbsp;<a href=\"https://www.d20pfsrd.com/skills/disable-device\">Disable Device</a>&nbsp;(<a href=\"https://www.d20pfsrd.com/basics-ability-scores/ability-scores#TOC-Dexterity-Dex-\">Dex</a>),&nbsp;<a href=\"https://www.d20pfsrd.com/skills/fly\">Fly</a>&nbsp;(<a href=\"https://www.d20pfsrd.com/basics-ability-scores/ability-scores#TOC-Dexterity-Dex-\">Dex</a>),&nbsp;<a href=\"https://www.d20pfsrd.com/skills/heal\">Heal</a>&nbsp;(<a href=\"https://www.d20pfsrd.com/basics-ability-scores/ability-scores#TOC-Wisdom-Wis-\">Wis</a>),&nbsp;<a href=\"https://www.d20pfsrd.com/skills/knowledge\">Knowledge</a>&nbsp;(arcana) (<a href=\"https://www.d20pfsrd.com/basics-ability-scores/ability-scores#TOC-Intelligence-Int-\">Int</a>),&nbsp;<a href=\"https://www.d20pfsrd.com/skills/knowledge\">Knowledge</a>&nbsp;(nature) (<a href=\"https://www.d20pfsrd.com/basics-ability-scores/ability-scores#TOC-Intelligence-Int-\">Int</a>),&nbsp;<a href=\"https://www.d20pfsrd.com/skills/perception\">Perception</a>&nbsp;(<a href=\"https://www.d20pfsrd.com/basics-ability-scores/ability-scores#TOC-Wisdom-Wis-\">Wis</a>),&nbsp;<a href=\"https://www.d20pfsrd.com/skills/profession\">Profession</a>&nbsp;(<a href=\"https://www.d20pfsrd.com/basics-ability-scores/ability-scores#TOC-Wisdom-Wis-\">Wis</a>),&nbsp;<a href=\"https://www.d20pfsrd.com/skills/sleight-of-hand\">Sleight of Hand</a>&nbsp;(<a href=\"https://www.d20pfsrd.com/basics-ability-scores/ability-scores#TOC-Dexterity-Dex-\">Dex</a>),&nbsp;<a href=\"https://www.d20pfsrd.com/skills/spellcraft\">Spellcraft</a>&nbsp;(<a href=\"https://www.d20pfsrd.com/basics-ability-scores/ability-scores#TOC-Intelligence-Int-\">Int</a>),&nbsp;<a href=\"https://www.d20pfsrd.com/skills/survival\">Survival</a>&nbsp;(<a href=\"https://www.d20pfsrd.com/basics-ability-scores/ability-scores#TOC-Wisdom-Wis-\">Wis</a>),&nbsp;<a href=\"https://www.d20pfsrd.com/skills/use-magic-device\">Use Magic Device</a>&nbsp;(<a href=\"https://www.d20pfsrd.com/basics-ability-scores/ability-scores#TOC-Charisma-Cha-\">Cha</a>).</p>\n<p><strong>Skill Ranks per Level</strong>: 4 +&nbsp;<a href=\"https://www.d20pfsrd.com/basics-ability-scores/ability-scores#TOC-Intelligence-Int-\">Int</a> modifier.</p>",
      "chat": "",
      "unidentified": ""
    },
    "tags": [],
    "changes": [],
    "changeFlags": {
      "loseDexToAC": false,
      "noStr": false,
      "noDex": false,
      "oneInt": false,
      "oneWis": false,
      "oneCha": false,
      "noEncumbrance": false,
      "mediumArmorFullSpeed": false,
      "heavyArmorFullSpeed": false
    },
    "links": {
      "children": [],
      "classAssociations": [
        {
          "id": "pf1.class-abilities.7GNdI4zKfTcxNCk4",
          "dataType": "compendium",
          "name": "Alchemy",
          "img": "systems/pf1/icons/items/potions/magic-yellow.jpg",
          "hiddenLinks": {},
          "level": 1,
          "_index": 0
        },
        {
          "id": "pf1.class-abilities.7gHiZBNHjwefbBLI",
          "dataType": "compendium",
          "name": "Bomb",
          "img": "systems/pf1/icons/items/inventory/bomb.jpg",
          "hiddenLinks": {},
          "level": 1,
          "_index": 1
        },
        {
          "id": "pf1.class-abilities.afQ1oDc64797Cyq8",
          "dataType": "compendium",
          "name": "Brew Potion",
          "img": "systems/pf1/icons/items/potions/minor-red.jpg",
          "hiddenLinks": {},
          "level": 1,
          "_index": 2
        },
        {
          "id": "pf1.class-abilities.zrTVb83VhkFnEv6G",
          "dataType": "compendium",
          "name": "Mutagen",
          "img": "systems/pf1/icons/items/potions/unique-7.jpg",
          "hiddenLinks": {},
          "level": 1,
          "_index": 3
        },
        {
          "id": "pf1.class-abilities.jlvZK3xsfsDC358a",
          "dataType": "compendium",
          "name": "Throw Anything",
          "img": "systems/pf1/icons/items/weapons/wrist-launcher.PNG",
          "hiddenLinks": {},
          "level": 1,
          "_index": 4
        },
        {
          "id": "pf1.class-abilities.Xcim6WFtAtxJxnmA",
          "dataType": "compendium",
          "name": "Discovery",
          "img": "systems/pf1/icons/skills/light_02.jpg",
          "hiddenLinks": {},
          "level": 2,
          "_index": 5
        },
        {
          "id": "pf1.class-abilities.2qcz39w9O2Qlms0Q",
          "dataType": "compendium",
          "name": "Poison Resistance",
          "img": "systems/pf1/icons/skills/violet_16.jpg",
          "hiddenLinks": {},
          "level": 2,
          "_index": 6
        },
        {
          "id": "pf1.class-abilities.kKaz5A6XbuxgVvhO",
          "dataType": "compendium",
          "name": "Poison Use",
          "img": "systems/pf1/icons/skills/violet_24.jpg",
          "hiddenLinks": {},
          "level": 2,
          "_index": 7
        },
        {
          "id": "pf1.class-abilities.WIoNDjnbzdHBkLJr",
          "dataType": "compendium",
          "name": "Swift Alchemy",
          "img": "systems/pf1/icons/skills/violet_25.jpg",
          "hiddenLinks": {},
          "level": 3,
          "_index": 8
        },
        {
          "id": "pf1.class-abilities.FXjdFZlT0xiDr034",
          "dataType": "compendium",
          "name": "Swift Poisoning",
          "img": "systems/pf1/icons/skills/violet_27.jpg",
          "hiddenLinks": {},
          "level": 6,
          "_index": 9
        },
        {
          "id": "pf1.class-abilities.TeQgG1uEaWsMXBXX",
          "dataType": "compendium",
          "name": "Persistent Mutagen",
          "img": "systems/pf1/icons/skills/affliction_24.jpg",
          "hiddenLinks": {},
          "level": 14,
          "_index": 10
        },
        {
          "id": "pf1.class-abilities.G7xqb0Ka8Bm9XAZz",
          "dataType": "compendium",
          "name": "Instant Alchemy",
          "img": "systems/pf1/icons/skills/violet_04.jpg",
          "hiddenLinks": {},
          "level": 18,
          "_index": 11
        },
        {
          "id": "pf1.class-abilities.1s0MIxdtmMD2403h",
          "dataType": "compendium",
          "name": "Grand Discovery",
          "img": "systems/pf1/icons/skills/violet_08.jpg",
          "hiddenLinks": {},
          "level": 20,
          "_index": 12
        }
      ]
    },
    "tag": "alchemist",
    "useCustomTag": true,
    "armorProf": {
      "value": [
        "lgt"
      ],
      "custom": ""
    },
    "weaponProf": {
      "value": [
        "sim"
      ],
      "custom": "Bombs"
    },
    "classType": "base",
    "levels": {
      "value": 0,
      "_deprecated": true
    },
    "level": 1,
    "hd": 8,
    "hp": 8,
    "bab": "med",
    "skillsPerLevel": 4,
    "savingThrows": {
      "fort": {
        "value": "high"
      },
      "ref": {
        "value": "high"
      },
      "will": {
        "value": "low"
      }
    },
    "fc": {
      "hp": {
        "value": 0
      },
      "skill": {
        "value": 0
      },
      "alt": {
        "value": 0
      }
    },
    "classSkills": {
      "apr": true,
      "acr": false,
      "art": false,
      "blf": false,
      "clm": false,
      "crf": true,
      "dip": false,
      "dev": true,
      "dis": false,
      "esc": false,
      "fly": true,
      "han": false,
      "hea": true,
      "int": false,
      "kar": true,
      "kdu": false,
      "ken": false,
      "kge": false,
      "khi": false,
      "klo": false,
      "kna": true,
      "kno": false,
      "kpl": false,
      "kre": false,
      "lin": false,
      "lor": false,
      "per": true,
      "prf": false,
      "pro": true,
      "rid": false,
      "sen": false,
      "slt": true,
      "spl": true,
      "ste": false,
      "sur": true,
      "swm": false,
      "umd": true
    },
    "extraDescription": {
      "value": "<h2>Weapon and Armor Proficiency</h2>\n<p>Alchemists are proficient with all simple weapons and bombs. They are also proficient with light&nbsp;<a href=\"https://www.d20pfsrd.com/basics-ability-scores/glossary#TOC-Armor-Bonus\">armor</a>, but not with shields.</p>\n<h2>Alchemy (Su)</h2>\n<p>Alchemists are not only masters of creating mundane alchemical substances such as&nbsp;<a href=\"https://www.d20pfsrd.com/equipment/goods-and-services/herbs-oils-other-substances#TOC-Alchemist-s-Fire\">alchemist’s fire</a>&nbsp;and&nbsp;<a href=\"https://www.d20pfsrd.com/equipment/goods-and-services/herbs-oils-other-substances#TOC-Smokestick\">smokesticks</a>, but also of fashioning magical potion-like extracts in which they can store spell effects. In effect, an alchemist prepares his spells by mixing ingredients into a number of extracts, and then “casts” his spells by drinking the extract. When an alchemist creates an extract or bomb, he infuses the concoction with a tiny fraction of his own magical power—this enables the creation of powerful effects, but also binds the effects to the creator. When using&nbsp;<a href=\"https://www.d20pfsrd.com/skills/craft\">Craft</a>&nbsp;(alchemy) to create an&nbsp;<a href=\"https://www.d20pfsrd.com/equipment/goods-and-services/herbs-oils-other-substances\">alchemical item</a>, an alchemist gains a&nbsp;<a href=\"https://www.d20pfsrd.com/basics-ability-scores/glossary#TOC-Competence-Bonus\">competence bonus</a>&nbsp;equal to his class level on the&nbsp;<a href=\"https://www.d20pfsrd.com/skills/craft\">Craft</a>&nbsp;(alchemy) check. In addition, an alchemist can use&nbsp;<a href=\"https://www.d20pfsrd.com/skills/craft\">Craft</a>&nbsp;(alchemy) to identify potions as if using&nbsp;<a href=\"https://www.d20pfsrd.com/magic/all-spells/d/detect-magic\">detect magic</a>. He must hold the&nbsp;<a href=\"https://www.d20pfsrd.com/magic-items/potions\">potion</a>&nbsp;for 1 round to make such a check.</p>\n<p>An alchemist can create three special types of magical items—extracts, bombs, and mutagens. Bombs are explosive splash weapons, and mutagens are transformative elixirs that the alchemist drinks to enhance his physical abilities—both of these are detailed in their own sections below.</p>\n<p>Extracts are the most varied of the three. In many ways, they behave like spells in&nbsp;<a href=\"https://www.d20pfsrd.com/magic-items/potions\">potion</a>&nbsp;form, and as such their effects can be dispelled by effects like&nbsp;<a href=\"https://www.d20pfsrd.com/magic/all-spells/d/dispel-magic\">dispel magic</a>&nbsp;using the alchemist’s level as the&nbsp;<a href=\"https://www.d20pfsrd.com/magic#TOC-Caster-Level\">caster level</a>. Unlike potions, though, extracts can have powerful effects and duplicate spells that a&nbsp;<a href=\"https://www.d20pfsrd.com/magic-items/potions\">potion</a>&nbsp;normally could not.</p>\n<p>An alchemist can create only a certain number of extracts of each level per day. His base daily allotment of extracts is given on&nbsp;Table: Alchemist. In addition, he receives bonus extracts per day if he has a high&nbsp;<a href=\"https://www.d20pfsrd.com/basics-ability-scores/ability-scores#TOC-Intelligence-Int-\">Intelligence</a>&nbsp;score, in the same way a&nbsp;<a href=\"https://www.d20pfsrd.com/classes/core-classes/wizard\">wizard</a>&nbsp;receives&nbsp;<a href=\"https://www.d20pfsrd.com/basics-ability-scores/ability-scores#TOC-Abilities-and-Spellcasters\">bonus spells per day</a>. When an alchemist mixes an extract, he infuses the chemicals and reagents in the extract with magic siphoned from his own magical aura. An extract immediately becomes inert if it leaves the alchemist’s possession, reactivating as soon as it returns to his keeping—an alchemist cannot normally pass out his extracts for allies to use (but see the “infusion”&nbsp;<a href=\"https://www.d20pfsrd.com/classes/base-classes/Alchemist/#TOC-Discovery-Su-\">discovery</a>&nbsp;below). An extract, once created, remains potent for 1 day before becoming inert, so an alchemist must re-prepare his extracts every day. Mixing an extract takes 1 minute of work—most alchemists prepare many extracts at the start of the day or just before going on an adventure, but it’s not uncommon for an alchemist to keep some (or even all) of his daily extract slots open so that he can prepare extracts in the field as needed.</p>\n<p>Although the alchemist doesn’t actually cast spells, he does have a&nbsp;<a href=\"https://www.d20pfsrd.com/magic/spell-lists-and-domains/formulae-lists-alchemist\">formulae list</a>&nbsp;that determines what extracts he can create. An alchemist can utilize spell-trigger items if the spell appears on his formulae list, but not spell-completion items (unless he uses&nbsp;<a href=\"https://www.d20pfsrd.com/skills/use-magic-device\">Use Magic Device</a>&nbsp;to do so). An extract is “cast” by drinking it, as if imbibing a&nbsp;<a href=\"https://www.d20pfsrd.com/magic-items/potions\">potion</a>—the effects of an extract exactly duplicate the spell upon which its formula is based, save that the spell always affects only the drinking alchemist. The alchemist uses his level as the&nbsp;<a href=\"https://www.d20pfsrd.com/magic#TOC-Caster-Level\">caster level</a>&nbsp;to determine any effect based on&nbsp;<a href=\"https://www.d20pfsrd.com/magic#TOC-Caster-Level\">caster level</a>. Creating extracts consumes raw materials, but the cost of these materials is insignificant—comparable to the valueless material&nbsp;<a href=\"https://www.d20pfsrd.com/magic#TOC-Components\">components</a>&nbsp;of most spells. If a spell normally has a costly material component, that component is expended during the consumption of that particular extract. Extracts cannot be made from spells that have focus requirements (alchemist extracts that duplicate divine spells never have a divine focus requirement). An alchemist can prepare an extract of any formula he knows. To learn or use an extract, an alchemist must have an&nbsp;<a href=\"https://www.d20pfsrd.com/basics-ability-scores/ability-scores#TOC-Intelligence-Int-\">Intelligence</a>&nbsp;score equal to at least 10 + the extract’s level. The Difficulty Class for a&nbsp;<a href=\"https://www.d20pfsrd.com/gamemastering/combat#TOC-Saving-Throws\">saving throw</a>&nbsp;against an alchemist’s extract is 10 + the extract level + the alchemist’s&nbsp;<a href=\"https://www.d20pfsrd.com/basics-ability-scores/ability-scores#TOC-Intelligence-Int-\">Intelligence</a>&nbsp;modifier. An alchemist may know any number of formulae. He stores his formulae in a special tome called a formula book. He must refer to this book whenever he prepares an extract but not when he consumes it. An alchemist begins play with two 1st level formulae of his choice, plus a number of additional forumlae equal to his&nbsp;<a href=\"https://www.d20pfsrd.com/basics-ability-scores/ability-scores#TOC-Intelligence-Int-\">Intelligence</a>&nbsp;modifier. At each new alchemist level, he gains one new formula of any level that he can create. An alchemist can also add formulae to his book just like a&nbsp;<a href=\"https://www.d20pfsrd.com/classes/core-classes/wizard\">wizard</a>&nbsp;adds spells to his spellbook, using the same costs and time requirements. An alchemist can study a&nbsp;<a href=\"https://www.d20pfsrd.com/classes/core-classes/wizard\">wizard’s</a>&nbsp;spellbook to learn any formula that is equivalent to a spell the spellbook contains. A&nbsp;<a href=\"https://www.d20pfsrd.com/classes/core-classes/wizard\">wizard</a>, however, cannot learn spells from a formula book. An alchemist does not need to decipher arcane writings before copying them.</p>\n<h2>Bomb (Su)</h2>\n<p>In addition to magical extracts, alchemists are adept at swiftly mixing various volatile chemicals and infusing them with their magical reserves to create powerful bombs that they can hurl at their enemies. An alchemist can use a number of bombs each day equal to his class level + his&nbsp;<a href=\"https://www.d20pfsrd.com/basics-ability-scores/ability-scores#TOC-Intelligence-Int-\">Intelligence</a>&nbsp;modifier. Bombs are unstable, and if not used in the round they are created, they degrade and become inert—their method of creation prevents large volumes of explosive material from being created and stored. In order to create a bomb, the alchemist must use a small vial containing an ounce of liquid catalyst—the alchemist can create this liquid catalyst from small amounts of chemicals from an alchemy lab, and these supplies can be readily refilled in the same manner as a spellcaster’s component pouch. Most alchemists create a number of catalyst vials at the start of the day equal to the total number of bombs they can create in that day—once created, a catalyst vial remains usable by the alchemist for years.</p>\n<p>Drawing the components of, creating, and throwing a bomb requires a&nbsp;<a href=\"https://www.d20pfsrd.com/gamemastering/combat#TOC-Standard-Actions\">standard action</a>&nbsp;that provokes an attack of opportunity. Thrown bombs have a range of 20 feet and use the&nbsp;<a href=\"https://www.d20pfsrd.com/gamemastering/combat#TOC-Throw-Splash-Weapon\" rel=\"nofollow\">Throw Splash Weapon</a>&nbsp;special attack. Bombs are considered weapons and can be selected using feats such as&nbsp;<a href=\"https://www.d20pfsrd.com/feats/combat-feats/point-blank-shot-combat\">Point-Blank Shot</a>&nbsp;and&nbsp;<a href=\"https://www.d20pfsrd.com/feats/combat-feats/weapon-focus-combat\">Weapon Focus</a>. On a direct hit, an alchemist’s bomb inflicts 1d6 points of fire damage + additional damage equal to the alchemist’s&nbsp;<a href=\"https://www.d20pfsrd.com/basics-ability-scores/ability-scores#TOC-Intelligence-Int-\">Intelligence</a>&nbsp;modifier. The damage of an alchemist’s bomb increases by 1d6 points at every odd-numbered alchemist level (this bonus damage is not multiplied on a critical hit or by using feats such as&nbsp;<a href=\"https://www.d20pfsrd.com/feats/combat-feats/vital-strike-combat\">Vital Strike</a>). Splash damage from an alchemist bomb is always equal to the bomb’s minimum damage (so if the bomb would deal 2d6+4 points of fire damage on a direct hit, its splash damage would be 6 points of fire damage). Those caught in the splash damage can attempt a&nbsp;<a href=\"https://www.d20pfsrd.com/gamemastering/combat#TOC-Reflex\">Reflex</a>&nbsp;save for half damage. The DC of this save is equal to 10 + 1/2 the alchemist’s level + the alchemist’s&nbsp;<a href=\"https://www.d20pfsrd.com/basics-ability-scores/ability-scores#TOC-Intelligence-Int-\">Intelligence</a>&nbsp;modifier.</p>\n<p>Alchemists can learn new types of bombs as discoveries (see the&nbsp;<a href=\"https://www.d20pfsrd.com/classes/base-classes/Alchemist/#TOC-Discovery-Su-\">Discovery</a>&nbsp;ability) as they level up. An alchemist’s bomb, like an extract, becomes inert if used or carried by anyone else.</p>\n<h2>Brew Potion (Ex)</h2>\n<p>At 1st level, alchemists receive&nbsp;<a href=\"https://www.d20pfsrd.com/feats/item-creation-feats/brew-potion-item-creation\">Brew Potion</a>&nbsp;as a bonus feat. An alchemist can brew potions of any formulae he knows (up to 3rd level), using his alchemist level as his&nbsp;<a href=\"https://www.d20pfsrd.com/magic#TOC-Caster-Level\">caster level</a>. The spell must be one that can be made into a&nbsp;<a href=\"https://www.d20pfsrd.com/magic-items/potions\">potion</a>. The alchemist does not need to meet the prerequisites for this feat.</p>\n<h2>Mutagen (Su)</h2>\n<p>At 1st level, an alchemist discovers how to create a mutagen that he can imbibe in order to heighten his physical prowess at the cost of his personality. It takes 1 hour to brew a dose of mutagen, and once brewed, it remains potent until used. An alchemist can only maintain one dose of mutagen at a time—if he brews a second dose, any existing mutagen becomes inert. As with an extract or bomb, a mutagen that is not in an alchemist’s possession becomes inert until an alchemist picks it up again.</p>\n<p>When an alchemist brews a mutagen, he selects one physical ability score—either&nbsp;<a href=\"https://www.d20pfsrd.com/basics-ability-scores/ability-scores#TOC-Strength-Str-\">Strength</a>,&nbsp;<a href=\"https://www.d20pfsrd.com/basics-ability-scores/ability-scores#TOC-Dexterity-Dex-\">Dexterity</a>, or&nbsp;<a href=\"https://www.d20pfsrd.com/basics-ability-scores/ability-scores#TOC-Constitution-Con-\">Constitution</a>. It’s a&nbsp;<a href=\"https://www.d20pfsrd.com/gamemastering/combat#TOC-Standard-Actions\">standard action</a>&nbsp;to drink a mutagen. Upon being imbibed, the mutagen causes the alchemist to grow bulkier and more bestial, granting him a +2&nbsp;<a href=\"https://www.d20pfsrd.com/basics-ability-scores/glossary#TOC-Natural-Armor-Bonus\">natural armor bonus</a>&nbsp;and a +4&nbsp;<a href=\"https://www.d20pfsrd.com/basics-ability-scores/glossary#TOC-Alchemical-Bonus\">alchemical bonus</a>&nbsp;to the selected ability score for 10 minutes per alchemist level. In addition, while the mutagen is in effect, the alchemist takes a –2 penalty to one of his mental ability scores. If the mutagen enhances his&nbsp;<a href=\"https://www.d20pfsrd.com/basics-ability-scores/ability-scores#TOC-Strength-Str-\">Strength</a>, it applies a penalty to his&nbsp;<a href=\"https://www.d20pfsrd.com/basics-ability-scores/ability-scores#TOC-Intelligence-Int-\">Intelligence</a>. If it enhances his&nbsp;<a href=\"https://www.d20pfsrd.com/basics-ability-scores/ability-scores#TOC-Dexterity-Dex-\">Dexterity</a>, it applies a penalty to his&nbsp;<a href=\"https://www.d20pfsrd.com/basics-ability-scores/ability-scores#TOC-Wisdom-Wis-\">Wisdom</a>. If it enhances his&nbsp;<a href=\"https://www.d20pfsrd.com/basics-ability-scores/ability-scores#TOC-Constitution-Con-\">Constitution</a>, it applies a penalty to his&nbsp;<a href=\"https://www.d20pfsrd.com/basics-ability-scores/ability-scores#TOC-Charisma-Cha-\">Charisma</a>.</p>\n<p>A non-alchemist who drinks a mutagen must make a&nbsp;<a href=\"https://www.d20pfsrd.com/gamemastering/combat#TOC-Fortitude\">Fortitude</a>&nbsp;save (DC 10 + 1/2 the alchemist’s level + the alchemist’s&nbsp;<a href=\"https://www.d20pfsrd.com/basics-ability-scores/ability-scores#TOC-Intelligence-Int-\">Intelligence</a>&nbsp;modifier) or become&nbsp;<a href=\"https://www.d20pfsrd.com/gamemastering/conditions#TOC-Nauseated\">nauseated</a>&nbsp;for 1 hour—a non-alchemist can never gain the benefit of a mutagen, but an alchemist can gain the effects of another alchemist’s mutagen if he drinks it. (Although if the other alchemist creates a different mutagen, the effects of the “stolen” mutagen immediately cease.) The effects of a mutagen do not stack. Whenever an alchemist drinks a mutagen, the effects of any previous mutagen immediately end.</p>\n<h2>Throw Anything (Ex)</h2>\n<p>All alchemists gain the&nbsp;<a href=\"https://www.d20pfsrd.com/feats/combat-feats/throw-anything-combat\">Throw Anything</a>&nbsp;feat as a bonus feat at 1st level. An alchemist adds his&nbsp;<a href=\"https://www.d20pfsrd.com/basics-ability-scores/ability-scores/#Intelligence_Int\">Intelligence</a>&nbsp;modifier to damage done with splash weapons, including the splash damage if any. This bonus damage is already included in the bomb class feature.</p>\n<h2>Discovery (Su)</h2>\n<p>At 2nd level, and then again every 2 levels thereafter (up to 18th level), an alchemist makes an incredible alchemical discovery. Unless otherwise noted, an alchemist cannot select an individual discovery more than once. Some discoveries can only be made if the alchemist has met certain prerequisites first, such as uncovering other discoveries. Discoveries that modify bombs that are marked with an asterisk (*) do not stack. Only one such discovery can be applied to an individual bomb. The DC of any&nbsp;<a href=\"https://www.d20pfsrd.com/gamemastering/combat#TOC-Saving-Throws\">saving throw</a>&nbsp;called for by a discovery is equal to 10 + 1/2 the alchemist’s level + the alchemist’s&nbsp;<a href=\"https://www.d20pfsrd.com/basics-ability-scores/ability-scores#TOC-Intelligence-Int-\">Intelligence</a>&nbsp;modifier.</p>\n<ul>\n<li>A complete list of discoveries can be found here:&nbsp;<a href=\"https://www.d20pfsrd.com/classes/base-classes/alchemist/discoveries\">Discoveries</a></li>\n</ul>\n<h2>Poison Resistance (Ex)</h2>\n<p>At 2nd level, an alchemist gains a +2 bonus on all&nbsp;<a href=\"https://www.d20pfsrd.com/gamemastering/combat#TOC-Saving-Throws\">saving throws</a>&nbsp;against&nbsp;<a href=\"https://www.d20pfsrd.com/gamemastering/afflictions#TOC-Poison\">poison</a>. This bonus increases to +4 at 5th level, and then again to +6 at 8th level. At 10th level, an alchemist becomes completely immune to&nbsp;<a href=\"https://www.d20pfsrd.com/gamemastering/afflictions#TOC-Poison\">poison</a>.</p>\n<h2>Poison Use (Ex)</h2>\n<p>Alchemists are trained in the use of&nbsp;<a href=\"https://www.d20pfsrd.com/gamemastering/afflictions#TOC-Poison\">poison</a>&nbsp;and starting at 2nd level, cannot accidentally&nbsp;<a href=\"https://www.d20pfsrd.com/gamemastering/afflictions#TOC-Poison\">poison</a>&nbsp;themselves when applying&nbsp;<a href=\"https://www.d20pfsrd.com/gamemastering/afflictions#TOC-Poison\">poison</a>&nbsp;to a weapon.</p>\n<h2>Swift Alchemy (Ex)</h2>\n<p>At 3rd level, an alchemist can create&nbsp;<a href=\"https://www.d20pfsrd.com/equipment/goods-and-services/herbs-oils-other-substances\">alchemical items</a>&nbsp;with astounding speed. It takes an alchemist half the normal amount of time to create&nbsp;<a href=\"https://www.d20pfsrd.com/equipment/goods-and-services/herbs-oils-other-substances\">alchemical items</a>, and he can apply&nbsp;<a href=\"https://www.d20pfsrd.com/gamemastering/afflictions#TOC-Poison\">poison</a>&nbsp;to a weapon as a&nbsp;<a href=\"https://www.d20pfsrd.com/gamemastering/combat#TOC-Move-Actions\">move action</a>.</p>\n<h2>Swift Poisoning (Ex)</h2>\n<p>At 6th level, an alchemist can apply a dose of&nbsp;<a href=\"https://www.d20pfsrd.com/gamemastering/afflictions#TOC-Poison\">poison</a>&nbsp;to a weapon as a&nbsp;<a href=\"https://www.d20pfsrd.com/gamemastering/combat#TOC-Swift-Actions\">swift action</a>.</p>\n<h2>Persistent Mutagen (Su)</h2>\n<p>At 14th level, the effects of a mutagen last for 1 hour per level.</p>\n<h2>Instant Alchemy (Ex)</h2>\n<p>At 18th level, an alchemist can create&nbsp;<a href=\"https://www.d20pfsrd.com/equipment/goods-and-services/herbs-oils-other-substances\">alchemical items</a>&nbsp;with almost supernatural speed. He can create any alchemical item as a&nbsp;<a href=\"https://www.d20pfsrd.com/gamemastering/combat#TOC-Full-Round-Actions\">full-round action</a>&nbsp;if he succeeds at the&nbsp;<a href=\"https://www.d20pfsrd.com/skills/craft\">Craft</a>&nbsp;(alchemy) check and has the appropriate resources at hand to fund the creation. He can apply&nbsp;<a href=\"https://www.d20pfsrd.com/gamemastering/afflictions#TOC-Poison\">poison</a>&nbsp;to a weapon as an immediate action.</p>\n<h2>Grand Discovery (Su)</h2>\n<p>At 20th level, the alchemist makes a grand discovery. He immediately learns two normal discoveries, but also learns a third&nbsp;<a href=\"https://www.d20pfsrd.com/classes/base-classes/Alchemist/#TOC-Discovery-Su-\">discovery</a>&nbsp;chosen from the linked list below, representing a truly astounding alchemical breakthrough of significant import. For many alchemists, the promise of one of these grand discoveries is the primary goal of their experiments and hard work.</p>\n<ul>\n<li>A complete list of grand discoveries can be found here:&nbsp;<a href=\"https://www.d20pfsrd.com/classes/base-classes/alchemist/discoveries#TOC-Grand-Discoveries\">Grand Discoveries</a></li>\n</ul>",
      "chat": "",
      "unidentified": ""
    },
    "damage": {
      "parts": [],
      "critParts": [],
      "nonCritParts": []
    },
    "preparation": {
      "maxAmount": 0
    },
    "weaponData": {
      "critRange": 20,
      "critMult": 2
    },
    "uses": {
      "value": 0,
      "max": 0
    }
  },
  "flags": {},
  "img": "systems/pf1/icons/items/potions/grand-yellow.jpg",
  "effects": []
}