{
  "_id": "6GjOjO6r3R06fLwE",
  "name": "Bard",
  "permission": {
    "default": 0
  },
  "type": "class",
  "data": {
    "description": {
      "value": "<p>Untold wonders and secrets exist for those skillful enough to discover them. Through cleverness, talent, and magic, these cunning few unravel the wiles of the world, becoming adept in the arts of persuasion, manipulation, and inspiration. Typically masters of one or many forms of artistry, bards possess an uncanny ability to know more than they should and use what they learn to keep themselves and their allies ever one step ahead of danger. Bards are quick-witted and captivating, and their skills might lead them down many paths, be they gamblers or jacks-of-all-trades, scholars or performers, leaders or scoundrels, or even all of the above. For bards, every day brings its own opportunities, adventures, and challenges, and only by bucking the odds, knowing the most, and being the best might they claim the treasures of each.</p>\n<p><strong>Role</strong>: Bards capably confuse and confound their foes while inspiring their allies to ever-greater daring. While accomplished with both weapons and magic, the true strength of bards lies outside melee, where they can support their companions and undermine their foes without fear of interruptions to their performances.</p>\n<p><strong>Alignment</strong>: Any</p>\n<p><strong>Hit Die</strong>: d8</p>\n<p><strong>Starting Wealth</strong>: 3d6 × 10 gp (average 105 gp.) In addition, each character begins play with an outfit worth 10 gp or less.</p>\n<h2><span id=\"Class_Skills\">Class Skills</span></h2>\n<p>The bard’s class skills are&nbsp;<a href=\"https://www.d20pfsrd.com/skills/acrobatics\">Acrobatics</a>&nbsp;(<a href=\"https://www.d20pfsrd.com/basics-ability-scores/ability-scores#TOC-Dexterity-Dex-\">Dex</a>), <a href=\"https://www.d20pfsrd.com/skills/appraise\">Appraise</a>&nbsp;(<a href=\"https://www.d20pfsrd.com/basics-ability-scores/ability-scores#TOC-Intelligence-Int-\">Int</a>), <a href=\"https://www.d20pfsrd.com/skills/bluff\">Bluff</a>&nbsp;(<a href=\"https://www.d20pfsrd.com/basics-ability-scores/ability-scores#TOC-Charisma-Cha-\">Cha</a>), <a href=\"https://www.d20pfsrd.com/skills/climb\">Climb</a>&nbsp;(<a href=\"https://www.d20pfsrd.com/basics-ability-scores/ability-scores#TOC-Strength-Str-\">Str</a>), <a href=\"https://www.d20pfsrd.com/skills/craft\">Craft</a>&nbsp;(<a href=\"https://www.d20pfsrd.com/basics-ability-scores/ability-scores#TOC-Intelligence-Int-\">Int</a>), <a href=\"https://www.d20pfsrd.com/skills/diplomacy\">Diplomacy</a>&nbsp;(<a href=\"https://www.d20pfsrd.com/basics-ability-scores/ability-scores#TOC-Charisma-Cha-\">Cha</a>), <a href=\"https://www.d20pfsrd.com/skills/disguise\">Disguise</a>&nbsp;(<a href=\"https://www.d20pfsrd.com/basics-ability-scores/ability-scores#TOC-Charisma-Cha-\">Cha</a>), <a href=\"https://www.d20pfsrd.com/skills/escape-artist\">Escape Artist</a>&nbsp;(<a href=\"https://www.d20pfsrd.com/basics-ability-scores/ability-scores#TOC-Dexterity-Dex-\">Dex</a>), <a href=\"https://www.d20pfsrd.com/skills/intimidate\">Intimidate</a>&nbsp;(<a href=\"https://www.d20pfsrd.com/basics-ability-scores/ability-scores#TOC-Charisma-Cha-\">Cha</a>), <a href=\"https://www.d20pfsrd.com/skills/knowledge\">Knowledge</a>&nbsp;(all) (<a href=\"https://www.d20pfsrd.com/basics-ability-scores/ability-scores#TOC-Intelligence-Int-\">Int</a>), <a href=\"https://www.d20pfsrd.com/skills/linguistics\">Linguistics</a>&nbsp;(<a href=\"https://www.d20pfsrd.com/basics-ability-scores/ability-scores#TOC-Intelligence-Int-\">Int</a>), <a href=\"https://www.d20pfsrd.com/skills/perception\">Perception</a>&nbsp;(<a href=\"https://www.d20pfsrd.com/basics-ability-scores/ability-scores#TOC-Wisdom-Wis-\">Wis</a>), <a href=\"https://www.d20pfsrd.com/skills/perform\">Perform</a>&nbsp;(<a href=\"https://www.d20pfsrd.com/basics-ability-scores/ability-scores#TOC-Charisma-Cha-\">Cha</a>), <a href=\"https://www.d20pfsrd.com/skills/profession\">Profession</a>&nbsp;(<a href=\"https://www.d20pfsrd.com/basics-ability-scores/ability-scores#TOC-Wisdom-Wis-\">Wis</a>), <a href=\"https://www.d20pfsrd.com/skills/sense-motive\">Sense Motive</a>&nbsp;(<a href=\"https://www.d20pfsrd.com/basics-ability-scores/ability-scores#TOC-Wisdom-Wis-\">Wis</a>), <a href=\"https://www.d20pfsrd.com/skills/sleight-of-hand\">Sleight of Hand</a>&nbsp;(<a href=\"https://www.d20pfsrd.com/basics-ability-scores/ability-scores#TOC-Dexterity-Dex-\">Dex</a>), <a href=\"https://www.d20pfsrd.com/skills/spellcraft\">Spellcraft</a>&nbsp;(<a href=\"https://www.d20pfsrd.com/basics-ability-scores/ability-scores#TOC-Intelligence-Int-\">Int</a>), <a href=\"https://www.d20pfsrd.com/skills/stealth\">Stealth</a>&nbsp;(<a href=\"https://www.d20pfsrd.com/basics-ability-scores/ability-scores#TOC-Dexterity-Dex-\">Dex</a>), and <a href=\"https://www.d20pfsrd.com/skills/use-magic-device\">Use Magic Device</a>&nbsp;(<a href=\"https://www.d20pfsrd.com/basics-ability-scores/ability-scores#TOC-Charisma-Cha-\">Cha</a>).</p>\n<p><strong>Skill Ranks Per Level</strong>: 6 +&nbsp;<a href=\"https://www.d20pfsrd.com/basics-ability-scores/ability-scores#TOC-Intelligence-Int-\">Int</a>&nbsp;<a href=\"https://www.d20pfsrd.com/basics-ability-scores/ability-scores#TOC-Determine-Bonuses\">modifier</a></p>",
      "chat": "",
      "unidentified": ""
    },
    "tags": [],
    "changes": [],
    "changeFlags": {
      "loseDexToAC": false,
      "noStr": false,
      "noDex": false,
      "oneInt": false,
      "oneWis": false,
      "oneCha": false,
      "noEncumbrance": false,
      "mediumArmorFullSpeed": false,
      "heavyArmorFullSpeed": false
    },
    "links": {
      "children": [],
      "classAssociations": [
        {
          "id": "pf1.class-abilities.Pb9pxYrx6tS87euP",
          "dataType": "compendium",
          "name": "Bardic Knowledge",
          "img": "systems/pf1/icons/items/inventory/book-blue.jpg",
          "hiddenLinks": {},
          "level": 1,
          "_index": 0
        },
        {
          "id": "pf1.class-abilities.RSoy0ll1sNno6mJD",
          "dataType": "compendium",
          "name": "Deadly Performance",
          "img": "systems/pf1/icons/feats/improved-initiative.jpg",
          "hiddenLinks": {},
          "level": 20,
          "_index": 1
        },
        {
          "id": "pf1.class-abilities.FnfX1SMG9uzBghnB",
          "dataType": "compendium",
          "name": "Mass Suggestion",
          "img": "systems/pf1/icons/feats/deceitful.jpg",
          "hiddenLinks": {},
          "level": 18,
          "_index": 2
        },
        {
          "id": "pf1.class-abilities.vtrruBLKeimBrupy",
          "dataType": "compendium",
          "name": "Suggestion",
          "img": "systems/pf1/icons/feats/blinding-critical.jpg",
          "hiddenLinks": {},
          "level": 6,
          "_index": 3
        },
        {
          "id": "pf1.class-abilities.qfjvZrIgJUjRXUUL",
          "dataType": "compendium",
          "name": "Frightening Tune",
          "img": "systems/pf1/icons/feats/greater-sunder.jpg",
          "hiddenLinks": {},
          "level": 14,
          "_index": 4
        },
        {
          "id": "pf1.class-abilities.iGrgU1XzlweVO2tb",
          "dataType": "compendium",
          "name": "Soothing Performance",
          "img": "systems/pf1/icons/feats/blind-fight.jpg",
          "hiddenLinks": {},
          "level": 12,
          "_index": 5
        },
        {
          "id": "pf1.class-abilities.qamuc5DZdOJMlRrD",
          "dataType": "compendium",
          "name": "Jack of All Trades",
          "img": "systems/pf1/icons/items/inventory/herb-bag.jpg",
          "hiddenLinks": {},
          "level": 10,
          "_index": 6
        },
        {
          "id": "pf1.class-abilities.X7gqbGkXTox6Ojhy",
          "dataType": "compendium",
          "name": "Inspire Greatness",
          "img": "systems/pf1/icons/feats/widen-spell.jpg",
          "hiddenLinks": {},
          "level": 9,
          "_index": 7
        },
        {
          "id": "pf1.class-abilities.pmWnRksUzrKvNOvy",
          "dataType": "compendium",
          "name": "Dirge of Doom",
          "img": "systems/pf1/icons/feats/medusas-wrath.jpg",
          "hiddenLinks": {},
          "level": 8,
          "_index": 8
        },
        {
          "id": "pf1.class-abilities.msQWK7TW7mufzf8l",
          "dataType": "compendium",
          "name": "Lore Master",
          "img": "systems/pf1/icons/items/inventory/book-tan.jpg",
          "hiddenLinks": {},
          "level": 5,
          "_index": 9
        },
        {
          "id": "pf1.class-abilities.HAqAsb5H56C6cZm3",
          "dataType": "compendium",
          "name": "Versatile Performance",
          "img": "systems/pf1/icons/feats/persuasive.jpg",
          "hiddenLinks": {},
          "level": 2,
          "_index": 10
        },
        {
          "id": "pf1.class-abilities.wew6ophJrcab24m6",
          "dataType": "compendium",
          "name": "Well-Versed",
          "img": "systems/pf1/icons/feats/extra-performance.png",
          "hiddenLinks": {},
          "level": 2,
          "_index": 11
        },
        {
          "id": "pf1.class-abilities.2M56kfIOws5yYtxq",
          "dataType": "compendium",
          "name": "Inspire Competence",
          "img": "systems/pf1/icons/feats/tiring-critical.jpg",
          "hiddenLinks": {},
          "level": 3,
          "_index": 12
        },
        {
          "id": "pf1.class-abilities.h56K6HEBOItImPPL",
          "dataType": "compendium",
          "name": "Inspire Courage",
          "img": "systems/pf1/icons/feats/stunning-fist.jpg",
          "hiddenLinks": {},
          "level": 1,
          "_index": 13
        },
        {
          "id": "pf1.class-abilities.tWE66WvFjS1o0S4y",
          "dataType": "compendium",
          "name": "Fascinate",
          "img": "systems/pf1/icons/feats/persuasive.jpg",
          "hiddenLinks": {},
          "level": 1,
          "_index": 14
        },
        {
          "id": "pf1.class-abilities.ZfCUTi1MiLgR4T7I",
          "dataType": "compendium",
          "name": "Bardic Performance",
          "img": "systems/pf1/icons/items/inventory/flute.jpg",
          "hiddenLinks": {},
          "level": 1,
          "_index": 15
        },
        {
          "id": "pf1.class-abilities.RF8ioMkLc7LNnNT1",
          "dataType": "compendium",
          "name": "Countersong",
          "img": "systems/pf1/icons/feats/deafening-critical.jpg",
          "hiddenLinks": {},
          "level": 1,
          "_index": 16
        },
        {
          "id": "pf1.class-abilities.Kq3GVZ1yMv3ERQCJ",
          "dataType": "compendium",
          "name": "Distraction",
          "img": "systems/pf1/icons/feats/improved-feint.jpg",
          "hiddenLinks": {},
          "level": 1,
          "_index": 17
        },
        {
          "id": "pf1.class-abilities.LIFTbzT5WDcsDn0O",
          "dataType": "compendium",
          "name": "Inspire Heroics",
          "img": "systems/pf1/icons/feats/athletic.jpg",
          "hiddenLinks": {},
          "level": 15,
          "_index": 18
        }
      ]
    },
    "tag": "bard",
    "useCustomTag": true,
    "armorProf": {
      "value": [
        "lgt",
        "shl"
      ],
      "custom": ""
    },
    "weaponProf": {
      "value": [
        "sim"
      ],
      "custom": "Longsword;Rapier;Sap;Shortsword;Shortbow;Whip"
    },
    "classType": "base",
    "levels": {
      "value": 0,
      "_deprecated": true
    },
    "level": 1,
    "hd": 8,
    "hp": 8,
    "bab": "med",
    "skillsPerLevel": 6,
    "savingThrows": {
      "fort": {
        "value": "low"
      },
      "ref": {
        "value": "high"
      },
      "will": {
        "value": "high"
      }
    },
    "fc": {
      "hp": {
        "value": 0
      },
      "skill": {
        "value": 0
      },
      "alt": {
        "value": 0
      }
    },
    "classSkills": {
      "acr": true,
      "apr": true,
      "art": false,
      "blf": true,
      "clm": true,
      "crf": true,
      "dip": true,
      "dev": false,
      "dis": true,
      "esc": true,
      "fly": false,
      "han": false,
      "hea": false,
      "int": true,
      "kar": true,
      "kdu": true,
      "ken": true,
      "kge": true,
      "khi": true,
      "klo": true,
      "kna": true,
      "kno": true,
      "kpl": true,
      "kre": true,
      "lin": true,
      "lor": false,
      "per": true,
      "prf": true,
      "pro": true,
      "rid": false,
      "sen": true,
      "slt": true,
      "spl": true,
      "ste": true,
      "sur": false,
      "swm": false,
      "umd": true
    },
    "extraDescription": {
      "value": "<h2>Weapon and Armor Proficiency</h2>\n<p>A bard is proficient with all&nbsp;<a href=\"https://www.d20pfsrd.com/equipment/weapons#TOC-Simple-Martial-and-Exotic-Weapons-\">simple weapons</a>, plus the&nbsp;<a href=\"https://www.d20pfsrd.com/equipment/weapons/weapon-descriptions/longsword\">longsword</a>,&nbsp;<a href=\"https://www.d20pfsrd.com/equipment/weapons/weapon-descriptions/rapier\">rapier</a>,&nbsp;<a href=\"https://www.d20pfsrd.com/equipment/weapons/weapon-descriptions/sap\">sap</a>,&nbsp;<a href=\"https://www.d20pfsrd.com/equipment/weapons/weapon-descriptions/shortsword\">shortsword</a>,&nbsp;<a href=\"https://www.d20pfsrd.com/equipment/weapons/weapon-descriptions/shortbow\">shortbow</a>, and&nbsp;<a href=\"https://www.d20pfsrd.com/equipment/weapons/weapon-descriptions/whip\">whip</a>. Bards are also proficient with light armor and shields (except tower shields). A bard can cast bard spells while wearing light armor and using a shield without incurring the normal arcane spell failure chance. Like any other arcane spellcaster, a bard wearing medium or heavy armor incurs a chance of arcane spell failure if the spell in question has a somatic component. A multiclass bard still incurs the normal arcane spell failure chance for arcane spells received from other classes.</p>\n<h2>Spells</h2>\n<p>A bard casts arcane spells drawn from the&nbsp;<a href=\"https://www.d20pfsrd.com/magic/spell-lists-and-domains/spell-lists-bard\">bard spell list</a>. He can cast any spell he knows without preparing it ahead of time. Every bard spell has a verbal component (singing, reciting, or music). To learn or cast a spell, a bard must have a&nbsp;<a href=\"https://www.d20pfsrd.com/basics-ability-scores/ability-scores#TOC-Charisma-Cha-\">Charisma</a>&nbsp;score equal to at least 10 + the spell level. The&nbsp;<a href=\"https://www.d20pfsrd.com/basics-ability-scores/glossary#TOC-Difficulty-Class-DC-\">Difficulty Class (DC)</a>&nbsp;for a saving throw against a bard’s spell is 10 + the spell level + the bard’s&nbsp;<a href=\"https://www.d20pfsrd.com/basics-ability-scores/ability-scores#TOC-Charisma-Cha-\">Charisma</a>&nbsp;modifier.</p>\n<p>Like other spellcasters, a bard can cast only a certain number of spells of each spell level per day. His base daily spell allotment is given on&nbsp;Table: bard. In addition, he receives bonus spells per day if he has a high&nbsp;<a href=\"https://www.d20pfsrd.com/basics-ability-scores/ability-scores#TOC-Charisma-Cha-\">Charisma</a>&nbsp;score.</p>\n<p>The bard’s selection of spells is extremely limited. A bard begins play knowing four 0-level spells and two 1st-level spells of the bard’s choice. At each new bard level, he gains one or more new spells, as indicated on&nbsp;Table: Bard Spells Known. (Unlike spells per day, the number of spells a bard knows is not affected by his&nbsp;<a href=\"https://www.d20pfsrd.com/basics-ability-scores/ability-scores#TOC-Charisma-Cha-\">Charisma</a>&nbsp;score (See&nbsp;<a href=\"https://www.d20pfsrd.com/basics-ability-scores/ability-scores#TOC-Abilities-and-Spellcasters\" rel=\"nofollow\">Table: Ability Modifiers and Bonus Spells</a>).</p>\n<p>Upon reaching 5th level, and at every third bard level after that (8th, 11th, and so on), a bard can choose to learn a new spell in place of one he already knows. In effect, the bard “loses” the old spell in exchange for the new one. The new spell’s level must be the same as that of the spell being exchanged, and it must be at least one level lower than the highest-level bard spell the bard can cast. A bard may swap only a single spell at any given level, and must choose whether or not to swap the spell at the same time that he gains new spells known for the level.</p>\n<p>A bard need not prepare his spells in advance. He can cast any spell he knows at any time, assuming he has not yet used up his allotment of spells per day for the spell’s level.</p>\n<h2>Bardic Knowledge (Ex)</h2>\n<p>A bard adds half his class level (minimum 1) to all&nbsp;<a href=\"https://www.d20pfsrd.com/skills/knowledge\">Knowledge</a>&nbsp;skill checks and may make all&nbsp;<a href=\"https://www.d20pfsrd.com/skills/knowledge\">Knowledge</a>&nbsp;skill checks untrained.</p>\n<h2>Bardic Performance</h2>\n<p>A bard is trained to use the&nbsp;<a href=\"https://www.d20pfsrd.com/skills/perform\">Perform</a>&nbsp;skill to create magical effects on those around him, including himself if desired. He can use this ability for a number of rounds per day equal to 4 + his&nbsp;<a href=\"https://www.d20pfsrd.com/basics-ability-scores/ability-scores#TOC-Charisma-Cha-\">Charisma</a>&nbsp;modifier. At each level after 1st a bard can use bardic performance for 2 additional rounds per day. Each round, the bard can produce any one of the types of bardic performance that he has mastered, as indicated by his level.</p>\n<p>Starting a bardic performance is a&nbsp;<a href=\"https://www.d20pfsrd.com/gamemastering/combat#TOC-Standard-Actions\">standard action</a>, but it can be maintained each round as a&nbsp;<a href=\"https://www.d20pfsrd.com/gamemastering/combat#TOC-Free-Actions\">free action</a>. Changing a bardic performance from one effect to another requires the bard to stop the previous performance and start a new one as a&nbsp;<a href=\"https://www.d20pfsrd.com/gamemastering/combat#TOC-Standard-Actions\">standard action</a>. A bardic performance cannot be disrupted, but it ends immediately if the bard is killed,&nbsp;<a href=\"https://www.d20pfsrd.com/gamemastering/conditions#TOC-Paralyzed\">paralyzed</a>,&nbsp;<a href=\"https://www.d20pfsrd.com/gamemastering/conditions#TOC-Stunned\">stunned</a>, knocked&nbsp;<a href=\"https://www.d20pfsrd.com/gamemastering/conditions#TOC-Unconscious\">unconscious</a>, or otherwise prevented from taking a&nbsp;<a href=\"https://www.d20pfsrd.com/gamemastering/combat#TOC-Free-Actions\">free action</a>&nbsp;to maintain it each round. A bard cannot have more than one bardic performance in effect at one time.</p>\n<p>At 7th level, a bard can start a bardic performance as a&nbsp;<a href=\"https://www.d20pfsrd.com/gamemastering/combat#TOC-Move-Actions\">move action</a>&nbsp;instead of a&nbsp;<a href=\"https://www.d20pfsrd.com/gamemastering/combat#TOC-Standard-Actions\">standard action</a>. At 13th level, a bard can start a bardic performance as a&nbsp;<a href=\"https://www.d20pfsrd.com/gamemastering/combat#TOC-Swift-Actions\">swift action</a>.</p>\n<p>Each bardic performance has audible&nbsp;<a href=\"https://www.d20pfsrd.com/magic#TOC-Components\">components</a>, visual&nbsp;<a href=\"https://www.d20pfsrd.com/magic#TOC-Components\">components</a>, or both.</p>\n<p>If a bardic performance has audible components, the targets must be able to hear the bard for the performance to have any effect, and many such performances are language dependent (as noted in the description). A&nbsp;<a href=\"https://www.d20pfsrd.com/gamemastering/conditions#TOC-Deafened\">deaf</a>&nbsp;bard has a 20% chance to fail when attempting to use a bardic performance with an audible component. If he fails this check, the attempt still counts against his daily limit. Deaf creatures are immune to bardic performances with audible components.</p>\n<p>If a bardic performance has a visual component, the targets must have line of sight to the bard for the performance to have any effect. A&nbsp;<a href=\"https://www.d20pfsrd.com/gamemastering/conditions#TOC-Blinded\">blind</a>&nbsp;bard has a 50% chance to fail when attempting to use a bardic performance with a visual component. If he fails this check, the attempt still counts against his daily limit. Blind creatures are immune to bardic performances with visual components.</p>\n<p>List of Bardic Performances:</p>\n<div>\n<p><a id=\"TOC-Countersong-Su-\"></a><strong>Countersong (Su)</strong>: At 1st level, a bard learns to counter magic effects that depend on sound (but not spells that have verbal&nbsp;<a href=\"https://www.d20pfsrd.com/magic#TOC-Components\">components</a>.) Each round of the countersong he makes a&nbsp;<a href=\"https://www.d20pfsrd.com/skills/perform\">Perform</a>&nbsp;(keyboard, percussion, wind, string, or sing) skill check. Any creature within 30 feet of the bard (including the bard himself) that is affected by a sonic or language-dependent magical attack may use the bard’s&nbsp;<a href=\"https://www.d20pfsrd.com/skills/perform\">Perform</a>&nbsp;check result in place of its saving throw if, after the saving throw is rolled, the&nbsp;<a href=\"https://www.d20pfsrd.com/skills/perform\">Perform</a>&nbsp;check result proves to be higher. If a creature within range of the countersong is already under the effect of a non-instantaneous sonic or language-dependent magical attack, it gains another saving throw against the effect each round it hears the countersong, but it must use the bard’s&nbsp;<a href=\"https://www.d20pfsrd.com/skills/perform\">Perform</a>&nbsp;skill check result for the save. Countersong does not work on effects that don’t allow saves. Countersong relies on audible components.</p>\n<p><a id=\"TOC-Distraction-Su-\"></a><strong>Distraction (Su)</strong>: At 1st level, a bard can use his performance to counter magic effects that depend on sight. Each round of the Distraction, he makes a&nbsp;<a href=\"https://www.d20pfsrd.com/skills/perform\">Perform</a>&nbsp;(act, comedy, dance, or oratory) skill check. Any creature within 30 feet of the bard (including the bard himself) that is affected by an&nbsp;<a href=\"https://www.d20pfsrd.com/magic#TOC-Illusion\">illusion</a>&nbsp;(<a href=\"https://www.d20pfsrd.com/magic#TOC-lllusion-Pattern\">pattern</a>) or&nbsp;<a href=\"https://www.d20pfsrd.com/magic#TOC-Illusion\">illusion</a>&nbsp;(<a href=\"https://www.d20pfsrd.com/magic#TOC-lllusion-Figment\">figment</a>) magical attack may use the bard’s&nbsp;<a href=\"https://www.d20pfsrd.com/skills/perform\">Perform</a>&nbsp;check result in place of its saving throw if, after the saving throw is rolled, the&nbsp;<a href=\"https://www.d20pfsrd.com/skills/perform\">Perform</a>&nbsp;check result proves to be higher. If a creature within range of the Distraction is already under the effect of a non-instantaneous&nbsp;<a href=\"https://www.d20pfsrd.com/magic#TOC-Illusion\">illusion</a>&nbsp;(<a href=\"https://www.d20pfsrd.com/magic#TOC-lllusion-Pattern\">pattern</a>) or&nbsp;<a href=\"https://www.d20pfsrd.com/magic#TOC-Illusion\">illusion</a>&nbsp;(<a href=\"https://www.d20pfsrd.com/magic#TOC-lllusion-Figment\">figment</a>) magical attack, it gains another saving throw against the effect each round it sees the Distraction, but it must use the bard’s&nbsp;<a href=\"https://www.d20pfsrd.com/skills/perform\">Perform</a>&nbsp;check result for the save. Distraction does not work on effects that don’t allow saves. Distraction relies on visual components.</p>\n<p><a id=\"TOC-Fascinate-Su-\"></a><strong>Fascinate (Su)</strong>: At 1st level, a bard can use his performance to cause one or more creatures to become&nbsp;<a href=\"https://www.d20pfsrd.com/gamemastering/conditions#TOC-Fascinated\">fascinated</a>&nbsp;with him. Each creature to be fascinated must be within 90 feet, able to see and hear the bard, and capable of paying attention to him. The bard must also be able to see the creatures affected. The Distraction of a nearby combat or other dangers prevents the ability from working. For every three levels a bard has attained beyond 1st, he can target one additional creature with this ability.</p>\n<p>Each creature within range receives a&nbsp;<a href=\"https://www.d20pfsrd.com/gamemastering/combat#TOC-Will\">Will</a>&nbsp;save (DC 10 + 1/2 the bard’s level + the bard’s&nbsp;<a href=\"https://www.d20pfsrd.com/basics-ability-scores/ability-scores#TOC-Charisma-Cha-\">Cha</a>&nbsp;modifier) to negate the effect. If a creature’s saving throw succeeds, the bard cannot attempt to fascinate that creature again for 24 hours. If its saving throw fails, the creature sits quietly and observes the performance for as long as the bard continues to maintain it. While&nbsp;<a href=\"https://www.d20pfsrd.com/gamemastering/conditions#TOC-Fascinated\">fascinated</a>, a target takes a –4 penalty on skill checks made as reactions, such as&nbsp;<a href=\"https://www.d20pfsrd.com/skills/perception\">Perception</a>&nbsp;checks. Any potential threat to the target allows the target to make a new saving throw against the effect. Any obvious threat, such as someone drawing a weapon, casting a spell, or aiming a weapon at the target, automatically breaks the effect.</p>\n<p>Fascinate is an&nbsp;<a href=\"https://www.d20pfsrd.com/magic#TOC-Enchantment\">enchantment</a>&nbsp;(<a href=\"https://www.d20pfsrd.com/magic#TOC-Enchantment-Compulsion\">compulsion</a>), mind-affecting ability. Fascinate relies on audible and visual components in order to function.</p>\n<p><a id=\"TOC-Inspire-Courage-Su-\"></a><strong>Inspire Courage (Su)</strong>: A 1st level bard can use his performance to inspire courage in his allies (including himself), bolstering them against fear and improving their combat abilities. To be affected, an ally must be able to perceive the bard’s performance. An affected ally receives a +1&nbsp;<a href=\"https://www.d20pfsrd.com/basics-ability-scores/glossary#TOC-Morale-Bonus\">morale bonus</a>&nbsp;on saving throws against&nbsp;<a href=\"https://www.d20pfsrd.com/magic#TOC-Enchantment-Charm\">charm</a>&nbsp;and fear effects and a +1&nbsp;<a href=\"https://www.d20pfsrd.com/basics-ability-scores/glossary#TOC-Competence-Bonus\">competence bonus</a>&nbsp;on attack and weapon damage rolls. At 5th level, and every six bard levels thereafter, this bonus increases by +1, to a maximum of +4 at 17th level. Inspire courage is a mind-affecting ability. inspire courage can use audible or visual components. The bard must choose which component to use when starting his performance.</p>\n<p><a id=\"TOC-Inspire-Competence-Su-\"></a><strong>Inspire Competence (Su)</strong>: A bard of 3rd level or higher can use his performance to help an ally succeed at a task. The ally must be within 30 feet and able to see and hear the bard. The ally gets a +2&nbsp;<a href=\"https://www.d20pfsrd.com/basics-ability-scores/glossary#TOC-Competence-Bonus\">competence bonus</a>&nbsp;on skill checks with a particular skill as long as she continues to hear the bard’s performance. This bonus increases by +1 for every four levels the bard has attained beyond 3rd (+3 at 7th, +4 at 11th, +5 at 15th, and +6 at 19th).</p>\n<p>Certain uses of this ability are infeasible, such as&nbsp;<a href=\"https://www.d20pfsrd.com/skills/stealth\">Stealth</a>, and may be disallowed at the GM’s discretion. A bard can’t inspire competence in himself. inspire competence relies on audible components.</p>\n<p><a id=\"TOC-Suggestion-Sp-\"></a><strong>Suggestion (Sp)</strong>: A bard of 6th level or higher can use his performance to make a&nbsp;<a href=\"https://www.d20pfsrd.com/magic/all-spells/s/suggestion\">suggestion</a>&nbsp;(as per the spell) to a creature that he has already&nbsp;<a href=\"https://www.d20pfsrd.com/gamemastering/conditions#TOC-Fascinated\">fascinated</a>&nbsp;(see above). Using this ability does not disrupt the fascinate effect, but it does require a&nbsp;<a href=\"https://www.d20pfsrd.com/gamemastering/combat#TOC-Standard-Actions\">standard action</a>&nbsp;to activate (in addition to the&nbsp;<a href=\"https://www.d20pfsrd.com/gamemastering/combat#TOC-Free-Actions\">free action</a>&nbsp;to continue the fascinate effect). A bard can use this ability more than once against an individual creature during an individual performance.</p>\n<p>A&nbsp;<a href=\"https://www.d20pfsrd.com/gamemastering/combat#TOC-Will\">Will</a>&nbsp;saving throw (DC 10 + 1/2 bard’s level + bard’s&nbsp;<a href=\"https://www.d20pfsrd.com/basics-ability-scores/ability-scores#TOC-Charisma-Cha-\">Cha</a>&nbsp;modifier) negates the effect. This ability affects only a single creature (but see&nbsp;<a href=\"https://www.d20pfsrd.com/classes/core-classes/BARD/#TOC-Mass-Suggestion-Sp-\">mass suggestion</a>, below). Suggestion is an&nbsp;<a href=\"https://www.d20pfsrd.com/magic#TOC-Enchantment\">enchantment</a>&nbsp;(<a href=\"https://www.d20pfsrd.com/magic#TOC-Enchantment-Compulsion\">compulsion</a>), mind-affecting, language-dependent ability and relies on audible components.</p>\n<p><a id=\"TOC-Dirge-of-Doom-Su-\"></a><strong>Dirge of Doom (Su)</strong>: A bard of 8th level or higher can use his performance to foster a sense of growing dread in his enemies, causing them to take become&nbsp;<a href=\"https://www.d20pfsrd.com/gamemastering/conditions#TOC-Shaken\">shaken</a>. To be affected, an enemy must be within 30 feet and able to see and hear the bard’s performance. The effect persists for as long as the enemy is within 30 feet and the bard continues the performance. The performance cannot cause a creature to become&nbsp;<a href=\"https://www.d20pfsrd.com/gamemastering/conditions#TOC-Frightened\">frightened</a>&nbsp;or&nbsp;<a href=\"https://www.d20pfsrd.com/gamemastering/conditions#TOC-Panicked\">panicked</a>, even if the targets are already&nbsp;<a href=\"https://www.d20pfsrd.com/gamemastering/conditions#TOC-Shaken\">shaken</a>&nbsp;from another effect. Dirge of doom is a mind-affecting&nbsp;<a href=\"https://www.d20pfsrd.com/magic/all-spells/f/fear\">fear</a>&nbsp;effect, and it relies on audible and visual&nbsp;<a href=\"https://www.d20pfsrd.com/magic#TOC-Components\">components</a>.</p>\n<p><a id=\"TOC-Inspire-Greatness-Su-\"></a><strong>Inspire Greatness (Su)</strong>: A bard of 9th level or higher can use his performance to inspire greatness in himself or a single willing ally within 30 feet, granting extra fighting capability. For every three levels a bard attains beyond 9th, he can target one additional ally while using this performance (up to a maximum of four at 18th level). To inspire greatness, all of the targets must be able to see and hear the bard. A creature inspired with greatness gains 2 bonus&nbsp;<a href=\"https://www.d20pfsrd.com/basics-ability-scores/glossary#TOC-Hit-Dice-HD-\">Hit Dice</a>&nbsp;(d10s), the commensurate number of&nbsp;<a href=\"https://www.d20pfsrd.com/gamemastering/combat#TOC-Temporary-Hit-Points\">temporary hit points</a>&nbsp;(apply the target’s&nbsp;<a href=\"https://www.d20pfsrd.com/basics-ability-scores/ability-scores#TOC-Constitution-Con-\">Constitution</a>&nbsp;modifier, if any, to these bonus&nbsp;<a href=\"https://www.d20pfsrd.com/basics-ability-scores/glossary#TOC-Hit-Dice-HD-\">Hit Dice</a>), a +2&nbsp;<a href=\"https://www.d20pfsrd.com/basics-ability-scores/glossary#TOC-Competence-Bonus\">competence bonus</a>&nbsp;on&nbsp;<a href=\"https://www.d20pfsrd.com/gamemastering/combat#TOC-Attack-Roll\">attack rolls</a>, and a +1&nbsp;<a href=\"https://www.d20pfsrd.com/basics-ability-scores/glossary#TOC-Competence-Bonus\">competence bonus</a>&nbsp;on&nbsp;<a href=\"https://www.d20pfsrd.com/gamemastering/combat#TOC-Fortitude\">Fortitude</a>&nbsp;saves. The bonus&nbsp;<a href=\"https://www.d20pfsrd.com/basics-ability-scores/glossary#TOC-Hit-Dice-HD-\">Hit Dice</a>&nbsp;count as regular&nbsp;<a href=\"https://www.d20pfsrd.com/basics-ability-scores/glossary#TOC-Hit-Dice-HD-\">Hit Dice</a>&nbsp;for determining the effect of spells that are&nbsp;<a href=\"https://www.d20pfsrd.com/basics-ability-scores/glossary#TOC-Hit-Dice-HD-\">Hit Dice</a>&nbsp;dependent. Inspire greatness is a mind-affecting ability and it relies on audible and visual components.</p>\n<p><a id=\"TOC-Soothing-Performance-Su-\"></a><strong>Soothing Performance (Su)</strong>: A bard of 12th level or higher can use his performance to create an effect equivalent to the&nbsp;<a href=\"https://www.d20pfsrd.com/magic/all-spells/c/cure-serious-wounds\">mass cure serious wounds</a>, using the bard’s level as the&nbsp;<a href=\"https://www.d20pfsrd.com/magic#TOC-Caster-Level\">caster level</a>. In addition, this performance removes the&nbsp;<a href=\"https://www.d20pfsrd.com/gamemastering/conditions#TOC-Fatigued\">fatigued</a>,&nbsp;<a href=\"https://www.d20pfsrd.com/gamemastering/conditions#TOC-Sickened\">sickened</a>, and&nbsp;<a href=\"https://www.d20pfsrd.com/gamemastering/conditions#TOC-Shaken\">shaken</a>&nbsp;condition from all those affected. Using this ability requires 4 rounds of continuous performance, and the targets must be able to see and hear the bard throughout the performance. Soothing performance relies on audible and visual components.</p>\n<p><a id=\"TOC-Frightening-Tune-Sp-\"></a><strong>Frightening Tune (Sp)</strong>: A bard of 14th level or higher can use his performance to cause fear in his enemies. To be affected, an enemy must be able to hear the bard perform and be within 30 feet. Each enemy within range receives a&nbsp;<a href=\"https://www.d20pfsrd.com/gamemastering/combat#TOC-Will\">Will</a>&nbsp;save (DC 10 + 1/2 the bard’s level + the bard’s&nbsp;<a href=\"https://www.d20pfsrd.com/basics-ability-scores/ability-scores#TOC-Charisma-Cha-\">Cha</a>&nbsp;modifier) to negate the effect. If the save succeeds, the creature is immune to this ability for 24 hours. If the save fails, the target becomes&nbsp;<a href=\"https://www.d20pfsrd.com/gamemastering/conditions#TOC-Frightened\">frightened</a>&nbsp;and flees for as long as the target can hear the bard’s performance. Frightening tune relies on audible components.</p>\n<p><a id=\"TOC-Inspire-Heroics-Su-\"></a><strong>Inspire Heroics (Su)</strong>: A bard of 15th level or higher can inspire tremendous heroism in himself or a single ally within 30 feet. For every three bard levels the character attains beyond 15th, he can inspire heroics in one additional creature. To inspire heroics, all of the targets must be able to see and hear the bard. Inspired creatures gain a +4&nbsp;<a href=\"https://www.d20pfsrd.com/basics-ability-scores/glossary#TOC-Morale-Bonus\">morale bonus</a>&nbsp;on saving throws and a +4&nbsp;<a href=\"https://www.d20pfsrd.com/basics-ability-scores/glossary#TOC-Dodge-Bonus\">dodge bonus</a>&nbsp;to AC. The effect lasts for as long as the targets are able to witness the performance. Inspire heroics is a mind-affecting ability that relies on audible and visual components.</p>\n<p><a id=\"TOC-Mass-Suggestion-Sp-\"></a><strong>Mass Suggestion (Sp)</strong>: This ability functions just like&nbsp;<a href=\"https://www.d20pfsrd.com/classes/core-classes/BARD/#TOC-Suggestion-Sp-\">suggestion</a>, but allows a bard of 18th level or higher to make&nbsp;a&nbsp;suggestion simultaneously to any number of creatures that he has already&nbsp;<a href=\"https://www.d20pfsrd.com/gamemastering/conditions#TOC-Fascinated\">fascinated</a>. Mass suggestion is an&nbsp;<a href=\"https://www.d20pfsrd.com/magic#TOC-Enchantment\">enchantment</a>&nbsp;(<a href=\"https://www.d20pfsrd.com/magic#TOC-Enchantment-Compulsion\">compulsion</a>), mind-affecting, language dependent ability that relies on audible components.</p>\n<p><a id=\"TOC-Deadly-Performance-Su-\"></a><strong>Deadly Performance (Su)</strong>: A bard of 20th level or higher can use his performance to cause one enemy to die from joy or sorrow. To be affected, the target must be able to see and hear the bard perform for 1 full round and be within 30 feet. The target receives a&nbsp;<a href=\"https://www.d20pfsrd.com/gamemastering/combat#TOC-Will\">Will</a>&nbsp;save (DC 10 + 1/2 the bard’s level + the bard’s&nbsp;<a href=\"https://www.d20pfsrd.com/basics-ability-scores/ability-scores#TOC-Charisma-Cha-\">Cha</a>&nbsp;modifier) to negate the effect. If a creature’s saving throw succeeds, the target is&nbsp;<a href=\"https://www.d20pfsrd.com/gamemastering/conditions#TOC-Staggered\">staggered</a>&nbsp;for 1d4 rounds, and the bard cannot use deadly performance on that creature again for 24 hours. If a creature’s saving throw fails, it dies. Deadly performance is a mind-effecting death effect that relies on audible and visual components.</p>\n<h2>Cantrips (Sp)</h2>\n<p>Bard’s learn a number of cantrips, or 0-level spells, as noted on&nbsp;Table: Bard Spells Known&nbsp;under “Spells Known.” These spells are cast like any other spell, but they do not consume any slots and may be used again.</p>\n<h2>Versatile Performance (Ex)</h2>\n<p>At 2nd level, a bard can choose one type of&nbsp;<a href=\"https://www.d20pfsrd.com/skills/perform\">Perform</a>&nbsp;skill. He can use his bonus in that skill in place of his bonus in associated skills. When substituting in this way, the bard uses his total&nbsp;<a href=\"https://www.d20pfsrd.com/skills/perform\">Perform</a>&nbsp;skill bonus, including class skill bonus, in place of its associated skill’s bonus, whether or not he has ranks in that skill or if it is a class skill. At 6th level, and every 4 levels thereafter, the bard can select an additional type of&nbsp;<a href=\"https://www.d20pfsrd.com/skills/perform\">Perform</a>&nbsp;to substitute.</p>\n<p>The types of&nbsp;<a href=\"https://www.d20pfsrd.com/skills/perform\">Perform</a>&nbsp;and their associated skills are: Act (<a href=\"https://www.d20pfsrd.com/skills/bluff\">Bluff</a>,&nbsp;<a href=\"https://www.d20pfsrd.com/skills/disguise\">Disguise</a>), Comedy (<a href=\"https://www.d20pfsrd.com/skills/bluff\">Bluff</a>,&nbsp;<a href=\"https://www.d20pfsrd.com/skills/intimidate\">Intimidate</a>), Dance (<a href=\"https://www.d20pfsrd.com/skills/acrobatics\">Acrobatics</a>,&nbsp;<a href=\"https://www.d20pfsrd.com/skills/fly\">Fly</a>), Keyboard Instruments (<a href=\"https://www.d20pfsrd.com/skills/diplomacy\">Diplomacy</a>,&nbsp;<a href=\"https://www.d20pfsrd.com/skills/intimidate\">Intimidate</a>), Oratory (<a href=\"https://www.d20pfsrd.com/skills/diplomacy\">Diplomacy</a>,&nbsp;<a href=\"https://www.d20pfsrd.com/skills/sense-motive\">Sense Motive</a>), Percussion (<a href=\"https://www.d20pfsrd.com/skills/handle-animal\">Handle Animal</a>,&nbsp;<a href=\"https://www.d20pfsrd.com/skills/intimidate\">Intimidate</a>), Sing (<a href=\"https://www.d20pfsrd.com/skills/bluff\">Bluff</a>,&nbsp;<a href=\"https://www.d20pfsrd.com/skills/sense-motive\">Sense Motive</a>), String (<a href=\"https://www.d20pfsrd.com/skills/bluff\">Bluff</a>,&nbsp;<a href=\"https://www.d20pfsrd.com/skills/diplomacy\">Diplomacy</a>), and Wind (<a href=\"https://www.d20pfsrd.com/skills/diplomacy\">Diplomacy</a>,&nbsp;<a href=\"https://www.d20pfsrd.com/skills/handle-animal\">Handle Animal</a>).</p>\n<h3>Advanced Versatile Performances</h3>\n<p>Beginning at 6th level, instead of selecting an additional skill with versatile performance, a bard or&nbsp;<a href=\"https://www.d20pfsrd.com/classes/hybrid-classes/skald\">skald</a>&nbsp;can choose an advanced versatile performance for one&nbsp;<a href=\"https://www.d20pfsrd.com/skills/perform\">Perform</a>&nbsp;skill he previously selected with versatile performance. Some advanced versatile performance options can be selected only if the bard or&nbsp;<a href=\"https://www.d20pfsrd.com/classes/hybrid-classes/skald\">skald</a>&nbsp;meets the option’s prerequisites.</p>\n<p>A bard or&nbsp;<a href=\"https://www.d20pfsrd.com/classes/hybrid-classes/skald\">skald</a>&nbsp;with an archetype that replaces versatile performance cannot select advanced versatile performance options.</p>\n<div>\n<p><strong>Expanded Versatility (Ex)</strong>: The bard chooses one&nbsp;<a href=\"https://www.d20pfsrd.com/skills/perform\">Perform</a>&nbsp;skill that he has already selected with versatile performance. He adds one of the following skills to the list of skills that are associated with the chosen&nbsp;<a href=\"https://www.d20pfsrd.com/skills/perform\">Perform</a>&nbsp;skill for the purpose of the versatile performance ability:&nbsp;<a href=\"https://www.d20pfsrd.com/skills/bluff\">Bluff</a>,&nbsp;<a href=\"https://www.d20pfsrd.com/skills/diplomacy\">Diplomacy</a>,&nbsp;<a href=\"https://www.d20pfsrd.com/skills/disguise\">Disguise</a>,&nbsp;<a href=\"https://www.d20pfsrd.com/skills/escape-artist\">Escape Artist</a>,&nbsp;<a href=\"https://www.d20pfsrd.com/skills/handle-animal\">Handle Animal</a>,&nbsp;<a href=\"https://www.d20pfsrd.com/skills/intimidate\">Intimidate</a>,&nbsp;<a href=\"https://www.d20pfsrd.com/skills/sense-motive\">Sense Motive</a>, or&nbsp;<a href=\"https://www.d20pfsrd.com/skills/use-magic-device\">Use Magic Device</a>. This option can be selected multiple times, but no skill can be associated with the same&nbsp;<a href=\"https://www.d20pfsrd.com/skills/perform\">Perform</a>&nbsp;skill more than once.</p>\n<p><strong>Martial Performance (Ex)</strong>: The bard chooses one weapon belonging to a&nbsp;<a href=\"https://www.d20pfsrd.com/classes/core-classes/fighter\">fighter</a>&nbsp;weapon group that is associated with a&nbsp;<a href=\"https://www.d20pfsrd.com/skills/perform\">Perform</a>&nbsp;skill he has selected with versatile performance (see below). He gains proficiency with this weapon. If the bard is already proficient with this weapon or later becomes proficient with it, he gains&nbsp;<a href=\"https://www.d20pfsrd.com/feats/combat-feats/weapon-focus/\">Weapon Focus</a>&nbsp;with that weapon as a bonus feat instead. In addition, the&nbsp;<a href=\"https://www.d20pfsrd.com/classes/core-classes/bard\">bard’s</a>&nbsp;effective&nbsp;<a href=\"https://www.d20pfsrd.com/classes/core-classes/fighter\">fighter</a>&nbsp;level is equal to 1/2 his bard level for the purpose of qualifying for feats that specifically select weapons from those&nbsp;<a href=\"https://www.d20pfsrd.com/skills/perform\">Perform</a>&nbsp;skills’ associated&nbsp;<a href=\"https://www.d20pfsrd.com/classes/core-classes/fighter\">fighter</a>&nbsp;weapon groups. The types of&nbsp;<a href=\"https://www.d20pfsrd.com/skills/perform\">Perform</a>&nbsp;skills and their associated&nbsp;<a href=\"https://www.d20pfsrd.com/classes/core-classes/fighter\">fighter</a>&nbsp;weapon groups are: Act (close, double), Comedy (flails, thrown), Dance (<a href=\"https://www.d20pfsrd.com/classes/core-classes/monk\">monk</a>, spears), Keyboard Instruments (hammers, siege engines), Oratory (heavy blades, light blades), Percussion (close, hammers), Sing (close,&nbsp;<a href=\"https://www.d20pfsrd.com/basics-ability-scores/glossary#TOC-Bonus-Natural-Armor-\">natural</a>),&nbsp;<a href=\"https://www.d20pfsrd.com/equipment/goods-and-services/hunting-camping-survival-gear#TOC-String-or-Twine\">String</a>&nbsp;(axes, bows), and Wind (<a href=\"https://www.d20pfsrd.com/classes/core-classes/monk\">monk</a>, thrown).</p>\n</div>\n<p><strong>Masterpiece</strong>: The bard gains a bardic masterpiece, as if he were giving up a feat to learn it. He must meet the masterpiece’s prerequisites, and the masterpiece must list ranks in a&nbsp;<a href=\"https://www.d20pfsrd.com/skills/perform\">Perform</a>&nbsp;skill that the bard has chosen with versatile performance as a prerequisite. This option can be selected multiple times.</p>\n<h2>Well-Versed (Ex)</h2>\n<p>At 2nd level, the bard becomes resistant to the bardic performance of others, and to sonic effects in general. The bard gains a +4 bonus on saving throws made against bardic performance, sonic, and language-dependent effects.</p>\n<h2>Jack of All Trades (Ex)</h2>\n<p>At 10th level, the bard can use any skill, even if the skill normally requires him to be trained. At 16th level, the bard considers all skills to be class skills. At 19th level, the bard can take 10 on any skill check, even if it is not normally allowed.</p>\n</div>",
      "chat": "",
      "unidentified": ""
    },
    "damage": {
      "parts": [],
      "critParts": [],
      "nonCritParts": []
    },
    "preparation": {
      "maxAmount": 0
    },
    "weaponData": {
      "critRange": 20,
      "critMult": 2
    },
    "uses": {
      "value": 0,
      "max": 0
    }
  },
  "flags": {},
  "img": "systems/pf1/icons/items/inventory/lute.jpg",
  "effects": []
}